(export (version D)
  (design
    (source C:\Proyectos\test\l293d\l293d\l293d.sch)
    (date "22/07/2020 8:40:35")
    (tool "Eeschema (5.1.6)-1")
    (sheet (number 1) (name /) (tstamps /)
      (title_block
        (title)
        (company)
        (rev)
        (date)
        (source l293d.sch)
        (comment (number 1) (value ""))
        (comment (number 2) (value ""))
        (comment (number 3) (value ""))
        (comment (number 4) (value "")))))
  (components
    (comp (ref P1)
      (value CONN_01X08)
      (footprint D1_mini:D1_mini_Pin_Header)
      (libsource (lib l293d-rescue) (part CONN_01X08) (description ""))
      (sheetpath (names /) (tstamps /))
      (tstamp 5763EB78))
    (comp (ref P2)
      (value CONN_01X08)
      (footprint D1_mini:D1_mini_Pin_Header)
      (libsource (lib l293d-rescue) (part CONN_01X08) (description ""))
      (sheetpath (names /) (tstamps /))
      (tstamp 5763EBF2))
    (comp (ref Puente2)
      (value L293D)
      (footprint Package_DIP:DIP-16_W7.62mm)
      (datasheet http://www.ti.com/lit/ds/symlink/l293.pdf)
      (libsource (lib Driver_Motor) (part L293D) (description "Quadruple Half-H Drivers"))
      (sheetpath (names /) (tstamps /))
      (tstamp 5F15361E))
    (comp (ref Puente1)
      (value L293D)
      (footprint Package_DIP:DIP-16_W7.62mm)
      (datasheet http://www.ti.com/lit/ds/symlink/l293.pdf)
      (libsource (lib Driver_Motor) (part L293D) (description "Quadruple Half-H Drivers"))
      (sheetpath (names /) (tstamps /))
      (tstamp 5F154B4C))
    (comp (ref Puente12)
      (value Conn_01x06_Female)
      (footprint Connector_PinSocket_2.54mm:PinSocket_1x06_P2.54mm_Vertical)
      (datasheet ~)
      (libsource (lib Connector) (part Conn_01x06_Female) (description "Generic connector, single row, 01x06, script generated (kicad-library-utils/schlib/autogen/connector/)"))
      (sheetpath (names /) (tstamps /))
      (tstamp 5F161142))
    (comp (ref R1)
      (value R)
      (footprint Resistor_THT:R_Axial_DIN0207_L6.3mm_D2.5mm_P7.62mm_Horizontal)
      (datasheet ~)
      (libsource (lib Device) (part R) (description Resistor))
      (sheetpath (names /) (tstamps /))
      (tstamp 5F159748))
    (comp (ref R2)
      (value R)
      (footprint Resistor_THT:R_Axial_DIN0207_L6.3mm_D2.5mm_P7.62mm_Horizontal)
      (datasheet ~)
      (libsource (lib Device) (part R) (description Resistor))
      (sheetpath (names /) (tstamps /))
      (tstamp 5F154727))
    (comp (ref JP5v2)
      (value Jumper_2_Open)
      (footprint Resistor_THT:R_Axial_DIN0204_L3.6mm_D1.6mm_P1.90mm_Vertical)
      (datasheet ~)
      (libsource (lib Jumper) (part Jumper_2_Open) (description "Jumper, 2-pole, open"))
      (sheetpath (names /) (tstamps /))
      (tstamp 5F15C722))
    (comp (ref JP3.3v2)
      (value Jumper_2_Open)
      (footprint Resistor_THT:R_Axial_DIN0204_L3.6mm_D1.6mm_P1.90mm_Vertical)
      (datasheet ~)
      (libsource (lib Jumper) (part Jumper_2_Open) (description "Jumper, 2-pole, open"))
      (sheetpath (names /) (tstamps /))
      (tstamp 5F15D420))
    (comp (ref JP5V1)
      (value Jumper_2_Open)
      (footprint Resistor_THT:R_Axial_DIN0204_L3.6mm_D1.6mm_P1.90mm_Vertical)
      (datasheet ~)
      (libsource (lib Jumper) (part Jumper_2_Open) (description "Jumper, 2-pole, open"))
      (sheetpath (names /) (tstamps /))
      (tstamp 5F15E683))
    (comp (ref JP3.3v1)
      (value Jumper_2_Open)
      (footprint Resistor_THT:R_Axial_DIN0204_L3.6mm_D1.6mm_P1.90mm_Vertical)
      (datasheet ~)
      (libsource (lib Jumper) (part Jumper_2_Open) (description "Jumper, 2-pole, open"))
      (sheetpath (names /) (tstamps /))
      (tstamp 5F15E689))
    (comp (ref JP_DeepSleep0)
      (value Jumper_2_Open)
      (footprint Jumper:SolderJumper-2_P1.3mm_Open_Pad1.0x1.5mm)
      (datasheet ~)
      (libsource (lib Jumper) (part Jumper_2_Open) (description "Jumper, 2-pole, open"))
      (sheetpath (names /) (tstamps /))
      (tstamp 5F162793))
    (comp (ref 5v_GND_RX_TX1)
      (value Conn_01x04_Female)
      (footprint Connector_PinHeader_2.54mm:PinHeader_1x04_P2.54mm_Vertical)
      (datasheet ~)
      (libsource (lib Connector) (part Conn_01x04_Female) (description "Generic connector, single row, 01x04, script generated (kicad-library-utils/schlib/autogen/connector/)"))
      (sheetpath (names /) (tstamps /))
      (tstamp 5F1551DC))
    (comp (ref L7805)
      (value L7805)
      (footprint Package_TO_SOT_THT:TO-220-3_Vertical)
      (datasheet http://www.st.com/content/ccc/resource/technical/document/datasheet/41/4f/b3/b0/12/d4/47/88/CD00000444.pdf/files/CD00000444.pdf/jcr:content/translations/en.CD00000444.pdf)
      (libsource (lib Regulator_Linear) (part L7805) (description "Positive 1.5A 35V Linear Regulator, Fixed Output 5V, TO-220/TO-263/TO-252"))
      (sheetpath (names /) (tstamps /))
      (tstamp 5F155B80))
    (comp (ref ChargerBatt1)
      (value L7805)
      (footprint Package_TO_SOT_THT:TO-220-3_Vertical)
      (datasheet http://www.st.com/content/ccc/resource/technical/document/datasheet/41/4f/b3/b0/12/d4/47/88/CD00000444.pdf/files/CD00000444.pdf/jcr:content/translations/en.CD00000444.pdf)
      (libsource (lib Regulator_Linear) (part L7805) (description "Positive 1.5A 35V Linear Regulator, Fixed Output 5V, TO-220/TO-263/TO-252"))
      (sheetpath (names /) (tstamps /))
      (tstamp 5F156411))
    (comp (ref C5v1)
      (value C)
      (footprint Capacitor_THT:CP_Radial_D5.0mm_P2.50mm)
      (datasheet ~)
      (libsource (lib Device) (part C) (description "Unpolarized capacitor"))
      (sheetpath (names /) (tstamps /))
      (tstamp 5F15D66F))
    (comp (ref D0)
      (value D)
      (footprint Diode_THT:D_A-405_P7.62mm_Horizontal)
      (datasheet ~)
      (libsource (lib Device) (part D) (description Diode))
      (sheetpath (names /) (tstamps /))
      (tstamp 5F15E1E1))
    (comp (ref Battery1)
      (value Conn_01x02_Female)
      (footprint TerminalBlock:TerminalBlock_bornier-2_P5.08mm)
      (datasheet ~)
      (libsource (lib Connector) (part Conn_01x02_Female) (description "Generic connector, single row, 01x02, script generated (kicad-library-utils/schlib/autogen/connector/)"))
      (sheetpath (names /) (tstamps /))
      (tstamp 5F164780))
    (comp (ref l9110_0)
      (value L9110)
      (footprint Package_DIP:DIP-8_W7.62mm)
      (libsource (lib L9110) (part L9110) (description ""))
      (sheetpath (names /) (tstamps /))
      (tstamp 5F19C925))
    (comp (ref l9110_1)
      (value L9110)
      (footprint Package_DIP:DIP-8_W7.62mm)
      (libsource (lib L9110) (part L9110) (description ""))
      (sheetpath (names /) (tstamps /))
      (tstamp 5F19E291))
    (comp (ref Puente11)
      (value Conn_01x06_Female)
      (footprint Connector_PinSocket_2.54mm:PinSocket_1x06_P2.54mm_Vertical)
      (datasheet ~)
      (libsource (lib Connector) (part Conn_01x06_Female) (description "Generic connector, single row, 01x06, script generated (kicad-library-utils/schlib/autogen/connector/)"))
      (sheetpath (names /) (tstamps /))
      (tstamp 5F160540))
    (comp (ref R_10K0)
      (value R)
      (footprint Resistor_THT:R_Axial_DIN0207_L6.3mm_D2.5mm_P7.62mm_Horizontal)
      (datasheet ~)
      (libsource (lib Device) (part R) (description Resistor))
      (sheetpath (names /) (tstamps /))
      (tstamp 5F18024C))
    (comp (ref R_10K1)
      (value R_10K1)
      (footprint Resistor_THT:R_Axial_DIN0207_L6.3mm_D2.5mm_P7.62mm_Horizontal)
      (datasheet ~)
      (libsource (lib Device) (part R) (description Resistor))
      (sheetpath (names /) (tstamps /))
      (tstamp 5F180EC5))
    (comp (ref R_10K2)
      (value R)
      (footprint Resistor_THT:R_Axial_DIN0207_L6.3mm_D2.5mm_P7.62mm_Horizontal)
      (datasheet ~)
      (libsource (lib Device) (part R) (description Resistor))
      (sheetpath (names /) (tstamps /))
      (tstamp 5F18156C))
    (comp (ref R_10K3)
      (value R_10K3)
      (footprint Resistor_THT:R_Axial_DIN0207_L6.3mm_D2.5mm_P7.62mm_Horizontal)
      (datasheet ~)
      (libsource (lib Device) (part R) (description Resistor))
      (sheetpath (names /) (tstamps /))
      (tstamp 5F181C23))
    (comp (ref l9110_2)
      (value L9110)
      (footprint Package_DIP:DIP-8_W7.62mm)
      (libsource (lib L9110) (part L9110) (description ""))
      (sheetpath (names /) (tstamps /))
      (tstamp 5F1BDA28))
    (comp (ref l9110_3)
      (value L9110)
      (footprint Package_DIP:DIP-8_W7.62mm)
      (libsource (lib L9110) (part L9110) (description ""))
      (sheetpath (names /) (tstamps /))
      (tstamp 5F1BDA2E))
    (comp (ref R_10K4)
      (value R)
      (footprint Resistor_THT:R_Axial_DIN0207_L6.3mm_D2.5mm_P7.62mm_Horizontal)
      (datasheet ~)
      (libsource (lib Device) (part R) (description Resistor))
      (sheetpath (names /) (tstamps /))
      (tstamp 5F1BDA48))
    (comp (ref R_10K5)
      (value R_10K5)
      (footprint Resistor_THT:R_Axial_DIN0207_L6.3mm_D2.5mm_P7.62mm_Horizontal)
      (datasheet ~)
      (libsource (lib Device) (part R) (description Resistor))
      (sheetpath (names /) (tstamps /))
      (tstamp 5F1BDA4E))
    (comp (ref R_10K6)
      (value R)
      (footprint Resistor_THT:R_Axial_DIN0207_L6.3mm_D2.5mm_P7.62mm_Horizontal)
      (datasheet ~)
      (libsource (lib Device) (part R) (description Resistor))
      (sheetpath (names /) (tstamps /))
      (tstamp 5F1BDA54))
    (comp (ref R_10K7)
      (value R_10K7)
      (footprint Resistor_THT:R_Axial_DIN0207_L6.3mm_D2.5mm_P7.62mm_Horizontal)
      (datasheet ~)
      (libsource (lib Device) (part R) (description Resistor))
      (sheetpath (names /) (tstamps /))
      (tstamp 5F1BDA5A))
    (comp (ref Puente01A1)
      (value Conn_01x02_Female)
      (footprint TerminalBlock:TerminalBlock_bornier-2_P5.08mm)
      (datasheet ~)
      (libsource (lib Connector) (part Conn_01x02_Female) (description "Generic connector, single row, 01x02, script generated (kicad-library-utils/schlib/autogen/connector/)"))
      (sheetpath (names /) (tstamps /))
      (tstamp 5F1F4594))
    (comp (ref Puente01B1)
      (value Conn_01x02_Female)
      (footprint TerminalBlock:TerminalBlock_bornier-2_P5.08mm)
      (datasheet ~)
      (libsource (lib Connector) (part Conn_01x02_Female) (description "Generic connector, single row, 01x02, script generated (kicad-library-utils/schlib/autogen/connector/)"))
      (sheetpath (names /) (tstamps /))
      (tstamp 5F1F459A))
    (comp (ref C2)
      (value C)
      (footprint Capacitor_THT:C_Disc_D3.0mm_W2.0mm_P2.50mm)
      (datasheet ~)
      (libsource (lib Device) (part C) (description "Unpolarized capacitor"))
      (sheetpath (names /) (tstamps /))
      (tstamp 5F1F45A0))
    (comp (ref C1)
      (value C)
      (footprint Capacitor_THT:C_Disc_D3.0mm_W2.0mm_P2.50mm)
      (datasheet ~)
      (libsource (lib Device) (part C) (description "Unpolarized capacitor"))
      (sheetpath (names /) (tstamps /))
      (tstamp 5F1F45A6))
    (comp (ref Puente02A1)
      (value Conn_01x02_Female)
      (footprint TerminalBlock:TerminalBlock_bornier-2_P5.08mm)
      (datasheet ~)
      (libsource (lib Connector) (part Conn_01x02_Female) (description "Generic connector, single row, 01x02, script generated (kicad-library-utils/schlib/autogen/connector/)"))
      (sheetpath (names /) (tstamps /))
      (tstamp 5F1FE269))
    (comp (ref Puente02B1)
      (value Conn_01x02_Female)
      (footprint TerminalBlock:TerminalBlock_bornier-2_P5.08mm)
      (datasheet ~)
      (libsource (lib Connector) (part Conn_01x02_Female) (description "Generic connector, single row, 01x02, script generated (kicad-library-utils/schlib/autogen/connector/)"))
      (sheetpath (names /) (tstamps /))
      (tstamp 5F1FE26F))
    (comp (ref C3)
      (value C)
      (footprint Capacitor_THT:C_Disc_D3.0mm_W2.0mm_P2.50mm)
      (datasheet ~)
      (libsource (lib Device) (part C) (description "Unpolarized capacitor"))
      (sheetpath (names /) (tstamps /))
      (tstamp 5F1FE275))
    (comp (ref C4)
      (value C)
      (footprint Capacitor_THT:C_Disc_D3.0mm_W2.0mm_P2.50mm)
      (datasheet ~)
      (libsource (lib Device) (part C) (description "Unpolarized capacitor"))
      (sheetpath (names /) (tstamps /))
      (tstamp 5F1FE27B))
    (comp (ref InputVol0)
      (value Conn_01x02_Female)
      (footprint TerminalBlock:TerminalBlock_bornier-2_P5.08mm)
      (datasheet ~)
      (libsource (lib Connector) (part Conn_01x02_Female) (description "Generic connector, single row, 01x02, script generated (kicad-library-utils/schlib/autogen/connector/)"))
      (sheetpath (names /) (tstamps /))
      (tstamp 5F2EFD74))
    (comp (ref DirecVCC1)
      (value Jumper_2_Open)
      (footprint Jumper:SolderJumper-2_P1.3mm_Open_Pad1.0x1.5mm)
      (datasheet ~)
      (libsource (lib Jumper) (part Jumper_2_Open) (description "Jumper, 2-pole, open"))
      (sheetpath (names /) (tstamps /))
      (tstamp 5F318384))
    (comp (ref SW7)
      (value SW_PUSH)
      (footprint Connector_PinSocket_2.54mm:PinSocket_1x02_P2.54mm_Vertical)
      (libsource (lib L9110) (part SW_PUSH) (description ""))
      (sheetpath (names /) (tstamps /))
      (tstamp 5F4B85F7))
    (comp (ref SW8)
      (value SW_PUSH)
      (footprint Connector_PinSocket_2.54mm:PinSocket_1x02_P2.54mm_Vertical)
      (libsource (lib L9110) (part SW_PUSH) (description ""))
      (sheetpath (names /) (tstamps /))
      (tstamp 5F4B9077))
    (comp (ref R7)
      (value R)
      (footprint Resistor_THT:R_Axial_DIN0207_L6.3mm_D2.5mm_P7.62mm_Horizontal)
      (datasheet ~)
      (libsource (lib Device) (part R) (description Resistor))
      (sheetpath (names /) (tstamps /))
      (tstamp 5F1609BA))
    (comp (ref R8)
      (value R)
      (footprint Resistor_THT:R_Axial_DIN0207_L6.3mm_D2.5mm_P7.62mm_Horizontal)
      (datasheet ~)
      (libsource (lib Device) (part R) (description Resistor))
      (sheetpath (names /) (tstamps /))
      (tstamp 5F161007))
    (comp (ref 3.3_D6_GND_DHT0)
      (value Conn_01x03_Female)
      (footprint Connector_PinSocket_2.54mm:PinSocket_1x03_P2.54mm_Vertical)
      (datasheet ~)
      (libsource (lib Connector) (part Conn_01x03_Female) (description "Generic connector, single row, 01x03, script generated (kicad-library-utils/schlib/autogen/connector/)"))
      (sheetpath (names /) (tstamps /))
      (tstamp 5F1C644C))
    (comp (ref C_In0)
      (value C)
      (footprint Capacitor_THT:CP_Radial_D8.0mm_P2.50mm)
      (datasheet ~)
      (libsource (lib Device) (part C) (description "Unpolarized capacitor"))
      (sheetpath (names /) (tstamps /))
      (tstamp 5F188A36)))
  (libparts
    (libpart (lib Connector) (part Conn_01x02_Female)
      (description "Generic connector, single row, 01x02, script generated (kicad-library-utils/schlib/autogen/connector/)")
      (docs ~)
      (footprints
        (fp Connector*:*_1x??_*))
      (fields
        (field (name Reference) J)
        (field (name Value) Conn_01x02_Female))
      (pins
        (pin (num 1) (name Pin_1) (type passive))
        (pin (num 2) (name Pin_2) (type passive))))
    (libpart (lib Connector) (part Conn_01x03_Female)
      (description "Generic connector, single row, 01x03, script generated (kicad-library-utils/schlib/autogen/connector/)")
      (docs ~)
      (footprints
        (fp Connector*:*_1x??_*))
      (fields
        (field (name Reference) J)
        (field (name Value) Conn_01x03_Female))
      (pins
        (pin (num 1) (name Pin_1) (type passive))
        (pin (num 2) (name Pin_2) (type passive))
        (pin (num 3) (name Pin_3) (type passive))))
    (libpart (lib Connector) (part Conn_01x04_Female)
      (description "Generic connector, single row, 01x04, script generated (kicad-library-utils/schlib/autogen/connector/)")
      (docs ~)
      (footprints
        (fp Connector*:*_1x??_*))
      (fields
        (field (name Reference) J)
        (field (name Value) Conn_01x04_Female))
      (pins
        (pin (num 1) (name Pin_1) (type passive))
        (pin (num 2) (name Pin_2) (type passive))
        (pin (num 3) (name Pin_3) (type passive))
        (pin (num 4) (name Pin_4) (type passive))))
    (libpart (lib Connector) (part Conn_01x06_Female)
      (description "Generic connector, single row, 01x06, script generated (kicad-library-utils/schlib/autogen/connector/)")
      (docs ~)
      (footprints
        (fp Connector*:*_1x??_*))
      (fields
        (field (name Reference) J)
        (field (name Value) Conn_01x06_Female))
      (pins
        (pin (num 1) (name Pin_1) (type passive))
        (pin (num 2) (name Pin_2) (type passive))
        (pin (num 3) (name Pin_3) (type passive))
        (pin (num 4) (name Pin_4) (type passive))
        (pin (num 5) (name Pin_5) (type passive))
        (pin (num 6) (name Pin_6) (type passive))))
    (libpart (lib Device) (part C)
      (description "Unpolarized capacitor")
      (docs ~)
      (footprints
        (fp C_*))
      (fields
        (field (name Reference) C)
        (field (name Value) C))
      (pins
        (pin (num 1) (name ~) (type passive))
        (pin (num 2) (name ~) (type passive))))
    (libpart (lib Device) (part D)
      (description Diode)
      (docs ~)
      (footprints
        (fp TO-???*)
        (fp *_Diode_*)
        (fp *SingleDiode*)
        (fp D_*))
      (fields
        (field (name Reference) D)
        (field (name Value) D))
      (pins
        (pin (num 1) (name K) (type passive))
        (pin (num 2) (name A) (type passive))))
    (libpart (lib Device) (part R)
      (description Resistor)
      (docs ~)
      (footprints
        (fp R_*))
      (fields
        (field (name Reference) R)
        (field (name Value) R))
      (pins
        (pin (num 1) (name ~) (type passive))
        (pin (num 2) (name ~) (type passive))))
    (libpart (lib Driver_Motor) (part L293)
      (aliases
        (alias L293D))
      (description "Quadruple Half-H Drivers")
      (docs http://www.ti.com/lit/ds/symlink/l293.pdf)
      (footprints
        (fp DIP*W7.62mm*))
      (fields
        (field (name Reference) U)
        (field (name Value) L293)
        (field (name Footprint) Package_DIP:DIP-16_W7.62mm))
      (pins
        (pin (num 1) (name EN1,2) (type input))
        (pin (num 2) (name 1A) (type input))
        (pin (num 3) (name 1Y) (type output))
        (pin (num 4) (name GND) (type power_in))
        (pin (num 5) (name GND) (type power_in))
        (pin (num 6) (name 2Y) (type output))
        (pin (num 7) (name 2A) (type input))
        (pin (num 8) (name VCC2) (type power_in))
        (pin (num 9) (name EN3,4) (type input))
        (pin (num 10) (name 3A) (type input))
        (pin (num 11) (name 3Y) (type output))
        (pin (num 12) (name GND) (type power_in))
        (pin (num 13) (name GND) (type power_in))
        (pin (num 14) (name 4Y) (type output))
        (pin (num 15) (name 4A) (type input))
        (pin (num 16) (name VCC1) (type power_in))))
    (libpart (lib Jumper) (part Jumper_2_Open)
      (description "Jumper, 2-pole, open")
      (docs ~)
      (footprints
        (fp Jumper*)
        (fp TestPoint*2Pads*)
        (fp TestPoint*Bridge*))
      (fields
        (field (name Reference) JP)
        (field (name Value) Jumper_2_Open))
      (pins
        (pin (num 1) (name A) (type passive))
        (pin (num 2) (name B) (type passive))))
    (libpart (lib L9110) (part L9110)
      (fields
        (field (name Reference) U)
        (field (name Value) L9110))
      (pins
        (pin (num 1) (name OA) (type output))
        (pin (num 2) (name VCC) (type power_in))
        (pin (num 3) (name VCC) (type power_in))
        (pin (num 4) (name OB) (type output))
        (pin (num 5) (name GND) (type power_in))
        (pin (num 6) (name IA) (type input))
        (pin (num 7) (name IB) (type input))
        (pin (num 8) (name GND) (type power_in))))
    (libpart (lib L9110) (part SW_PUSH)
      (fields
        (field (name Reference) SW)
        (field (name Value) SW_PUSH))
      (pins
        (pin (num 1) (name 1) (type passive))
        (pin (num 2) (name 2) (type passive))))
    (libpart (lib Regulator_Linear) (part L7805)
      (aliases
        (alias L7806)
        (alias L7808)
        (alias L7885)
        (alias L7809)
        (alias L7812)
        (alias L7815)
        (alias L7818)
        (alias L7824))
      (description "Positive 1.5A 35V Linear Regulator, Fixed Output 5V, TO-220/TO-263/TO-252")
      (docs http://www.st.com/content/ccc/resource/technical/document/datasheet/41/4f/b3/b0/12/d4/47/88/CD00000444.pdf/files/CD00000444.pdf/jcr:content/translations/en.CD00000444.pdf)
      (footprints
        (fp TO?252*)
        (fp TO?263*)
        (fp TO?220*))
      (fields
        (field (name Reference) U)
        (field (name Value) L7805))
      (pins
        (pin (num 1) (name IN) (type power_in))
        (pin (num 2) (name GND) (type power_in))
        (pin (num 3) (name OUT) (type power_out))))
    (libpart (lib l293d-rescue) (part CONN_01X08)
      (footprints
        (fp Pin_Header_Straight_1X08)
        (fp Pin_Header_Angled_1X08)
        (fp Socket_Strip_Straight_1X08)
        (fp Socket_Strip_Angled_1X08))
      (fields
        (field (name Reference) P)
        (field (name Value) CONN_01X08))
      (pins
        (pin (num 1) (name P1) (type passive))
        (pin (num 2) (name P2) (type passive))
        (pin (num 3) (name P3) (type passive))
        (pin (num 4) (name P4) (type passive))
        (pin (num 5) (name P5) (type passive))
        (pin (num 6) (name P6) (type passive))
        (pin (num 7) (name P7) (type passive))
        (pin (num 8) (name P8) (type passive)))))
  (libraries
    (library (logical Connector)
      (uri "C:\\Program Files\\KiCad\\share\\kicad\\library/Connector.lib"))
    (library (logical Device)
      (uri "C:\\Program Files\\KiCad\\share\\kicad\\library/Device.lib"))
    (library (logical Driver_Motor)
      (uri "C:\\Program Files\\KiCad\\share\\kicad\\library/Driver_Motor.lib"))
    (library (logical Jumper)
      (uri "C:\\Program Files\\KiCad\\share\\kicad\\library/Jumper.lib"))
    (library (logical L9110)
      (uri C:/Proyectos/test/l293d/KiCad-parts-master/library/L9110.lib))
    (library (logical Regulator_Linear)
      (uri "C:\\Program Files\\KiCad\\share\\kicad\\library/Regulator_Linear.lib"))
    (library (logical l293d-rescue)
      (uri C:\Proyectos\test\l293d\l293d/l293d-rescue.lib)))
  (nets
    (net (code 1) (name VCC)
      (node (ref R_10K6) (pin 1))
      (node (ref R_10K0) (pin 1))
      (node (ref R_10K4) (pin 1))
      (node (ref l9110_3) (pin 2))
      (node (ref l9110_2) (pin 2))
      (node (ref R_10K5) (pin 1))
      (node (ref Puente2) (pin 8))
      (node (ref R_10K3) (pin 1))
      (node (ref R_10K2) (pin 1))
      (node (ref R_10K1) (pin 1))
      (node (ref R_10K7) (pin 1))
      (node (ref DirecVCC1) (pin 2))
      (node (ref Puente11) (pin 4))
      (node (ref l9110_0) (pin 2))
      (node (ref l9110_0) (pin 3))
      (node (ref l9110_1) (pin 2))
      (node (ref l9110_1) (pin 3))
      (node (ref D0) (pin 1))
      (node (ref Battery1) (pin 1))
      (node (ref L7805) (pin 1))
      (node (ref R1) (pin 1))
      (node (ref Puente12) (pin 4))
      (node (ref Puente1) (pin 8))
      (node (ref l9110_3) (pin 3))
      (node (ref l9110_2) (pin 3)))
    (net (code 2) (name P07)
      (node (ref Puente02B1) (pin 2))
      (node (ref C4) (pin 2))
      (node (ref Puente2) (pin 14))
      (node (ref l9110_3) (pin 6))
      (node (ref R_10K7) (pin 2)))
    (net (code 3) (name P06)
      (node (ref l9110_3) (pin 7))
      (node (ref Puente02B1) (pin 1))
      (node (ref Puente2) (pin 11))
      (node (ref R_10K6) (pin 2))
      (node (ref C4) (pin 1)))
    (net (code 4) (name D6)
      (node (ref l9110_2) (pin 4))
      (node (ref Puente2) (pin 7))
      (node (ref 3.3_D6_GND_DHT0) (pin 2))
      (node (ref Puente12) (pin 2))
      (node (ref P2) (pin 4)))
    (net (code 5) (name GND)
      (node (ref 3.3_D6_GND_DHT0) (pin 1))
      (node (ref C_In0) (pin 1))
      (node (ref l9110_1) (pin 8))
      (node (ref P1) (pin 2))
      (node (ref Puente2) (pin 12))
      (node (ref l9110_1) (pin 5))
      (node (ref l9110_0) (pin 5))
      (node (ref l9110_0) (pin 8))
      (node (ref Puente2) (pin 4))
      (node (ref Puente12) (pin 3))
      (node (ref R2) (pin 2))
      (node (ref Puente1) (pin 12))
      (node (ref Puente2) (pin 5))
      (node (ref Puente2) (pin 13))
      (node (ref Puente1) (pin 13))
      (node (ref Puente11) (pin 3))
      (node (ref InputVol0) (pin 2))
      (node (ref Puente1) (pin 4))
      (node (ref Puente1) (pin 5))
      (node (ref l9110_2) (pin 8))
      (node (ref Battery1) (pin 2))
      (node (ref C5v1) (pin 2))
      (node (ref l9110_2) (pin 5))
      (node (ref l9110_3) (pin 5))
      (node (ref l9110_3) (pin 8))
      (node (ref 5v_GND_RX_TX1) (pin 3))
      (node (ref ChargerBatt1) (pin 2))
      (node (ref L7805) (pin 2)))
    (net (code 6) (name D7)
      (node (ref P2) (pin 3))
      (node (ref Puente12) (pin 5))
      (node (ref l9110_3) (pin 1))
      (node (ref Puente2) (pin 10))
      (node (ref SW7) (pin 1)))
    (net (code 7) (name D8)
      (node (ref l9110_3) (pin 4))
      (node (ref Puente12) (pin 6))
      (node (ref SW8) (pin 1))
      (node (ref Puente2) (pin 15))
      (node (ref P2) (pin 2)))
    (net (code 8) (name D5)
      (node (ref P2) (pin 5))
      (node (ref Puente2) (pin 2))
      (node (ref Puente12) (pin 1))
      (node (ref l9110_2) (pin 1)))
    (net (code 9) (name "Net-(R7-Pad2)")
      (node (ref SW7) (pin 2))
      (node (ref R7) (pin 2)))
    (net (code 10) (name "Net-(R8-Pad2)")
      (node (ref SW8) (pin 2))
      (node (ref R8) (pin 2)))
    (net (code 11) (name +3V3)
      (node (ref 3.3_D6_GND_DHT0) (pin 3))
      (node (ref JP3.3v2) (pin 1))
      (node (ref JP3.3v1) (pin 1))
      (node (ref P2) (pin 1))
      (node (ref R7) (pin 1))
      (node (ref R8) (pin 1)))
    (net (code 12) (name "Net-(JP3.3v1-Pad2)")
      (node (ref Puente1) (pin 9))
      (node (ref Puente1) (pin 16))
      (node (ref Puente1) (pin 1))
      (node (ref JP5V1) (pin 2))
      (node (ref JP3.3v1) (pin 2)))
    (net (code 13) (name "Net-(C_In0-Pad2)")
      (node (ref DirecVCC1) (pin 1))
      (node (ref InputVol0) (pin 1))
      (node (ref ChargerBatt1) (pin 1))
      (node (ref C_In0) (pin 2)))
    (net (code 14) (name "Net-(JP3.3v2-Pad2)")
      (node (ref Puente2) (pin 16))
      (node (ref JP5v2) (pin 2))
      (node (ref Puente2) (pin 9))
      (node (ref JP3.3v2) (pin 2))
      (node (ref Puente2) (pin 1)))
    (net (code 15) (name A0)
      (node (ref R1) (pin 2))
      (node (ref R2) (pin 1))
      (node (ref P2) (pin 7)))
    (net (code 16) (name D4)
      (node (ref Puente11) (pin 6))
      (node (ref l9110_1) (pin 4))
      (node (ref Puente1) (pin 15))
      (node (ref P1) (pin 3)))
    (net (code 17) (name D3)
      (node (ref Puente11) (pin 5))
      (node (ref Puente1) (pin 10))
      (node (ref P1) (pin 4))
      (node (ref l9110_1) (pin 1)))
    (net (code 18) (name D2)
      (node (ref Puente11) (pin 2))
      (node (ref Puente1) (pin 7))
      (node (ref l9110_0) (pin 4))
      (node (ref P1) (pin 5)))
    (net (code 19) (name D1)
      (node (ref Puente11) (pin 1))
      (node (ref l9110_0) (pin 1))
      (node (ref P1) (pin 6))
      (node (ref Puente1) (pin 2)))
    (net (code 20) (name /RX)
      (node (ref P1) (pin 7))
      (node (ref 5v_GND_RX_TX1) (pin 2)))
    (net (code 21) (name /TX)
      (node (ref 5v_GND_RX_TX1) (pin 1))
      (node (ref P1) (pin 8)))
    (net (code 22) (name P00)
      (node (ref l9110_0) (pin 7))
      (node (ref Puente01A1) (pin 1))
      (node (ref Puente1) (pin 3))
      (node (ref R_10K0) (pin 2))
      (node (ref C1) (pin 1)))
    (net (code 23) (name P01)
      (node (ref l9110_0) (pin 6))
      (node (ref Puente1) (pin 6))
      (node (ref C1) (pin 2))
      (node (ref Puente01A1) (pin 2))
      (node (ref R_10K1) (pin 2)))
    (net (code 24) (name P03)
      (node (ref R_10K3) (pin 2))
      (node (ref Puente01B1) (pin 2))
      (node (ref C2) (pin 2))
      (node (ref Puente1) (pin 14))
      (node (ref l9110_1) (pin 6)))
    (net (code 25) (name P04)
      (node (ref l9110_2) (pin 7))
      (node (ref C3) (pin 1))
      (node (ref Puente02A1) (pin 1))
      (node (ref Puente2) (pin 3))
      (node (ref R_10K4) (pin 2)))
    (net (code 26) (name P05)
      (node (ref Puente2) (pin 6))
      (node (ref C3) (pin 2))
      (node (ref Puente02A1) (pin 2))
      (node (ref l9110_2) (pin 6))
      (node (ref R_10K5) (pin 2)))
    (net (code 27) (name P02)
      (node (ref C2) (pin 1))
      (node (ref Puente01B1) (pin 1))
      (node (ref Puente1) (pin 11))
      (node (ref R_10K2) (pin 2))
      (node (ref l9110_1) (pin 7)))
    (net (code 28) (name /D0)
      (node (ref JP_DeepSleep0) (pin 1))
      (node (ref P2) (pin 6)))
    (net (code 29) (name /RST)
      (node (ref P2) (pin 8))
      (node (ref JP_DeepSleep0) (pin 2)))
    (net (code 30) (name +5V)
      (node (ref JP5V1) (pin 1))
      (node (ref P1) (pin 1))
      (node (ref 5v_GND_RX_TX1) (pin 4))
      (node (ref L7805) (pin 3))
      (node (ref JP5v2) (pin 1))
      (node (ref C5v1) (pin 1)))
    (net (code 31) (name "Net-(ChargerBatt1-Pad3)")
      (node (ref D0) (pin 2))
      (node (ref ChargerBatt1) (pin 3)))))