EESchema Schematic File Version 4
EELAYER 30 0
EELAYER END
$Descr A4 11693 8268
encoding utf-8
Sheet 1 1
Title ""
Date ""
Rev ""
Comp ""
Comment1 ""
Comment2 ""
Comment3 ""
Comment4 ""
$EndDescr
$Comp
L l293d-rescue:CONN_01X08 P1
U 1 1 5763EB78
P 9650 1400
F 0 "P1" H 9650 1850 50  0000 C CNN
F 1 "CONN_01X08" V 9750 1400 50  0000 C CNN
F 2 "D1_mini:D1_mini_Pin_Header" H 9650 1400 50  0001 C CNN
F 3 "" H 9650 1400 50  0000 C CNN
	1    9650 1400
	1    0    0    -1  
$EndComp
$Comp
L l293d-rescue:CONN_01X08 P2
U 1 1 5763EBF2
P 10100 1400
F 0 "P2" H 10100 1850 50  0000 C CNN
F 1 "CONN_01X08" V 10200 1400 50  0000 C CNN
F 2 "D1_mini:D1_mini_Pin_Header" H 10100 1400 50  0001 C CNN
F 3 "" H 10100 1400 50  0000 C CNN
	1    10100 1400
	-1   0    0    -1  
$EndComp
Text Label 9450 1050 2    60   ~ 0
+5V
Text Label 9450 1150 2    60   ~ 0
GND
Text Label 9450 1250 2    60   ~ 0
D4
Text Label 9450 1350 2    60   ~ 0
D3
Text Label 9450 1450 2    60   ~ 0
D2
Text Label 9450 1550 2    60   ~ 0
D1
Text Label 9450 1650 2    60   ~ 0
RX
Text Label 9450 1750 2    60   ~ 0
TX
Text Label 10300 1050 0    60   ~ 0
+3.3V
Text Label 10300 1150 0    60   ~ 0
D8
Text Label 10300 1250 0    60   ~ 0
D7
Text Label 10300 1350 0    60   ~ 0
D6
Text Label 10300 1450 0    60   ~ 0
D5
Text Label 10300 1550 0    60   ~ 0
D0
Text Label 10300 1650 0    60   ~ 0
A0
Text Label 10300 1750 0    60   ~ 0
RST
Text Notes 9200 1250 2    60   ~ 0
GPIO2
Text Notes 9200 1350 2    60   ~ 0
GPIO0
Text Notes 9200 1450 2    60   ~ 0
GPIO4
Text Notes 9200 1550 2    60   ~ 0
GPIO5
Text Notes 10650 1150 0    60   ~ 0
GPIO15
Text Notes 10650 1250 0    60   ~ 0
GPIO13
Text Notes 10650 1350 0    60   ~ 0
GPIO12
Text Notes 10650 1450 0    60   ~ 0
GPIO14
Text Notes 10650 1550 0    60   ~ 0
GPIO16
Wire Notes Line
	8500 500  8500 2100
Wire Notes Line
	8500 2100 11200 2100
Text Notes 8550 600  0    60   ~ 0
D1 Mini Shield
$Comp
L Driver_Motor:L293D Puente2
U 1 1 5F15361E
P 7900 3150
F 0 "Puente2" H 7900 4331 50  0000 C CNN
F 1 "L293D" H 7900 4240 50  0000 C CNN
F 2 "Package_DIP:DIP-16_W7.62mm" H 8150 2400 50  0001 L CNN
F 3 "http://www.ti.com/lit/ds/symlink/l293.pdf" H 7600 3850 50  0001 C CNN
	1    7900 3150
	1    0    0    -1  
$EndComp
$Comp
L Driver_Motor:L293D Puente1
U 1 1 5F154B4C
P 5150 3100
F 0 "Puente1" H 5150 4281 50  0000 C CNN
F 1 "L293D" H 5150 4190 50  0000 C CNN
F 2 "Package_DIP:DIP-16_W7.62mm" H 5400 2350 50  0001 L CNN
F 3 "http://www.ti.com/lit/ds/symlink/l293.pdf" H 4850 3800 50  0001 C CNN
	1    5150 3100
	1    0    0    -1  
$EndComp
Wire Wire Line
	7700 3950 7800 3950
Connection ~ 7800 3950
Wire Wire Line
	7800 3950 7900 3950
Connection ~ 8000 3950
Wire Wire Line
	8000 3950 8100 3950
$Comp
L power:GND #PWR021
U 1 1 5F1564D0
P 7900 3950
F 0 "#PWR021" H 7900 3700 50  0001 C CNN
F 1 "GND" H 7905 3777 50  0000 C CNN
F 2 "" H 7900 3950 50  0001 C CNN
F 3 "" H 7900 3950 50  0001 C CNN
	1    7900 3950
	1    0    0    -1  
$EndComp
Connection ~ 7900 3950
Wire Wire Line
	7900 3950 8000 3950
$Comp
L power:GND #PWR015
U 1 1 5F15665E
P 5150 3900
F 0 "#PWR015" H 5150 3650 50  0001 C CNN
F 1 "GND" H 5155 3727 50  0000 C CNN
F 2 "" H 5150 3900 50  0001 C CNN
F 3 "" H 5150 3900 50  0001 C CNN
	1    5150 3900
	1    0    0    -1  
$EndComp
Wire Wire Line
	4950 3900 5050 3900
Connection ~ 5050 3900
Wire Wire Line
	5050 3900 5150 3900
Connection ~ 5150 3900
Wire Wire Line
	5150 3900 5250 3900
Connection ~ 5250 3900
Wire Wire Line
	5250 3900 5350 3900
Text GLabel 7400 3350 0    50   Input ~ 0
D8
Text GLabel 7400 3150 0    50   Input ~ 0
D7
Text GLabel 7400 2750 0    50   Input ~ 0
D6
Text GLabel 7400 2550 0    50   Input ~ 0
D5
Text GLabel 4650 2500 0    50   Input ~ 0
D1
Text GLabel 4650 2700 0    50   Input ~ 0
D2
Text GLabel 4650 3100 0    50   Input ~ 0
D3
Text GLabel 4650 3300 0    50   Input ~ 0
D4
Text GLabel 10300 1150 2    50   Input ~ 0
D8
Text GLabel 10300 1250 2    50   Input ~ 0
D7
Text GLabel 10300 1350 2    50   Input ~ 0
D6
Text GLabel 10300 1450 2    50   Input ~ 0
D5
Text GLabel 9450 1550 0    50   Input ~ 0
D1
Text GLabel 9450 1450 0    50   Input ~ 0
D2
Text GLabel 9450 1350 0    50   Input ~ 0
D3
Text GLabel 9450 1250 0    50   Input ~ 0
D4
Wire Wire Line
	7400 3550 7150 3550
Wire Wire Line
	7150 2150 7450 2150
Wire Wire Line
	4650 3500 4350 3500
Wire Wire Line
	4350 3500 4350 2900
Wire Wire Line
	4350 2100 4450 2100
Wire Wire Line
	4650 2900 4350 2900
Connection ~ 4350 2900
Wire Wire Line
	4350 2900 4350 2100
Wire Wire Line
	7400 2950 7150 2950
Wire Wire Line
	7150 2150 7150 2950
Connection ~ 7150 2950
Wire Wire Line
	7150 2950 7150 3550
$Comp
L power:VCC #PWR022
U 1 1 5F15F412
P 8100 2150
F 0 "#PWR022" H 8100 2000 50  0001 C CNN
F 1 "VCC" H 8115 2323 50  0000 C CNN
F 2 "" H 8100 2150 50  0001 C CNN
F 3 "" H 8100 2150 50  0001 C CNN
	1    8100 2150
	1    0    0    -1  
$EndComp
$Comp
L power:VCC #PWR016
U 1 1 5F15F8AC
P 5350 2100
F 0 "#PWR016" H 5350 1950 50  0001 C CNN
F 1 "VCC" H 5365 2273 50  0000 C CNN
F 2 "" H 5350 2100 50  0001 C CNN
F 3 "" H 5350 2100 50  0001 C CNN
	1    5350 2100
	1    0    0    -1  
$EndComp
Text GLabel 5100 4750 0    50   Input ~ 0
D1
Text GLabel 5100 4850 0    50   Input ~ 0
D2
Text GLabel 5100 5150 0    50   Input ~ 0
D3
Text GLabel 5100 5250 0    50   Input ~ 0
D4
Text GLabel 6450 5200 0    50   Input ~ 0
D8
Text GLabel 6450 5100 0    50   Input ~ 0
D7
Text GLabel 6450 4800 0    50   Input ~ 0
D6
Text GLabel 6450 4700 0    50   Input ~ 0
D5
$Comp
L Connector:Conn_01x06_Female Puente12
U 1 1 5F161142
P 6650 4900
F 0 "Puente12" H 6678 4876 50  0000 L CNN
F 1 "Conn_01x06_Female" H 6678 4785 50  0000 L CNN
F 2 "Connector_PinSocket_2.54mm:PinSocket_1x06_P2.54mm_Vertical" H 6650 4900 50  0001 C CNN
F 3 "~" H 6650 4900 50  0001 C CNN
	1    6650 4900
	1    0    0    -1  
$EndComp
$Comp
L Device:R R1
U 1 1 5F159748
P 9800 3850
F 0 "R1" H 9870 3896 50  0000 L CNN
F 1 "R" H 9870 3805 50  0000 L CNN
F 2 "Resistor_THT:R_Axial_DIN0207_L6.3mm_D2.5mm_P7.62mm_Horizontal" V 9730 3850 50  0001 C CNN
F 3 "~" H 9800 3850 50  0001 C CNN
	1    9800 3850
	0    -1   -1   0   
$EndComp
$Comp
L Device:R R2
U 1 1 5F154727
P 10200 3850
F 0 "R2" H 10270 3896 50  0000 L CNN
F 1 "R" H 10270 3805 50  0000 L CNN
F 2 "Resistor_THT:R_Axial_DIN0207_L6.3mm_D2.5mm_P7.62mm_Horizontal" V 10130 3850 50  0001 C CNN
F 3 "~" H 10200 3850 50  0001 C CNN
	1    10200 3850
	0    -1   -1   0   
$EndComp
Text GLabel 10000 3850 1    50   Input ~ 0
A0
$Comp
L power:GND #PWR030
U 1 1 5F156A30
P 10350 3900
F 0 "#PWR030" H 10350 3650 50  0001 C CNN
F 1 "GND" H 10355 3727 50  0000 C CNN
F 2 "" H 10350 3900 50  0001 C CNN
F 3 "" H 10350 3900 50  0001 C CNN
	1    10350 3900
	1    0    0    -1  
$EndComp
$Comp
L power:VCC #PWR028
U 1 1 5F156F38
P 9600 3850
F 0 "#PWR028" H 9600 3700 50  0001 C CNN
F 1 "VCC" H 9615 4023 50  0000 C CNN
F 2 "" H 9600 3850 50  0001 C CNN
F 3 "" H 9600 3850 50  0001 C CNN
	1    9600 3850
	1    0    0    -1  
$EndComp
Wire Wire Line
	9600 3850 9650 3850
Wire Wire Line
	9950 3850 10050 3850
Text GLabel 10300 1650 2    50   Input ~ 0
A0
$Comp
L power:+5V #PWR027
U 1 1 5F15A52D
P 9450 1050
F 0 "#PWR027" H 9450 900 50  0001 C CNN
F 1 "+5V" H 9465 1223 50  0000 C CNN
F 2 "" H 9450 1050 50  0001 C CNN
F 3 "" H 9450 1050 50  0001 C CNN
	1    9450 1050
	1    0    0    -1  
$EndComp
$Comp
L power:+3.3V #PWR029
U 1 1 5F15AC60
P 10300 1000
F 0 "#PWR029" H 10300 850 50  0001 C CNN
F 1 "+3.3V" H 10315 1173 50  0000 C CNN
F 2 "" H 10300 1000 50  0001 C CNN
F 3 "" H 10300 1000 50  0001 C CNN
	1    10300 1000
	1    0    0    -1  
$EndComp
$Comp
L power:GND #PWR025
U 1 1 5F15B1FA
P 9200 1150
F 0 "#PWR025" H 9200 900 50  0001 C CNN
F 1 "GND" H 9205 977 50  0000 C CNN
F 2 "" H 9200 1150 50  0001 C CNN
F 3 "" H 9200 1150 50  0001 C CNN
	1    9200 1150
	-1   0    0    1   
$EndComp
Wire Wire Line
	9200 1150 9450 1150
$Comp
L Jumper:Jumper_2_Open JP5v2
U 1 1 5F15C722
P 7450 1950
F 0 "JP5v2" V 7404 2048 50  0000 L CNN
F 1 "Jumper_2_Open" V 7495 2048 50  0000 L CNN
F 2 "Resistor_THT:R_Axial_DIN0204_L3.6mm_D1.6mm_P1.90mm_Vertical" H 7450 1950 50  0001 C CNN
F 3 "~" H 7450 1950 50  0001 C CNN
	1    7450 1950
	0    1    1    0   
$EndComp
$Comp
L Jumper:Jumper_2_Open JP3.3v2
U 1 1 5F15D420
P 7150 1950
F 0 "JP3.3v2" V 7104 2048 50  0000 L CNN
F 1 "Jumper_2_Open" V 7195 2048 50  0000 L CNN
F 2 "Resistor_THT:R_Axial_DIN0204_L3.6mm_D1.6mm_P1.90mm_Vertical" H 7150 1950 50  0001 C CNN
F 3 "~" H 7150 1950 50  0001 C CNN
	1    7150 1950
	0    1    1    0   
$EndComp
$Comp
L Jumper:Jumper_2_Open JP5V1
U 1 1 5F15E683
P 4750 1800
F 0 "JP5V1" V 4704 1898 50  0000 L CNN
F 1 "Jumper_2_Open" V 4795 1898 50  0000 L CNN
F 2 "Resistor_THT:R_Axial_DIN0204_L3.6mm_D1.6mm_P1.90mm_Vertical" H 4750 1800 50  0001 C CNN
F 3 "~" H 4750 1800 50  0001 C CNN
	1    4750 1800
	0    1    1    0   
$EndComp
$Comp
L Jumper:Jumper_2_Open JP3.3v1
U 1 1 5F15E689
P 4450 1850
F 0 "JP3.3v1" V 4404 1948 50  0000 L CNN
F 1 "Jumper_2_Open" V 4495 1948 50  0000 L CNN
F 2 "Resistor_THT:R_Axial_DIN0204_L3.6mm_D1.6mm_P1.90mm_Vertical" H 4450 1850 50  0001 C CNN
F 3 "~" H 4450 1850 50  0001 C CNN
	1    4450 1850
	0    1    1    0   
$EndComp
Connection ~ 7150 2150
$Comp
L power:+3.3V #PWR011
U 1 1 5F1605D1
P 4450 1650
F 0 "#PWR011" H 4450 1500 50  0001 C CNN
F 1 "+3.3V" H 4465 1823 50  0000 C CNN
F 2 "" H 4450 1650 50  0001 C CNN
F 3 "" H 4450 1650 50  0001 C CNN
	1    4450 1650
	1    0    0    -1  
$EndComp
$Comp
L power:+5V #PWR012
U 1 1 5F160B7C
P 4750 1600
F 0 "#PWR012" H 4750 1450 50  0001 C CNN
F 1 "+5V" H 4765 1773 50  0000 C CNN
F 2 "" H 4750 1600 50  0001 C CNN
F 3 "" H 4750 1600 50  0001 C CNN
	1    4750 1600
	1    0    0    -1  
$EndComp
$Comp
L power:+5V #PWR020
U 1 1 5F1612B6
P 7450 1750
F 0 "#PWR020" H 7450 1600 50  0001 C CNN
F 1 "+5V" H 7465 1923 50  0000 C CNN
F 2 "" H 7450 1750 50  0001 C CNN
F 3 "" H 7450 1750 50  0001 C CNN
	1    7450 1750
	1    0    0    -1  
$EndComp
$Comp
L power:+3.3V #PWR019
U 1 1 5F1616BD
P 7150 1750
F 0 "#PWR019" H 7150 1600 50  0001 C CNN
F 1 "+3.3V" H 7165 1923 50  0000 C CNN
F 2 "" H 7150 1750 50  0001 C CNN
F 3 "" H 7150 1750 50  0001 C CNN
	1    7150 1750
	1    0    0    -1  
$EndComp
$Comp
L Jumper:Jumper_2_Open JP_DeepSleep0
U 1 1 5F162793
P 10550 1750
F 0 "JP_DeepSleep0" V 10504 1848 50  0000 L CNN
F 1 "Jumper_2_Open" V 10595 1848 50  0000 L CNN
F 2 "Jumper:SolderJumper-2_P1.3mm_Open_Pad1.0x1.5mm" H 10550 1750 50  0001 C CNN
F 3 "~" H 10550 1750 50  0001 C CNN
	1    10550 1750
	0    1    1    0   
$EndComp
Wire Wire Line
	10300 1550 10550 1550
Wire Wire Line
	10550 1950 10300 1950
Wire Wire Line
	10300 1950 10300 1750
$Comp
L Connector:Conn_01x04_Female 5v_GND_RX_TX1
U 1 1 5F1551DC
P 8950 2000
F 0 "5v_GND_RX_TX1" V 8796 2148 50  0000 L CNN
F 1 "Conn_01x04_Female" V 8887 2148 50  0000 L CNN
F 2 "Connector_PinHeader_2.54mm:PinHeader_1x04_P2.54mm_Vertical" H 8950 2000 50  0001 C CNN
F 3 "~" H 8950 2000 50  0001 C CNN
	1    8950 2000
	0    1    1    0   
$EndComp
Wire Wire Line
	9450 1750 9050 1750
Wire Wire Line
	9050 1750 9050 1800
Wire Wire Line
	9450 1650 8950 1650
Wire Wire Line
	8950 1650 8950 1800
Wire Wire Line
	9200 1150 8850 1150
Wire Wire Line
	8850 1150 8850 1800
Connection ~ 9200 1150
Wire Wire Line
	8750 1050 8750 1800
Connection ~ 9450 1050
$Comp
L power:GND #PWR017
U 1 1 5F15AC73
P 6450 4900
F 0 "#PWR017" H 6450 4650 50  0001 C CNN
F 1 "GND" V 6455 4772 50  0000 R CNN
F 2 "" H 6450 4900 50  0001 C CNN
F 3 "" H 6450 4900 50  0001 C CNN
	1    6450 4900
	0    1    1    0   
$EndComp
$Comp
L power:VCC #PWR018
U 1 1 5F15BA8C
P 6450 5000
F 0 "#PWR018" H 6450 4850 50  0001 C CNN
F 1 "VCC" V 6465 5127 50  0000 L CNN
F 2 "" H 6450 5000 50  0001 C CNN
F 3 "" H 6450 5000 50  0001 C CNN
	1    6450 5000
	0    -1   -1   0   
$EndComp
$Comp
L Regulator_Linear:L7805 L7805
U 1 1 5F155B80
P 2750 1250
F 0 "L7805" H 2750 1492 50  0000 C CNN
F 1 "L7805" H 2750 1401 50  0000 C CNN
F 2 "Package_TO_SOT_THT:TO-220-3_Vertical" H 2775 1100 50  0001 L CIN
F 3 "http://www.st.com/content/ccc/resource/technical/document/datasheet/41/4f/b3/b0/12/d4/47/88/CD00000444.pdf/files/CD00000444.pdf/jcr:content/translations/en.CD00000444.pdf" H 2750 1200 50  0001 C CNN
	1    2750 1250
	1    0    0    -1  
$EndComp
$Comp
L Regulator_Linear:L7805 ChargerBatt1
U 1 1 5F156411
P 1400 1250
F 0 "ChargerBatt1" H 1400 1492 50  0000 C CNN
F 1 "L7805" H 1400 1401 50  0000 C CNN
F 2 "Package_TO_SOT_THT:TO-220-3_Vertical" H 1425 1100 50  0001 L CIN
F 3 "http://www.st.com/content/ccc/resource/technical/document/datasheet/41/4f/b3/b0/12/d4/47/88/CD00000444.pdf/files/CD00000444.pdf/jcr:content/translations/en.CD00000444.pdf" H 1400 1200 50  0001 C CNN
	1    1400 1250
	1    0    0    -1  
$EndComp
$Comp
L power:VCC #PWR04
U 1 1 5F15714C
P 2450 1200
F 0 "#PWR04" H 2450 1050 50  0001 C CNN
F 1 "VCC" H 2465 1373 50  0000 C CNN
F 2 "" H 2450 1200 50  0001 C CNN
F 3 "" H 2450 1200 50  0001 C CNN
	1    2450 1200
	1    0    0    -1  
$EndComp
$Comp
L power:GND #PWR06
U 1 1 5F15791A
P 2750 1650
F 0 "#PWR06" H 2750 1400 50  0001 C CNN
F 1 "GND" H 2755 1477 50  0000 C CNN
F 2 "" H 2750 1650 50  0001 C CNN
F 3 "" H 2750 1650 50  0001 C CNN
	1    2750 1650
	1    0    0    -1  
$EndComp
$Comp
L power:+5V #PWR010
U 1 1 5F15A99E
P 3450 1250
F 0 "#PWR010" H 3450 1100 50  0001 C CNN
F 1 "+5V" H 3465 1423 50  0000 C CNN
F 2 "" H 3450 1250 50  0001 C CNN
F 3 "" H 3450 1250 50  0001 C CNN
	1    3450 1250
	1    0    0    -1  
$EndComp
$Comp
L power:GND #PWR02
U 1 1 5F15AF69
P 1400 1750
F 0 "#PWR02" H 1400 1500 50  0001 C CNN
F 1 "GND" H 1405 1577 50  0000 C CNN
F 2 "" H 1400 1750 50  0001 C CNN
F 3 "" H 1400 1750 50  0001 C CNN
	1    1400 1750
	1    0    0    -1  
$EndComp
$Comp
L Device:C C5v1
U 1 1 5F15D66F
P 3050 1400
F 0 "C5v1" H 3165 1446 50  0000 L CNN
F 1 "C" H 3165 1355 50  0000 L CNN
F 2 "Capacitor_THT:CP_Radial_D5.0mm_P2.50mm" H 3088 1250 50  0001 C CNN
F 3 "~" H 3050 1400 50  0001 C CNN
	1    3050 1400
	1    0    0    -1  
$EndComp
$Comp
L Device:D D0
U 1 1 5F15E1E1
P 1700 1400
F 0 "D0" V 1746 1320 50  0000 R CNN
F 1 "D" V 1655 1320 50  0000 R CNN
F 2 "Diode_THT:D_A-405_P7.62mm_Horizontal" H 1700 1400 50  0001 C CNN
F 3 "~" H 1700 1400 50  0001 C CNN
	1    1700 1400
	0    -1   -1   0   
$EndComp
Wire Wire Line
	3050 1550 2750 1550
Wire Wire Line
	2750 1650 2750 1550
Connection ~ 2750 1550
Connection ~ 3050 1250
$Comp
L Connector:Conn_01x02_Female Battery1
U 1 1 5F164780
P 1700 1950
F 0 "Battery1" V 1546 1998 50  0000 L CNN
F 1 "Conn_01x02_Female" V 1637 1998 50  0000 L CNN
F 2 "TerminalBlock:TerminalBlock_bornier-2_P5.08mm" H 1700 1950 50  0001 C CNN
F 3 "~" H 1700 1950 50  0001 C CNN
	1    1700 1950
	0    1    1    0   
$EndComp
Wire Wire Line
	1600 1750 1400 1750
Wire Wire Line
	1700 1550 1700 1750
Wire Wire Line
	1400 1550 1400 1750
Connection ~ 1400 1750
$Comp
L L9110:L9110 l9110_0
U 1 1 5F19C925
P 2250 4350
F 0 "l9110_0" H 2250 4787 60  0000 C CNN
F 1 "L9110" H 2250 4681 60  0000 C CNN
F 2 "Package_DIP:DIP-8_W7.62mm" H 2250 4350 60  0001 C CNN
F 3 "" H 2250 4350 60  0000 C CNN
	1    2250 4350
	1    0    0    -1  
$EndComp
$Comp
L L9110:L9110 l9110_1
U 1 1 5F19E291
P 2250 5150
F 0 "l9110_1" H 2250 5587 60  0000 C CNN
F 1 "L9110" H 2250 5481 60  0000 C CNN
F 2 "Package_DIP:DIP-8_W7.62mm" H 2250 5150 60  0001 C CNN
F 3 "" H 2250 5150 60  0000 C CNN
	1    2250 5150
	1    0    0    -1  
$EndComp
$Comp
L power:VCC #PWR014
U 1 1 5F15C269
P 5050 5050
F 0 "#PWR014" H 5050 4900 50  0001 C CNN
F 1 "VCC" V 5065 5177 50  0000 L CNN
F 2 "" H 5050 5050 50  0001 C CNN
F 3 "" H 5050 5050 50  0001 C CNN
	1    5050 5050
	0    -1   -1   0   
$EndComp
$Comp
L power:GND #PWR013
U 1 1 5F15B470
P 5100 4950
F 0 "#PWR013" H 5100 4700 50  0001 C CNN
F 1 "GND" V 5105 4822 50  0000 R CNN
F 2 "" H 5100 4950 50  0001 C CNN
F 3 "" H 5100 4950 50  0001 C CNN
	1    5100 4950
	0    1    1    0   
$EndComp
$Comp
L Connector:Conn_01x06_Female Puente11
U 1 1 5F160540
P 5300 4950
F 0 "Puente11" H 5328 4926 50  0000 L CNN
F 1 "Conn_01x06_Female" H 5328 4835 50  0000 L CNN
F 2 "Connector_PinSocket_2.54mm:PinSocket_1x06_P2.54mm_Vertical" H 5300 4950 50  0001 C CNN
F 3 "~" H 5300 4950 50  0001 C CNN
	1    5300 4950
	1    0    0    -1  
$EndComp
$Comp
L power:VCC #PWR03
U 1 1 5F159764
P 1300 4350
F 0 "#PWR03" H 1300 4200 50  0001 C CNN
F 1 "VCC" V 1315 4477 50  0000 L CNN
F 2 "" H 1300 4350 50  0001 C CNN
F 3 "" H 1300 4350 50  0001 C CNN
	1    1300 4350
	0    -1   -1   0   
$EndComp
Text GLabel 1700 4200 0    50   Input ~ 0
D1
Text GLabel 1700 4500 0    50   Input ~ 0
D2
Wire Wire Line
	1700 4300 1700 4350
Wire Wire Line
	1700 5100 1700 5150
Wire Wire Line
	1400 4350 1700 4350
Connection ~ 1700 4350
Wire Wire Line
	1700 4350 1700 4400
Wire Wire Line
	1700 5150 1400 5150
Connection ~ 1700 5150
Wire Wire Line
	1700 5150 1700 5200
Text GLabel 1700 5000 0    50   Input ~ 0
D3
Text GLabel 1700 5300 0    50   Input ~ 0
D4
$Comp
L Device:R R_10K0
U 1 1 5F18024C
P 3100 3700
F 0 "R_10K0" H 3170 3746 50  0000 L CNN
F 1 "R" H 3170 3655 50  0000 L CNN
F 2 "Resistor_THT:R_Axial_DIN0207_L6.3mm_D2.5mm_P7.62mm_Horizontal" V 3030 3700 50  0001 C CNN
F 3 "~" H 3100 3700 50  0001 C CNN
	1    3100 3700
	1    0    0    -1  
$EndComp
$Comp
L Device:R R_10K1
U 1 1 5F180EC5
P 3300 3700
F 0 "R_10K1" H 3370 3746 50  0000 L CNN
F 1 "R_10K1" H 3370 3655 50  0000 L CNN
F 2 "Resistor_THT:R_Axial_DIN0207_L6.3mm_D2.5mm_P7.62mm_Horizontal" V 3230 3700 50  0001 C CNN
F 3 "~" H 3300 3700 50  0001 C CNN
	1    3300 3700
	1    0    0    -1  
$EndComp
$Comp
L Device:R R_10K2
U 1 1 5F18156C
P 3500 3700
F 0 "R_10K2" H 3570 3746 50  0000 L CNN
F 1 "R" H 3570 3655 50  0000 L CNN
F 2 "Resistor_THT:R_Axial_DIN0207_L6.3mm_D2.5mm_P7.62mm_Horizontal" V 3430 3700 50  0001 C CNN
F 3 "~" H 3500 3700 50  0001 C CNN
	1    3500 3700
	1    0    0    -1  
$EndComp
$Comp
L Device:R R_10K3
U 1 1 5F181C23
P 3700 3700
F 0 "R_10K3" H 3770 3746 50  0000 L CNN
F 1 "R_10K3" H 3770 3655 50  0000 L CNN
F 2 "Resistor_THT:R_Axial_DIN0207_L6.3mm_D2.5mm_P7.62mm_Horizontal" V 3630 3700 50  0001 C CNN
F 3 "~" H 3700 3700 50  0001 C CNN
	1    3700 3700
	1    0    0    -1  
$EndComp
$Comp
L power:GND #PWR07
U 1 1 5F1851EA
P 2750 3600
F 0 "#PWR07" H 2750 3350 50  0001 C CNN
F 1 "GND" H 2755 3427 50  0000 C CNN
F 2 "" H 2750 3600 50  0001 C CNN
F 3 "" H 2750 3600 50  0001 C CNN
	1    2750 3600
	1    0    0    -1  
$EndComp
Wire Wire Line
	2800 4300 3100 4300
Wire Wire Line
	3100 4300 3100 3850
Wire Wire Line
	3300 3850 3300 4400
Wire Wire Line
	3300 4400 2800 4400
Wire Wire Line
	3500 3850 3500 4500
Wire Wire Line
	3500 5100 2800 5100
Wire Wire Line
	3700 3850 3700 4600
Wire Wire Line
	3700 5200 2800 5200
Wire Wire Line
	2800 4200 2900 4200
Wire Wire Line
	2900 5000 2800 5000
Wire Wire Line
	2900 5000 2900 5300
Wire Wire Line
	2900 5300 2800 5300
Connection ~ 2900 5000
Wire Wire Line
	2750 3600 2900 3600
Wire Wire Line
	2900 3600 2900 4200
Connection ~ 2900 4200
$Comp
L power:VCC #PWR09
U 1 1 5F19F725
P 3400 3300
F 0 "#PWR09" H 3400 3150 50  0001 C CNN
F 1 "VCC" H 3415 3473 50  0000 C CNN
F 2 "" H 3400 3300 50  0001 C CNN
F 3 "" H 3400 3300 50  0001 C CNN
	1    3400 3300
	1    0    0    -1  
$EndComp
Wire Wire Line
	3100 3550 3300 3550
Connection ~ 3300 3550
Wire Wire Line
	3300 3550 3400 3550
Connection ~ 3500 3550
Wire Wire Line
	3500 3550 3700 3550
Wire Wire Line
	3400 3550 3400 3300
Connection ~ 3400 3550
Wire Wire Line
	3400 3550 3500 3550
Wire Wire Line
	3100 4300 4100 4300
Connection ~ 3100 4300
Wire Wire Line
	3300 4400 4100 4400
Connection ~ 3300 4400
Wire Wire Line
	3500 4500 4100 4500
Connection ~ 3500 4500
Wire Wire Line
	3500 4500 3500 5100
Wire Wire Line
	4100 4600 3700 4600
Connection ~ 3700 4600
Wire Wire Line
	3700 4600 3700 5200
$Comp
L L9110:L9110 l9110_2
U 1 1 5F1BDA28
P 2100 6550
F 0 "l9110_2" H 2100 6987 60  0000 C CNN
F 1 "L9110" H 2100 6881 60  0000 C CNN
F 2 "Package_DIP:DIP-8_W7.62mm" H 2100 6550 60  0001 C CNN
F 3 "" H 2100 6550 60  0000 C CNN
	1    2100 6550
	1    0    0    -1  
$EndComp
$Comp
L L9110:L9110 l9110_3
U 1 1 5F1BDA2E
P 2100 7350
F 0 "l9110_3" H 2100 7787 60  0000 C CNN
F 1 "L9110" H 2100 7681 60  0000 C CNN
F 2 "Package_DIP:DIP-8_W7.62mm" H 2100 7350 60  0001 C CNN
F 3 "" H 2100 7350 60  0000 C CNN
	1    2100 7350
	1    0    0    -1  
$EndComp
$Comp
L power:VCC #PWR01
U 1 1 5F1BDA34
P 1250 6550
F 0 "#PWR01" H 1250 6400 50  0001 C CNN
F 1 "VCC" V 1265 6677 50  0000 L CNN
F 2 "" H 1250 6550 50  0001 C CNN
F 3 "" H 1250 6550 50  0001 C CNN
	1    1250 6550
	0    -1   -1   0   
$EndComp
Text GLabel 1550 6400 0    50   Input ~ 0
D5
Text GLabel 1550 6700 0    50   Input ~ 0
D6
Wire Wire Line
	1550 6500 1550 6550
Wire Wire Line
	1550 7300 1550 7350
Wire Wire Line
	1250 6550 1550 6550
Connection ~ 1550 6550
Wire Wire Line
	1550 6550 1550 6600
Wire Wire Line
	1550 7350 1250 7350
Wire Wire Line
	1250 7350 1250 6600
Connection ~ 1550 7350
Wire Wire Line
	1550 7350 1550 7400
Connection ~ 1250 6550
Text GLabel 1550 7200 0    50   Input ~ 0
D7
Text GLabel 1550 7500 0    50   Input ~ 0
D8
$Comp
L Device:R R_10K4
U 1 1 5F1BDA48
P 2950 5900
F 0 "R_10K4" H 3020 5946 50  0000 L CNN
F 1 "R" H 3020 5855 50  0000 L CNN
F 2 "Resistor_THT:R_Axial_DIN0207_L6.3mm_D2.5mm_P7.62mm_Horizontal" V 2880 5900 50  0001 C CNN
F 3 "~" H 2950 5900 50  0001 C CNN
	1    2950 5900
	1    0    0    -1  
$EndComp
$Comp
L Device:R R_10K5
U 1 1 5F1BDA4E
P 3150 5900
F 0 "R_10K5" H 3220 5946 50  0000 L CNN
F 1 "R_10K5" H 3220 5855 50  0000 L CNN
F 2 "Resistor_THT:R_Axial_DIN0207_L6.3mm_D2.5mm_P7.62mm_Horizontal" V 3080 5900 50  0001 C CNN
F 3 "~" H 3150 5900 50  0001 C CNN
	1    3150 5900
	1    0    0    -1  
$EndComp
$Comp
L Device:R R_10K6
U 1 1 5F1BDA54
P 3350 5900
F 0 "R_10K6" H 3420 5946 50  0000 L CNN
F 1 "R" H 3420 5855 50  0000 L CNN
F 2 "Resistor_THT:R_Axial_DIN0207_L6.3mm_D2.5mm_P7.62mm_Horizontal" V 3280 5900 50  0001 C CNN
F 3 "~" H 3350 5900 50  0001 C CNN
	1    3350 5900
	1    0    0    -1  
$EndComp
$Comp
L Device:R R_10K7
U 1 1 5F1BDA5A
P 3550 5900
F 0 "R_10K7" H 3620 5946 50  0000 L CNN
F 1 "R_10K7" H 3620 5855 50  0000 L CNN
F 2 "Resistor_THT:R_Axial_DIN0207_L6.3mm_D2.5mm_P7.62mm_Horizontal" V 3480 5900 50  0001 C CNN
F 3 "~" H 3550 5900 50  0001 C CNN
	1    3550 5900
	1    0    0    -1  
$EndComp
$Comp
L power:GND #PWR05
U 1 1 5F1BDA60
P 2600 5800
F 0 "#PWR05" H 2600 5550 50  0001 C CNN
F 1 "GND" H 2605 5627 50  0000 C CNN
F 2 "" H 2600 5800 50  0001 C CNN
F 3 "" H 2600 5800 50  0001 C CNN
	1    2600 5800
	1    0    0    -1  
$EndComp
Wire Wire Line
	2650 6500 2950 6500
Wire Wire Line
	2950 6500 2950 6050
Wire Wire Line
	3150 6050 3150 6600
Wire Wire Line
	3150 6600 2650 6600
Wire Wire Line
	3350 6050 3350 6700
Wire Wire Line
	3350 7300 2650 7300
Wire Wire Line
	3550 6050 3550 6800
Wire Wire Line
	3550 7400 2650 7400
Wire Wire Line
	2650 6400 2750 6400
Wire Wire Line
	2750 6400 2750 6700
Wire Wire Line
	2750 6700 2650 6700
Wire Wire Line
	2750 6700 2750 7200
Wire Wire Line
	2750 7200 2650 7200
Connection ~ 2750 6700
Wire Wire Line
	2750 7200 2750 7500
Wire Wire Line
	2750 7500 2650 7500
Connection ~ 2750 7200
Wire Wire Line
	2600 5800 2750 5800
Wire Wire Line
	2750 5800 2750 6400
Connection ~ 2750 6400
$Comp
L power:VCC #PWR08
U 1 1 5F1BDA7A
P 3250 5500
F 0 "#PWR08" H 3250 5350 50  0001 C CNN
F 1 "VCC" H 3265 5673 50  0000 C CNN
F 2 "" H 3250 5500 50  0001 C CNN
F 3 "" H 3250 5500 50  0001 C CNN
	1    3250 5500
	1    0    0    -1  
$EndComp
Wire Wire Line
	2950 5750 3150 5750
Connection ~ 3150 5750
Wire Wire Line
	3150 5750 3250 5750
Connection ~ 3350 5750
Wire Wire Line
	3350 5750 3550 5750
Wire Wire Line
	3250 5750 3250 5500
Connection ~ 3250 5750
Wire Wire Line
	3250 5750 3350 5750
Wire Wire Line
	2950 6500 3750 6500
Connection ~ 2950 6500
Wire Wire Line
	3150 6600 3800 6600
Connection ~ 3150 6600
Wire Wire Line
	3350 6700 3850 6700
Connection ~ 3350 6700
Wire Wire Line
	3350 6700 3350 7300
Connection ~ 3550 6800
Wire Wire Line
	3550 6800 3550 7400
Wire Wire Line
	4100 4700 3750 4700
Wire Wire Line
	3750 4700 3750 6500
Wire Wire Line
	3800 6600 3800 4800
Wire Wire Line
	3800 4800 4100 4800
Wire Wire Line
	3850 6700 3850 4900
Wire Wire Line
	3850 4900 4100 4900
Wire Wire Line
	4100 5000 3900 5000
Wire Wire Line
	3900 5000 3900 6800
Wire Wire Line
	3900 6800 3550 6800
$Comp
L Connector:Conn_01x02_Female Puente01A1
U 1 1 5F1F4594
P 5800 5850
F 0 "Puente01A1" H 5828 5826 50  0000 L CNN
F 1 "Conn_01x02_Female" H 5828 5735 50  0000 L CNN
F 2 "TerminalBlock:TerminalBlock_bornier-2_P5.08mm" H 5800 5850 50  0001 C CNN
F 3 "~" H 5800 5850 50  0001 C CNN
	1    5800 5850
	1    0    0    -1  
$EndComp
$Comp
L Connector:Conn_01x02_Female Puente01B1
U 1 1 5F1F459A
P 5950 6500
F 0 "Puente01B1" H 5978 6476 50  0000 L CNN
F 1 "Conn_01x02_Female" H 5978 6385 50  0000 L CNN
F 2 "TerminalBlock:TerminalBlock_bornier-2_P5.08mm" H 5950 6500 50  0001 C CNN
F 3 "~" H 5950 6500 50  0001 C CNN
	1    5950 6500
	1    0    0    -1  
$EndComp
$Comp
L Device:C C2
U 1 1 5F1F45A0
P 5450 6500
F 0 "C2" H 5565 6546 50  0000 L CNN
F 1 "C" H 5565 6455 50  0000 L CNN
F 2 "Capacitor_THT:C_Disc_D3.0mm_W2.0mm_P2.50mm" H 5488 6350 50  0001 C CNN
F 3 "~" H 5450 6500 50  0001 C CNN
	1    5450 6500
	1    0    0    -1  
$EndComp
$Comp
L Device:C C1
U 1 1 5F1F45A6
P 5400 5900
F 0 "C1" H 5515 5946 50  0000 L CNN
F 1 "C" H 5515 5855 50  0000 L CNN
F 2 "Capacitor_THT:C_Disc_D3.0mm_W2.0mm_P2.50mm" H 5438 5750 50  0001 C CNN
F 3 "~" H 5400 5900 50  0001 C CNN
	1    5400 5900
	1    0    0    -1  
$EndComp
Wire Wire Line
	5300 5750 5400 5750
Wire Wire Line
	5400 5750 5600 5750
Wire Wire Line
	5600 5750 5600 5850
Connection ~ 5400 5750
Wire Wire Line
	5600 5950 5600 6050
Wire Wire Line
	5600 6050 5400 6050
Wire Wire Line
	5400 6050 5250 6050
Connection ~ 5400 6050
Wire Wire Line
	5250 6350 5450 6350
Wire Wire Line
	5450 6650 5250 6650
Wire Wire Line
	5750 6500 5750 6350
Wire Wire Line
	5750 6350 5450 6350
Connection ~ 5450 6350
Wire Wire Line
	5750 6600 5750 6650
Wire Wire Line
	5750 6650 5450 6650
Connection ~ 5450 6650
$Comp
L Connector:Conn_01x02_Female Puente02A1
U 1 1 5F1FE269
P 5900 6850
F 0 "Puente02A1" H 5928 6826 50  0000 L CNN
F 1 "Conn_01x02_Female" H 5928 6735 50  0000 L CNN
F 2 "TerminalBlock:TerminalBlock_bornier-2_P5.08mm" H 5900 6850 50  0001 C CNN
F 3 "~" H 5900 6850 50  0001 C CNN
	1    5900 6850
	1    0    0    -1  
$EndComp
$Comp
L Connector:Conn_01x02_Female Puente02B1
U 1 1 5F1FE26F
P 5950 7450
F 0 "Puente02B1" H 5978 7426 50  0000 L CNN
F 1 "Conn_01x02_Female" H 5978 7335 50  0000 L CNN
F 2 "TerminalBlock:TerminalBlock_bornier-2_P5.08mm" H 5950 7450 50  0001 C CNN
F 3 "~" H 5950 7450 50  0001 C CNN
	1    5950 7450
	1    0    0    -1  
$EndComp
$Comp
L Device:C C3
U 1 1 5F1FE275
P 5400 6900
F 0 "C3" H 5515 6946 50  0000 L CNN
F 1 "C" H 5515 6855 50  0000 L CNN
F 2 "Capacitor_THT:C_Disc_D3.0mm_W2.0mm_P2.50mm" H 5438 6750 50  0001 C CNN
F 3 "~" H 5400 6900 50  0001 C CNN
	1    5400 6900
	1    0    0    -1  
$EndComp
$Comp
L Device:C C4
U 1 1 5F1FE27B
P 5400 7500
F 0 "C4" H 5515 7546 50  0000 L CNN
F 1 "C" H 5515 7455 50  0000 L CNN
F 2 "Capacitor_THT:C_Disc_D3.0mm_W2.0mm_P2.50mm" H 5438 7350 50  0001 C CNN
F 3 "~" H 5400 7500 50  0001 C CNN
	1    5400 7500
	1    0    0    -1  
$EndComp
Wire Wire Line
	5250 7350 5400 7350
Wire Wire Line
	5250 7650 5400 7650
Wire Wire Line
	5400 7350 5750 7350
Wire Wire Line
	5750 7350 5750 7450
Connection ~ 5400 7350
Wire Wire Line
	5750 7550 5750 7650
Wire Wire Line
	5750 7650 5400 7650
Connection ~ 5400 7650
Wire Wire Line
	5250 7050 5400 7050
Wire Wire Line
	5250 6750 5400 6750
Wire Wire Line
	5400 7050 5700 7050
Wire Wire Line
	5700 7050 5700 6950
Connection ~ 5400 7050
Wire Wire Line
	5700 6850 5700 6750
Wire Wire Line
	5700 6750 5400 6750
Connection ~ 5400 6750
Text GLabel 5300 5750 0    50   Input ~ 0
P00
Text GLabel 5250 6050 0    50   Input ~ 0
P01
Text GLabel 5250 6350 0    50   Input ~ 0
P02
Text GLabel 5250 6650 0    50   Input ~ 0
P03
Text GLabel 5250 6750 0    50   Input ~ 0
P04
Text GLabel 5250 7050 0    50   Input ~ 0
P05
Text GLabel 5250 7350 0    50   Input ~ 0
P06
Text GLabel 5250 7650 0    50   Input ~ 0
P07
Text GLabel 5650 2500 2    50   Input ~ 0
P00
Text GLabel 5650 2700 2    50   Input ~ 0
P01
Text GLabel 5650 3100 2    50   Input ~ 0
P02
Text GLabel 5650 3300 2    50   Input ~ 0
P03
Text GLabel 8400 2550 2    50   Input ~ 0
P04
Text GLabel 8400 2750 2    50   Input ~ 0
P05
Text GLabel 8400 3150 2    50   Input ~ 0
P06
Text GLabel 8400 3350 2    50   Input ~ 0
P07
Text GLabel 4100 4300 2    50   Input ~ 0
P00
Text GLabel 4100 4400 2    50   Input ~ 0
P01
Text GLabel 4100 4500 2    50   Input ~ 0
P02
Text GLabel 4100 4600 2    50   Input ~ 0
P03
Text GLabel 4100 4700 2    50   Input ~ 0
P04
Text GLabel 4100 4800 2    50   Input ~ 0
P05
Text GLabel 4100 4900 2    50   Input ~ 0
P06
Text GLabel 4100 5000 2    50   Input ~ 0
P07
$Comp
L Connector:Conn_01x02_Female InputVol0
U 1 1 5F2EFD74
P 2150 450
F 0 "InputVol0" V 2088 262 50  0000 R CNN
F 1 "Conn_01x02_Female" V 1997 262 50  0000 R CNN
F 2 "TerminalBlock:TerminalBlock_bornier-2_P5.08mm" H 2150 450 50  0001 C CNN
F 3 "~" H 2150 450 50  0001 C CNN
	1    2150 450 
	0    -1   -1   0   
$EndComp
Wire Wire Line
	1850 850  1750 850 
Wire Wire Line
	1100 850  1100 1250
Wire Wire Line
	1700 1750 1850 1750
Wire Wire Line
	2450 1750 2450 1250
Connection ~ 1700 1750
Wire Wire Line
	1950 850  1950 1550
Wire Wire Line
	1950 1550 2750 1550
$Comp
L Jumper:Jumper_2_Open DirecVCC1
U 1 1 5F318384
P 1850 1300
F 0 "DirecVCC1" V 1804 1398 50  0000 L CNN
F 1 "Jumper_2_Open" V 1895 1398 50  0000 L CNN
F 2 "Jumper:SolderJumper-2_P1.3mm_Open_Pad1.0x1.5mm" H 1850 1300 50  0001 C CNN
F 3 "~" H 1850 1300 50  0001 C CNN
	1    1850 1300
	0    1    1    0   
$EndComp
Wire Wire Line
	1850 850  1850 1100
Wire Wire Line
	1850 1500 1850 1750
Connection ~ 1850 1750
Wire Wire Line
	1850 1750 2450 1750
$Comp
L power:PWR_FLAG #FLG01
U 1 1 5F32FDA6
P 1750 850
F 0 "#FLG01" H 1750 925 50  0001 C CNN
F 1 "PWR_FLAG" H 1750 1023 50  0000 C CNN
F 2 "" H 1750 850 50  0001 C CNN
F 3 "~" H 1750 850 50  0001 C CNN
	1    1750 850 
	1    0    0    -1  
$EndComp
Connection ~ 1750 850 
Wire Wire Line
	1750 850  1100 850 
Wire Wire Line
	4750 2000 4750 2100
Wire Wire Line
	4450 2100 4450 2050
Connection ~ 4450 2100
Wire Wire Line
	4450 2100 4750 2100
Wire Wire Line
	1700 4400 1400 4400
Connection ~ 1700 4400
Connection ~ 1400 4400
Wire Wire Line
	1400 4400 1400 4350
Wire Wire Line
	2450 1200 2450 1250
Connection ~ 2450 1250
Wire Wire Line
	2900 4200 2900 4500
Wire Wire Line
	2900 4500 2800 4500
Connection ~ 2900 4500
Wire Wire Line
	2900 4500 2900 5000
Wire Wire Line
	5100 5050 5050 5050
Wire Wire Line
	1550 6600 1250 6600
Connection ~ 1550 6600
Connection ~ 1250 6600
Wire Wire Line
	1250 6600 1250 6550
Wire Wire Line
	1700 5100 1400 5100
Wire Wire Line
	1400 4400 1400 5100
Connection ~ 1700 5100
Connection ~ 1400 5100
Wire Wire Line
	1400 5100 1400 5150
Connection ~ 1400 4350
Wire Wire Line
	5250 2100 5350 2100
Wire Wire Line
	5050 2100 4750 2100
Connection ~ 4750 2100
Wire Wire Line
	8100 2150 8000 2150
Wire Wire Line
	7800 2150 7450 2150
Connection ~ 7450 2150
Wire Wire Line
	10350 3850 10350 3900
Wire Wire Line
	10300 1050 10300 1000
Wire Wire Line
	1350 4350 1400 4350
Wire Wire Line
	1300 4350 1400 4350
Text GLabel 8450 6100 0    50   Input ~ 0
D8
Text GLabel 8450 5750 0    50   Input ~ 0
D7
$Comp
L L9110:SW_PUSH SW7
U 1 1 5F4B85F7
P 8800 5750
F 0 "SW7" H 8800 6005 50  0000 C CNN
F 1 "SW_PUSH" H 8800 5914 50  0000 C CNN
F 2 "Connector_PinSocket_2.54mm:PinSocket_1x02_P2.54mm_Vertical" H 8800 5750 60  0001 C CNN
F 3 "" H 8800 5750 60  0000 C CNN
	1    8800 5750
	1    0    0    -1  
$EndComp
$Comp
L L9110:SW_PUSH SW8
U 1 1 5F4B9077
P 8850 6100
F 0 "SW8" H 8850 6355 50  0000 C CNN
F 1 "SW_PUSH" H 8850 6264 50  0000 C CNN
F 2 "Connector_PinSocket_2.54mm:PinSocket_1x02_P2.54mm_Vertical" H 8850 6100 60  0001 C CNN
F 3 "" H 8850 6100 60  0000 C CNN
	1    8850 6100
	1    0    0    -1  
$EndComp
$Comp
L Device:R R7
U 1 1 5F1609BA
P 9300 5750
F 0 "R7" V 9093 5750 50  0000 C CNN
F 1 "R" V 9184 5750 50  0000 C CNN
F 2 "Resistor_THT:R_Axial_DIN0207_L6.3mm_D2.5mm_P7.62mm_Horizontal" V 9230 5750 50  0001 C CNN
F 3 "~" H 9300 5750 50  0001 C CNN
	1    9300 5750
	0    1    1    0   
$EndComp
$Comp
L Device:R R8
U 1 1 5F161007
P 9350 6100
F 0 "R8" V 9143 6100 50  0000 C CNN
F 1 "R" V 9234 6100 50  0000 C CNN
F 2 "Resistor_THT:R_Axial_DIN0207_L6.3mm_D2.5mm_P7.62mm_Horizontal" V 9280 6100 50  0001 C CNN
F 3 "~" H 9350 6100 50  0001 C CNN
	1    9350 6100
	0    1    1    0   
$EndComp
Wire Wire Line
	9100 5750 9150 5750
Wire Wire Line
	9150 6100 9200 6100
Wire Wire Line
	8550 6100 8450 6100
Wire Wire Line
	8500 5750 8450 5750
Wire Wire Line
	9450 5750 9600 5750
Wire Wire Line
	9600 5750 9600 5950
Wire Wire Line
	9600 5950 9500 5950
Wire Wire Line
	9500 5950 9500 6100
$Comp
L power:+3.3V #PWR023
U 1 1 5F1A1EE1
P 9600 5700
F 0 "#PWR023" H 9600 5550 50  0001 C CNN
F 1 "+3.3V" H 9615 5873 50  0000 C CNN
F 2 "" H 9600 5700 50  0001 C CNN
F 3 "" H 9600 5700 50  0001 C CNN
	1    9600 5700
	1    0    0    -1  
$EndComp
Wire Wire Line
	9600 5750 9600 5700
Connection ~ 9600 5750
$Comp
L power:PWR_FLAG #FLG0101
U 1 1 5F17420D
P 3250 1250
F 0 "#FLG0101" H 3250 1325 50  0001 C CNN
F 1 "PWR_FLAG" H 3250 1423 50  0000 C CNN
F 2 "" H 3250 1250 50  0001 C CNN
F 3 "~" H 3250 1250 50  0001 C CNN
	1    3250 1250
	1    0    0    -1  
$EndComp
$Comp
L power:PWR_FLAG #FLG0102
U 1 1 5F174641
P 10200 950
F 0 "#FLG0102" H 10200 1025 50  0001 C CNN
F 1 "PWR_FLAG" H 10200 1123 50  0000 C CNN
F 2 "" H 10200 950 50  0001 C CNN
F 3 "~" H 10200 950 50  0001 C CNN
	1    10200 950 
	1    0    0    -1  
$EndComp
Wire Wire Line
	10300 1000 10200 1000
Wire Wire Line
	10200 1000 10200 950 
Connection ~ 10300 1000
Wire Wire Line
	8750 1050 9450 1050
Connection ~ 3250 1250
Wire Wire Line
	3250 1250 3050 1250
Wire Wire Line
	3250 1250 3450 1250
$Comp
L Connector:Conn_01x03_Female 3.3_D6_GND_DHT0
U 1 1 5F1C644C
P 8500 5350
F 0 "3.3_D6_GND_DHT0" V 8346 5498 50  0000 L CNN
F 1 "Conn_01x03_Female" V 8437 5498 50  0000 L CNN
F 2 "Connector_PinSocket_2.54mm:PinSocket_1x03_P2.54mm_Vertical" H 8500 5350 50  0001 C CNN
F 3 "~" H 8500 5350 50  0001 C CNN
	1    8500 5350
	0    1    1    0   
$EndComp
$Comp
L power:+3.3V #PWR024
U 1 1 5F1C7575
P 8400 5150
F 0 "#PWR024" H 8400 5000 50  0001 C CNN
F 1 "+3.3V" H 8415 5323 50  0000 C CNN
F 2 "" H 8400 5150 50  0001 C CNN
F 3 "" H 8400 5150 50  0001 C CNN
	1    8400 5150
	1    0    0    -1  
$EndComp
$Comp
L power:GND #PWR026
U 1 1 5F17C749
P 8600 5150
F 0 "#PWR026" H 8600 4900 50  0001 C CNN
F 1 "GND" H 8605 4977 50  0000 C CNN
F 2 "" H 8600 5150 50  0001 C CNN
F 3 "" H 8600 5150 50  0001 C CNN
	1    8600 5150
	-1   0    0    1   
$EndComp
Text GLabel 8500 5150 1    50   Input ~ 0
D6
$Comp
L Device:C C_In0
U 1 1 5F188A36
P 2000 750
F 0 "C_In0" V 1748 750 50  0000 C CNN
F 1 "C" V 1839 750 50  0000 C CNN
F 2 "Capacitor_THT:CP_Radial_D8.0mm_P2.50mm" H 2038 600 50  0001 C CNN
F 3 "~" H 2000 750 50  0001 C CNN
	1    2000 750 
	0    1    1    0   
$EndComp
Wire Wire Line
	1850 850  1850 750 
Connection ~ 1850 850 
Wire Wire Line
	1950 850  2150 850 
Wire Wire Line
	2150 850  2150 750 
Wire Wire Line
	2250 650  2250 750 
Wire Wire Line
	2250 750  2150 750 
Connection ~ 2150 750 
Wire Wire Line
	2150 650  1850 650 
Wire Wire Line
	1850 650  1850 750 
Connection ~ 1850 750 
$EndSCHEMATC
