%!PS-Adobe-3.0
%%Creator: PCBNEW
%%CreationDate: Wed Jul 22 09:56:17 2020
%%Title: C:\Proyectos\test\l293d\l293d\gerber\l293d-PTH-drl_map.ps
%%Pages: 1
%%PageOrder: Ascend
%%BoundingBox: 0 0 596 842
%%DocumentMedia: A4 595 842 0 () ()
%%Orientation: Landscape
%%EndComments
%%BeginProlog
/line { newpath moveto lineto stroke } bind def
/cir0 { newpath 0 360 arc stroke } bind def
/cir1 { newpath 0 360 arc gsave fill grestore stroke } bind def
/cir2 { newpath 0 360 arc gsave fill grestore stroke } bind def
/arc0 { newpath arc stroke } bind def
/arc1 { newpath 4 index 4 index moveto arc closepath gsave fill
    grestore stroke } bind def
/arc2 { newpath 4 index 4 index moveto arc closepath gsave fill
    grestore stroke } bind def
/poly0 { stroke } bind def
/poly1 { closepath gsave fill grestore stroke } bind def
/poly2 { closepath gsave fill grestore stroke } bind def
/rect0 { rectstroke } bind def
/rect1 { rectfill } bind def
/rect2 { rectfill } bind def
/linemode0 { 0 setlinecap 0 setlinejoin 0 setlinewidth } bind def
/linemode1 { 1 setlinecap 1 setlinejoin } bind def
/dashedline { [200] 100 setdash } bind def
/solidline { [] 0 setdash } bind def
/phantomshow { moveto
    /KicadFont findfont 0.000001 scalefont setfont
    show } bind def
/textshow { gsave
    findfont exch scalefont setfont concat 1 scale 0 0 moveto show
    } bind def
/reencodefont {
  findfont dup length dict begin
  { 1 index /FID ne
    { def }
    { pop pop } ifelse
  } forall
  /Encoding ISOLatin1Encoding def
  currentdict
  end } bind def
/KicadFont /Helvetica reencodefont definefont pop
/KicadFont-Bold /Helvetica-Bold reencodefont definefont pop
/KicadFont-Oblique /Helvetica-Oblique reencodefont definefont pop
/KicadFont-BoldOblique /Helvetica-BoldOblique reencodefont definefont pop
%%EndProlog
%%Page: 1 1
%%BeginPageSetup
gsave
0.0072 0.0072 scale
linemode1
82680 0 translate 90 rotate
94.596 setlinewidth
%%EndPageSetup
0 0 0 setrgbcolor
111.728 setlinewidth
27248.3 77741.2 668.895 cir0
0 0 0 setrgbcolor
89681.7 77268.2 668.895 cir0
0 0 0 setrgbcolor
27248.3 38483.8 945.96 cir0
0 0 0 setrgbcolor
89681.7 38483.8 668.895 cir0
0 0 0 setrgbcolor
newpath
25829.4 78687.1 moveto
91100.6 78687.1 lineto
stroke
0 0 0 setrgbcolor
newpath
25829.4 37064.9 moveto
25829.4 78687.1 lineto
stroke
0 0 0 setrgbcolor
newpath
91100.6 37064.9 moveto
25829.4 37064.9 lineto
stroke
0 0 0 setrgbcolor
newpath
91100.6 78687.1 moveto
91100.6 37064.9 lineto
stroke
78.7397 setlinewidth
newpath
71086.5 55187.1 moveto
71384.4 54889.1 lineto
stroke
newpath
71384.4 55187.1 moveto
71086.5 54889.1 lineto
stroke
newpath
71086.5 53295.2 moveto
71384.4 52997.2 lineto
stroke
newpath
71384.4 53295.2 moveto
71086.5 52997.2 lineto
stroke
newpath
71086.5 53295.2 moveto
71384.4 52997.2 lineto
stroke
newpath
71384.4 53295.2 moveto
71086.5 52997.2 lineto
stroke
50424.3 46997.5 260.698 cir0
51839.6 46997.5 260.698 cir0
50908.5 60240.9 260.698 cir0
52323.7 60240.9 260.698 cir0
50897.3 63551.8 260.698 cir0
52312.5 63551.8 260.698 cir0
50424.3 49835.3 260.698 cir0
51839.6 49835.3 260.698 cir0
newpath
81168 56755 moveto
81168 56159.1 lineto
stroke
newpath
80870.1 56457.1 moveto
81466 56457.1 lineto
stroke
newpath
81168 54892.9 moveto
81168 54297 lineto
stroke
newpath
80870.1 54594.9 moveto
81466 54594.9 lineto
stroke
newpath
37180.9 45403.5 moveto
37180.9 44807.6 lineto
stroke
newpath
36883 45105.5 moveto
37478.8 45105.5 lineto
stroke
newpath
42856.7 45403.5 moveto
42856.7 44807.6 lineto
stroke
newpath
42558.7 45105.5 moveto
43154.6 45105.5 lineto
stroke
newpath
52316.3 68106.5 moveto
52316.3 67510.6 lineto
stroke
newpath
52018.3 67808.6 moveto
52614.2 67808.6 lineto
stroke
newpath
54178.4 68106.5 moveto
54178.4 67510.6 lineto
stroke
newpath
53880.4 67808.6 moveto
54476.3 67808.6 lineto
stroke
newpath
75492.3 58646.9 moveto
75492.3 58051 lineto
stroke
newpath
75194.3 58349 moveto
75790.2 58349 lineto
stroke
newpath
75492.3 52971.2 moveto
75492.3 52375.3 lineto
stroke
newpath
75194.3 52673.2 moveto
75790.2 52673.2 lineto
stroke
newpath
37180.9 42092.6 moveto
37180.9 41496.7 lineto
stroke
newpath
36883 41794.7 moveto
37478.8 41794.7 lineto
stroke
newpath
42856.7 42092.6 moveto
42856.7 41496.7 lineto
stroke
newpath
42558.7 41794.7 moveto
43154.6 41794.7 lineto
stroke
newpath
67451.6 49187.3 moveto
67451.6 48591.4 lineto
stroke
newpath
67153.7 48889.4 moveto
67749.6 48889.4 lineto
stroke
newpath
67451.6 47295.4 moveto
67451.6 46699.5 lineto
stroke
newpath
67153.7 46997.5 moveto
67749.6 46997.5 lineto
stroke
newpath
67451.6 45403.5 moveto
67451.6 44807.6 lineto
stroke
newpath
67153.7 45105.5 moveto
67749.6 45105.5 lineto
stroke
newpath
67451.6 43511.6 moveto
67451.6 42915.7 lineto
stroke
newpath
67153.7 43213.6 moveto
67749.6 43213.6 lineto
stroke
newpath
73127.4 49187.3 moveto
73127.4 48591.4 lineto
stroke
newpath
72829.4 48889.4 moveto
73425.3 48889.4 lineto
stroke
newpath
73127.4 47295.4 moveto
73127.4 46699.5 lineto
stroke
newpath
72829.4 46997.5 moveto
73425.3 46997.5 lineto
stroke
newpath
73127.4 45403.5 moveto
73127.4 44807.6 lineto
stroke
newpath
72829.4 45105.5 moveto
73425.3 45105.5 lineto
stroke
newpath
73127.4 43511.6 moveto
73127.4 42915.7 lineto
stroke
newpath
72829.4 43213.6 moveto
73425.3 43213.6 lineto
stroke
newpath
67451.6 65268.6 moveto
67451.6 64672.8 lineto
stroke
newpath
67153.7 64970.7 moveto
67749.6 64970.7 lineto
stroke
newpath
67451.6 63376.7 moveto
67451.6 62780.8 lineto
stroke
newpath
67153.7 63078.8 moveto
67749.6 63078.8 lineto
stroke
newpath
67451.6 61484.8 moveto
67451.6 60888.9 lineto
stroke
newpath
67153.7 61186.9 moveto
67749.6 61186.9 lineto
stroke
newpath
67451.6 59592.9 moveto
67451.6 58997 lineto
stroke
newpath
67153.7 59294.9 moveto
67749.6 59294.9 lineto
stroke
newpath
73127.4 65268.6 moveto
73127.4 64672.8 lineto
stroke
newpath
72829.4 64970.7 moveto
73425.3 64970.7 lineto
stroke
newpath
73127.4 63376.7 moveto
73127.4 62780.8 lineto
stroke
newpath
72829.4 63078.8 moveto
73425.3 63078.8 lineto
stroke
newpath
73127.4 61484.8 moveto
73127.4 60888.9 lineto
stroke
newpath
72829.4 61186.9 moveto
73425.3 61186.9 lineto
stroke
newpath
73127.4 59592.9 moveto
73127.4 58997 lineto
stroke
newpath
72829.4 59294.9 moveto
73425.3 59294.9 lineto
stroke
newpath
33899.8 68106.5 moveto
33899.8 67510.6 lineto
stroke
newpath
33601.9 67808.6 moveto
34197.8 67808.6 lineto
stroke
newpath
35762 68106.5 moveto
35762 67510.6 lineto
stroke
newpath
35464 67808.6 moveto
36059.9 67808.6 lineto
stroke
newpath
75492.3 73782.3 moveto
75492.3 73186.4 lineto
stroke
newpath
75194.3 73484.3 moveto
75790.2 73484.3 lineto
stroke
newpath
75492.3 68106.5 moveto
75492.3 67510.6 lineto
stroke
newpath
75194.3 67808.6 moveto
75790.2 67808.6 lineto
stroke
newpath
81168 71860.6 moveto
81168 71264.7 lineto
stroke
newpath
80870.1 71562.6 moveto
81466 71562.6 lineto
stroke
newpath
81168 69998.4 moveto
81168 69402.6 lineto
stroke
newpath
80870.1 69700.5 moveto
81466 69700.5 lineto
stroke
newpath
77857.2 66214.6 moveto
77857.2 65618.7 lineto
stroke
newpath
77559.2 65916.7 moveto
78155.1 65916.7 lineto
stroke
newpath
77857.2 60538.8 moveto
77857.2 59943 lineto
stroke
newpath
77559.2 60240.9 moveto
78155.1 60240.9 lineto
stroke
newpath
54681.2 47768.4 moveto
54681.2 47172.5 lineto
stroke
newpath
54383.2 47470.4 moveto
54979.1 47470.4 lineto
stroke
newpath
54681.2 42092.6 moveto
54681.2 41496.7 lineto
stroke
newpath
54383.2 41794.7 moveto
54979.1 41794.7 lineto
stroke
newpath
54681.2 55336.1 moveto
54681.2 54740.2 lineto
stroke
newpath
54383.2 55038.1 moveto
54979.1 55038.1 lineto
stroke
newpath
54681.2 49660.3 moveto
54681.2 49064.4 lineto
stroke
newpath
54383.2 49362.4 moveto
54979.1 49362.4 lineto
stroke
newpath
81168 49187.3 moveto
81168 48591.4 lineto
stroke
newpath
80870.1 48889.4 moveto
81466 48889.4 lineto
stroke
newpath
81168 47325.2 moveto
81168 46729.3 lineto
stroke
newpath
80870.1 47027.2 moveto
81466 47027.2 lineto
stroke
newpath
59883.9 57228 moveto
59883.9 56632.1 lineto
stroke
newpath
59586 56930 moveto
60181.9 56930 lineto
stroke
newpath
59883.9 55336.1 moveto
59883.9 54740.2 lineto
stroke
newpath
59586 55038.1 moveto
60181.9 55038.1 lineto
stroke
newpath
59883.9 53444.1 moveto
59883.9 52848.3 lineto
stroke
newpath
59586 53146.2 moveto
60181.9 53146.2 lineto
stroke
newpath
59883.9 51552.2 moveto
59883.9 50956.3 lineto
stroke
newpath
59586 51254.3 moveto
60181.9 51254.3 lineto
stroke
newpath
59883.9 49660.3 moveto
59883.9 49064.4 lineto
stroke
newpath
59586 49362.4 moveto
60181.9 49362.4 lineto
stroke
newpath
59883.9 47768.4 moveto
59883.9 47172.5 lineto
stroke
newpath
59586 47470.4 moveto
60181.9 47470.4 lineto
stroke
newpath
59883.9 45876.5 moveto
59883.9 45280.6 lineto
stroke
newpath
59586 45578.5 moveto
60181.9 45578.5 lineto
stroke
newpath
59883.9 43984.5 moveto
59883.9 43388.7 lineto
stroke
newpath
59586 43686.6 moveto
60181.9 43686.6 lineto
stroke
newpath
65559.7 57228 moveto
65559.7 56632.1 lineto
stroke
newpath
65261.8 56930 moveto
65857.6 56930 lineto
stroke
newpath
65559.7 55336.1 moveto
65559.7 54740.2 lineto
stroke
newpath
65261.8 55038.1 moveto
65857.6 55038.1 lineto
stroke
newpath
65559.7 53444.1 moveto
65559.7 52848.3 lineto
stroke
newpath
65261.8 53146.2 moveto
65857.6 53146.2 lineto
stroke
newpath
65559.7 51552.2 moveto
65559.7 50956.3 lineto
stroke
newpath
65261.8 51254.3 moveto
65857.6 51254.3 lineto
stroke
newpath
65559.7 49660.3 moveto
65559.7 49064.4 lineto
stroke
newpath
65261.8 49362.4 moveto
65857.6 49362.4 lineto
stroke
newpath
65559.7 47768.4 moveto
65559.7 47172.5 lineto
stroke
newpath
65261.8 47470.4 moveto
65857.6 47470.4 lineto
stroke
newpath
65559.7 45876.5 moveto
65559.7 45280.6 lineto
stroke
newpath
65261.8 45578.5 moveto
65857.6 45578.5 lineto
stroke
newpath
65559.7 43984.5 moveto
65559.7 43388.7 lineto
stroke
newpath
65261.8 43686.6 moveto
65857.6 43686.6 lineto
stroke
newpath
67451.6 73309.3 moveto
67451.6 72713.4 lineto
stroke
newpath
67153.7 73011.4 moveto
67749.6 73011.4 lineto
stroke
newpath
67451.6 71417.4 moveto
67451.6 70821.5 lineto
stroke
newpath
67153.7 71119.4 moveto
67749.6 71119.4 lineto
stroke
newpath
67451.6 69525.5 moveto
67451.6 68929.6 lineto
stroke
newpath
67153.7 69227.5 moveto
67749.6 69227.5 lineto
stroke
newpath
67451.6 67633.5 moveto
67451.6 67037.7 lineto
stroke
newpath
67153.7 67335.6 moveto
67749.6 67335.6 lineto
stroke
newpath
73127.4 73309.3 moveto
73127.4 72713.4 lineto
stroke
newpath
72829.4 73011.4 moveto
73425.3 73011.4 lineto
stroke
newpath
73127.4 71417.4 moveto
73127.4 70821.5 lineto
stroke
newpath
72829.4 71119.4 moveto
73425.3 71119.4 lineto
stroke
newpath
73127.4 69525.5 moveto
73127.4 68929.6 lineto
stroke
newpath
72829.4 69227.5 moveto
73425.3 69227.5 lineto
stroke
newpath
73127.4 67633.5 moveto
73127.4 67037.7 lineto
stroke
newpath
72829.4 67335.6 moveto
73425.3 67335.6 lineto
stroke
newpath
75492.3 66214.6 moveto
75492.3 65618.7 lineto
stroke
newpath
75194.3 65916.7 moveto
75790.2 65916.7 lineto
stroke
newpath
75492.3 60538.8 moveto
75492.3 59943 lineto
stroke
newpath
75194.3 60240.9 moveto
75790.2 60240.9 lineto
stroke
newpath
81168 63849.7 moveto
81168 63253.8 lineto
stroke
newpath
80870.1 63551.8 moveto
81466 63551.8 lineto
stroke
newpath
81168 61987.6 moveto
81168 61391.7 lineto
stroke
newpath
80870.1 61689.6 moveto
81466 61689.6 lineto
stroke
newpath
67451.6 57228 moveto
67451.6 56632.1 lineto
stroke
newpath
67153.7 56930 moveto
67749.6 56930 lineto
stroke
newpath
67451.6 55336.1 moveto
67451.6 54740.2 lineto
stroke
newpath
67153.7 55038.1 moveto
67749.6 55038.1 lineto
stroke
newpath
67451.6 53444.1 moveto
67451.6 52848.3 lineto
stroke
newpath
67153.7 53146.2 moveto
67749.6 53146.2 lineto
stroke
newpath
67451.6 51552.2 moveto
67451.6 50956.3 lineto
stroke
newpath
67153.7 51254.3 moveto
67749.6 51254.3 lineto
stroke
newpath
73127.4 57228 moveto
73127.4 56632.1 lineto
stroke
newpath
72829.4 56930 moveto
73425.3 56930 lineto
stroke
newpath
73127.4 55336.1 moveto
73127.4 54740.2 lineto
stroke
newpath
72829.4 55038.1 moveto
73425.3 55038.1 lineto
stroke
newpath
73127.4 53444.1 moveto
73127.4 52848.3 lineto
stroke
newpath
72829.4 53146.2 moveto
73425.3 53146.2 lineto
stroke
newpath
73127.4 51552.2 moveto
73127.4 50956.3 lineto
stroke
newpath
72829.4 51254.3 moveto
73425.3 51254.3 lineto
stroke
newpath
75492.3 51079.2 moveto
75492.3 50483.4 lineto
stroke
newpath
75194.3 50781.3 moveto
75790.2 50781.3 lineto
stroke
newpath
75492.3 45403.5 moveto
75492.3 44807.6 lineto
stroke
newpath
75194.3 45105.5 moveto
75790.2 45105.5 lineto
stroke
newpath
59883.9 73309.3 moveto
59883.9 72713.4 lineto
stroke
newpath
59586 73011.4 moveto
60181.9 73011.4 lineto
stroke
newpath
59883.9 71417.4 moveto
59883.9 70821.5 lineto
stroke
newpath
59586 71119.4 moveto
60181.9 71119.4 lineto
stroke
newpath
59883.9 69525.5 moveto
59883.9 68929.6 lineto
stroke
newpath
59586 69227.5 moveto
60181.9 69227.5 lineto
stroke
newpath
59883.9 67633.5 moveto
59883.9 67037.7 lineto
stroke
newpath
59586 67335.6 moveto
60181.9 67335.6 lineto
stroke
newpath
59883.9 65741.6 moveto
59883.9 65145.7 lineto
stroke
newpath
59586 65443.7 moveto
60181.9 65443.7 lineto
stroke
newpath
59883.9 63849.7 moveto
59883.9 63253.8 lineto
stroke
newpath
59586 63551.8 moveto
60181.9 63551.8 lineto
stroke
newpath
59883.9 61957.8 moveto
59883.9 61361.9 lineto
stroke
newpath
59586 61659.8 moveto
60181.9 61659.8 lineto
stroke
newpath
59883.9 60065.9 moveto
59883.9 59470 lineto
stroke
newpath
59586 59767.9 moveto
60181.9 59767.9 lineto
stroke
newpath
65559.7 73309.3 moveto
65559.7 72713.4 lineto
stroke
newpath
65261.8 73011.4 moveto
65857.6 73011.4 lineto
stroke
newpath
65559.7 71417.4 moveto
65559.7 70821.5 lineto
stroke
newpath
65261.8 71119.4 moveto
65857.6 71119.4 lineto
stroke
newpath
65559.7 69525.5 moveto
65559.7 68929.6 lineto
stroke
newpath
65261.8 69227.5 moveto
65857.6 69227.5 lineto
stroke
newpath
65559.7 67633.5 moveto
65559.7 67037.7 lineto
stroke
newpath
65261.8 67335.6 moveto
65857.6 67335.6 lineto
stroke
newpath
65559.7 65741.6 moveto
65559.7 65145.7 lineto
stroke
newpath
65261.8 65443.7 moveto
65857.6 65443.7 lineto
stroke
newpath
65559.7 63849.7 moveto
65559.7 63253.8 lineto
stroke
newpath
65261.8 63551.8 moveto
65857.6 63551.8 lineto
stroke
newpath
65559.7 61957.8 moveto
65559.7 61361.9 lineto
stroke
newpath
65261.8 61659.8 moveto
65857.6 61659.8 lineto
stroke
newpath
65559.7 60065.9 moveto
65559.7 59470 lineto
stroke
newpath
65261.8 59767.9 moveto
65857.6 59767.9 lineto
stroke
newpath
77857.2 73782.3 moveto
77857.2 73186.4 lineto
stroke
newpath
77559.2 73484.3 moveto
78155.1 73484.3 lineto
stroke
newpath
77857.2 68106.5 moveto
77857.2 67510.6 lineto
stroke
newpath
77559.2 67808.6 moveto
78155.1 67808.6 lineto
stroke
newpath
77857.2 51079.2 moveto
77857.2 50483.4 lineto
stroke
newpath
77559.2 50781.3 moveto
78155.1 50781.3 lineto
stroke
newpath
77857.2 45403.5 moveto
77857.2 44807.6 lineto
stroke
newpath
77559.2 45105.5 moveto
78155.1 45105.5 lineto
stroke
newpath
77857.2 58646.9 moveto
77857.2 58051 lineto
stroke
newpath
77559.2 58349 moveto
78155.1 58349 lineto
stroke
newpath
77857.2 52971.2 moveto
77857.2 52375.3 lineto
stroke
newpath
77559.2 52673.2 moveto
78155.1 52673.2 lineto
stroke
newpath
29377.2 68044.6 moveto
29377.2 68518.6 lineto
28903.2 68518.6 lineto
28903.2 68044.6 lineto
29377.2 68044.6 lineto
poly0
newpath
29377.2 62368.8 moveto
29377.2 62842.8 lineto
28903.2 62842.8 lineto
28903.2 62368.8 lineto
29377.2 62368.8 lineto
poly0
newpath
32451.1 57503.6 moveto
32823.5 57876 lineto
32451.1 58248.4 lineto
32078.7 57876 lineto
32451.1 57503.6 lineto
poly0
newpath
34343 57503.6 moveto
34715.4 57876 lineto
34343 58248.4 lineto
33970.6 57876 lineto
34343 57503.6 lineto
poly0
newpath
36234.9 57503.6 moveto
36607.4 57876 lineto
36234.9 58248.4 lineto
35862.5 57876 lineto
36234.9 57503.6 lineto
poly0
newpath
38126.9 57503.6 moveto
38499.3 57876 lineto
38126.9 58248.4 lineto
37754.4 57876 lineto
38126.9 57503.6 lineto
poly0
newpath
62721.8 39057.3 moveto
63094.2 39429.8 lineto
62721.8 39802.2 lineto
62349.4 39429.8 lineto
62721.8 39057.3 lineto
poly0
newpath
64613.7 39057.3 moveto
64986.2 39429.8 lineto
64613.7 39802.2 lineto
64241.3 39429.8 lineto
64613.7 39057.3 lineto
poly0
newpath
66505.7 39057.3 moveto
66878.1 39429.8 lineto
66505.7 39802.2 lineto
66133.2 39429.8 lineto
66505.7 39057.3 lineto
poly0
newpath
68397.6 39057.3 moveto
68770 39429.8 lineto
68397.6 39802.2 lineto
68025.2 39429.8 lineto
68397.6 39057.3 lineto
poly0
newpath
70289.5 39057.3 moveto
70661.9 39429.8 lineto
70289.5 39802.2 lineto
69917.1 39429.8 lineto
70289.5 39057.3 lineto
poly0
newpath
72181.4 39057.3 moveto
72553.9 39429.8 lineto
72181.4 39802.2 lineto
71809 39429.8 lineto
72181.4 39057.3 lineto
poly0
newpath
53262.2 39057.3 moveto
53634.6 39429.8 lineto
53262.2 39802.2 lineto
52889.8 39429.8 lineto
53262.2 39057.3 lineto
poly0
newpath
55154.1 39057.3 moveto
55526.6 39429.8 lineto
55154.1 39802.2 lineto
54781.7 39429.8 lineto
55154.1 39057.3 lineto
poly0
newpath
57046.1 39057.3 moveto
57418.5 39429.8 lineto
57046.1 39802.2 lineto
56673.6 39429.8 lineto
57046.1 39057.3 lineto
poly0
newpath
61302.9 76422.8 moveto
61675.3 76795.2 lineto
61302.9 77167.6 lineto
60930.5 76795.2 lineto
61302.9 76422.8 lineto
poly0
newpath
63194.8 76422.8 moveto
63567.2 76795.2 lineto
63194.8 77167.6 lineto
62822.4 76795.2 lineto
63194.8 76422.8 lineto
poly0
newpath
65086.7 76422.8 moveto
65459.1 76795.2 lineto
65086.7 77167.6 lineto
64714.3 76795.2 lineto
65086.7 76422.8 lineto
poly0
newpath
66978.6 76422.8 moveto
67351.1 76795.2 lineto
66978.6 77167.6 lineto
66606.2 76795.2 lineto
66978.6 76422.8 lineto
poly0
newpath
68870.6 76422.8 moveto
69243 76795.2 lineto
68870.6 77167.6 lineto
68498.1 76795.2 lineto
68870.6 76422.8 lineto
poly0
newpath
70762.5 76422.8 moveto
71134.9 76795.2 lineto
70762.5 77167.6 lineto
70390.1 76795.2 lineto
70762.5 76422.8 lineto
poly0
newpath
57519 46152.1 moveto
57891.5 46524.5 lineto
57519 46896.9 lineto
57146.6 46524.5 lineto
57519 46152.1 lineto
poly0
newpath
57519 44260.1 moveto
57891.5 44632.6 lineto
57519 45005 lineto
57146.6 44632.6 lineto
57519 44260.1 lineto
poly0
newpath
57519 50881.9 moveto
57891.5 51254.3 lineto
57519 51626.7 lineto
57146.6 51254.3 lineto
57519 50881.9 lineto
poly0
newpath
57519 48989.9 moveto
57891.5 49362.4 lineto
57519 49734.8 lineto
57146.6 49362.4 lineto
57519 48989.9 lineto
poly0
newpath
32261.9 61092.3 moveto
33018.7 60335.5 lineto
stroke
newpath
33018.7 61092.3 moveto
32261.9 60335.5 lineto
stroke
32640.3 60713.9 378.384 cir0
newpath
34153.8 61092.3 moveto
34910.6 60335.5 lineto
stroke
newpath
34910.6 61092.3 moveto
34153.8 60335.5 lineto
stroke
34532.2 60713.9 378.384 cir0
newpath
36045.7 61092.3 moveto
36802.5 60335.5 lineto
stroke
newpath
36802.5 61092.3 moveto
36045.7 60335.5 lineto
stroke
36424.1 60713.9 378.384 cir0
newpath
37937.7 61092.3 moveto
38694.4 60335.5 lineto
stroke
newpath
38694.4 61092.3 moveto
37937.7 60335.5 lineto
stroke
38316 60713.9 378.384 cir0
newpath
39829.6 61092.3 moveto
40586.3 60335.5 lineto
stroke
newpath
40586.3 61092.3 moveto
39829.6 60335.5 lineto
stroke
40208 60713.9 378.384 cir0
newpath
41721.5 61092.3 moveto
42478.3 60335.5 lineto
stroke
newpath
42478.3 61092.3 moveto
41721.5 60335.5 lineto
stroke
42099.9 60713.9 378.384 cir0
newpath
43613.4 61092.3 moveto
44370.2 60335.5 lineto
stroke
newpath
44370.2 61092.3 moveto
43613.4 60335.5 lineto
stroke
43991.8 60713.9 378.384 cir0
newpath
45505.3 61092.3 moveto
46262.1 60335.5 lineto
stroke
newpath
46262.1 61092.3 moveto
45505.3 60335.5 lineto
stroke
45883.7 60713.9 378.384 cir0
newpath
32120.4 48429.8 moveto
32877.1 47673 lineto
stroke
newpath
32877.1 48429.8 moveto
32120.4 47673 lineto
stroke
32498.8 48051.4 378.384 cir0
newpath
34012.3 48429.8 moveto
34769.1 47673 lineto
stroke
newpath
34769.1 48429.8 moveto
34012.3 47673 lineto
stroke
34390.7 48051.4 378.384 cir0
newpath
35904.2 48429.8 moveto
36661 47673 lineto
stroke
newpath
36661 48429.8 moveto
35904.2 47673 lineto
stroke
36282.6 48051.4 378.384 cir0
newpath
37796.1 48429.8 moveto
38552.9 47673 lineto
stroke
newpath
38552.9 48429.8 moveto
37796.1 47673 lineto
stroke
38174.5 48051.4 378.384 cir0
newpath
39688.1 48429.8 moveto
40444.8 47673 lineto
stroke
newpath
40444.8 48429.8 moveto
39688.1 47673 lineto
stroke
40066.4 48051.4 378.384 cir0
newpath
41580 48429.8 moveto
42336.7 47673 lineto
stroke
newpath
42336.7 48429.8 moveto
41580 47673 lineto
stroke
41958.4 48051.4 378.384 cir0
newpath
43471.9 48429.8 moveto
44228.7 47673 lineto
stroke
newpath
44228.7 48429.8 moveto
43471.9 47673 lineto
stroke
43850.3 48051.4 378.384 cir0
newpath
45363.8 48429.8 moveto
46120.6 47673 lineto
stroke
newpath
46120.6 48429.8 moveto
45363.8 47673 lineto
stroke
45742.2 48051.4 378.384 cir0
newpath
29676.5 75785.9 moveto
30495.9 74966.6 lineto
stroke
newpath
30495.9 75785.9 moveto
29676.5 74966.6 lineto
stroke
newpath
30086.2 75785.9 moveto
30086.2 74966.6 lineto
stroke
newpath
29676.5 75376.3 moveto
30495.9 75376.3 lineto
stroke
newpath
29676.5 73894 moveto
30495.9 73074.7 lineto
stroke
newpath
30495.9 73894 moveto
29676.5 73074.7 lineto
stroke
newpath
30086.2 73894 moveto
30086.2 73074.7 lineto
stroke
newpath
29676.5 73484.3 moveto
30495.9 73484.3 lineto
stroke
newpath
29676.5 72002.1 moveto
30495.9 71182.8 lineto
stroke
newpath
30495.9 72002.1 moveto
29676.5 71182.8 lineto
stroke
newpath
30086.2 72002.1 moveto
30086.2 71182.8 lineto
stroke
newpath
29676.5 71592.4 moveto
30495.9 71592.4 lineto
stroke
newpath
41028 68218.3 moveto
41847.4 67398.9 lineto
stroke
newpath
41847.4 68218.3 moveto
41028 67398.9 lineto
stroke
newpath
41437.7 68218.3 moveto
41437.7 67398.9 lineto
stroke
newpath
41028 67808.6 moveto
41847.4 67808.6 lineto
stroke
newpath
42920 68218.3 moveto
43739.3 67398.9 lineto
stroke
newpath
43739.3 68218.3 moveto
42920 67398.9 lineto
stroke
newpath
43329.6 68218.3 moveto
43329.6 67398.9 lineto
stroke
newpath
42920 67808.6 moveto
43739.3 67808.6 lineto
stroke
newpath
44811.9 68218.3 moveto
45631.2 67398.9 lineto
stroke
newpath
45631.2 68218.3 moveto
44811.9 67398.9 lineto
stroke
newpath
45221.6 68218.3 moveto
45221.6 67398.9 lineto
stroke
newpath
44811.9 67808.6 moveto
45631.2 67808.6 lineto
stroke
newpath
40871.6 74996.4 moveto
42003.8 73864.2 lineto
stroke
newpath
42003.8 74996.4 moveto
40871.6 73864.2 lineto
stroke
newpath
41838 74030 moveto
41838 74830.6 lineto
41037.4 74830.6 lineto
41037.4 74030 lineto
41838 74030 lineto
poly0
newpath
44655.5 74996.4 moveto
45787.6 73864.2 lineto
stroke
newpath
45787.6 74996.4 moveto
44655.5 73864.2 lineto
stroke
newpath
45621.8 74030 moveto
45621.8 74830.6 lineto
44821.3 74830.6 lineto
44821.3 74030 lineto
45621.8 74030 lineto
poly0
newpath
85804.7 56077.2 moveto
86936.9 54945 lineto
stroke
newpath
86936.9 56077.2 moveto
85804.7 54945 lineto
stroke
newpath
86771.1 55110.8 moveto
86771.1 55911.4 lineto
85970.5 55911.4 lineto
85970.5 55110.8 lineto
86771.1 55110.8 lineto
poly0
newpath
85804.7 52293.3 moveto
86936.9 51161.2 lineto
stroke
newpath
86936.9 52293.3 moveto
85804.7 51161.2 lineto
stroke
newpath
86771.1 51327 moveto
86771.1 52127.5 lineto
85970.5 52127.5 lineto
85970.5 51327 lineto
86771.1 51327 lineto
poly0
newpath
85804.7 47563.5 moveto
86936.9 46431.4 lineto
stroke
newpath
86936.9 47563.5 moveto
85804.7 46431.4 lineto
stroke
newpath
86771.1 46597.2 moveto
86771.1 47397.7 lineto
85970.5 47397.7 lineto
85970.5 46597.2 lineto
86771.1 46597.2 lineto
poly0
newpath
85804.7 43779.7 moveto
86936.9 42647.5 lineto
stroke
newpath
86936.9 43779.7 moveto
85804.7 42647.5 lineto
stroke
newpath
86771.1 42813.3 moveto
86771.1 43613.9 lineto
85970.5 43613.9 lineto
85970.5 42813.3 lineto
86771.1 42813.3 lineto
poly0
newpath
85804.7 64590.8 moveto
86936.9 63458.7 lineto
stroke
newpath
86936.9 64590.8 moveto
85804.7 63458.7 lineto
stroke
newpath
86771.1 63624.5 moveto
86771.1 64425 lineto
85970.5 64425 lineto
85970.5 63624.5 lineto
86771.1 63624.5 lineto
poly0
newpath
85804.7 60807 moveto
86936.9 59674.8 lineto
stroke
newpath
86936.9 60807 moveto
85804.7 59674.8 lineto
stroke
newpath
86771.1 59840.6 moveto
86771.1 60641.2 lineto
85970.5 60641.2 lineto
85970.5 59840.6 lineto
86771.1 59840.6 lineto
poly0
newpath
32831 74996.4 moveto
33963.1 73864.2 lineto
stroke
newpath
33963.1 74996.4 moveto
32831 73864.2 lineto
stroke
newpath
33797.3 74030 moveto
33797.3 74830.6 lineto
32996.8 74830.6 lineto
32996.8 74030 lineto
33797.3 74030 lineto
poly0
newpath
36614.8 74996.4 moveto
37747 73864.2 lineto
stroke
newpath
37747 74996.4 moveto
36614.8 73864.2 lineto
stroke
newpath
37581.2 74030 moveto
37581.2 74830.6 lineto
36780.6 74830.6 lineto
36780.6 74030 lineto
37581.2 74030 lineto
poly0
newpath
85804.7 73104.5 moveto
86936.9 71972.3 lineto
stroke
newpath
86936.9 73104.5 moveto
85804.7 71972.3 lineto
stroke
newpath
86771.1 72138.1 moveto
86771.1 72938.7 lineto
85970.5 72938.7 lineto
85970.5 72138.1 lineto
86771.1 72138.1 lineto
poly0
newpath
85804.7 69320.6 moveto
86936.9 68188.5 lineto
stroke
newpath
86936.9 69320.6 moveto
85804.7 68188.5 lineto
stroke
newpath
86771.1 68354.3 moveto
86771.1 69154.8 lineto
85970.5 69154.8 lineto
85970.5 68354.3 lineto
86771.1 68354.3 lineto
poly0
118.11 setlinewidth
0 0 0 setrgbcolor
0 0 0 setrgbcolor
newpath
26901.2 35175.5 moveto
26901.2 36356.6 lineto
27182.4 36356.6 lineto
27351.1 36300.3 lineto
27463.6 36187.9 lineto
27519.8 36075.4 lineto
27576.1 35850.4 lineto
27576.1 35681.7 lineto
27519.8 35456.7 lineto
27463.6 35344.2 lineto
27351.1 35231.7 lineto
27182.4 35175.5 lineto
26901.2 35175.5 lineto
stroke
newpath
28082.3 35175.5 moveto
28082.3 35962.9 lineto
stroke
newpath
28082.3 35737.9 moveto
28138.5 35850.4 lineto
28194.8 35906.6 lineto
28307.2 35962.9 lineto
28419.7 35962.9 lineto
stroke
newpath
28813.4 35175.5 moveto
28813.4 35962.9 lineto
stroke
newpath
28813.4 36356.6 moveto
28757.2 36300.3 lineto
28813.4 36244.1 lineto
28869.7 36300.3 lineto
28813.4 36356.6 lineto
28813.4 36244.1 lineto
stroke
newpath
29544.6 35175.5 moveto
29432.1 35231.7 lineto
29375.9 35344.2 lineto
29375.9 36356.6 lineto
stroke
newpath
30163.3 35175.5 moveto
30050.8 35231.7 lineto
29994.5 35344.2 lineto
29994.5 36356.6 lineto
stroke
newpath
31513.1 35175.5 moveto
31513.1 36356.6 lineto
31906.8 35512.9 lineto
32300.5 36356.6 lineto
32300.5 35175.5 lineto
stroke
newpath
33369.1 35175.5 moveto
33369.1 35794.2 lineto
33312.9 35906.6 lineto
33200.4 35962.9 lineto
32975.4 35962.9 lineto
32862.9 35906.6 lineto
stroke
newpath
33369.1 35231.7 moveto
33256.6 35175.5 lineto
32975.4 35175.5 lineto
32862.9 35231.7 lineto
32806.7 35344.2 lineto
32806.7 35456.7 lineto
32862.9 35569.2 lineto
32975.4 35625.4 lineto
33256.6 35625.4 lineto
33369.1 35681.7 lineto
stroke
newpath
33931.5 35962.9 moveto
33931.5 34781.8 lineto
stroke
newpath
33931.5 35906.6 moveto
34044 35962.9 lineto
34269 35962.9 lineto
34381.5 35906.6 lineto
34437.7 35850.4 lineto
34494 35737.9 lineto
34494 35400.5 lineto
34437.7 35288 lineto
34381.5 35231.7 lineto
34269 35175.5 lineto
34044 35175.5 lineto
33931.5 35231.7 lineto
stroke
newpath
35000.2 35288 moveto
35056.4 35231.7 lineto
35000.2 35175.5 lineto
34943.9 35231.7 lineto
35000.2 35288 lineto
35000.2 35175.5 lineto
stroke
newpath
35000.2 35906.6 moveto
35056.4 35850.4 lineto
35000.2 35794.2 lineto
34943.9 35850.4 lineto
35000.2 35906.6 lineto
35000.2 35794.2 lineto
stroke
newpath
25475.6 33378.5 moveto
25773.5 33080.5 lineto
stroke
newpath
25773.5 33378.5 moveto
25475.6 33080.5 lineto
stroke
0 0 0 setrgbcolor
0 0 0 setrgbcolor
newpath
27126.1 33876.3 moveto
27238.6 33876.3 lineto
27351.1 33820 lineto
27407.4 33763.8 lineto
27463.6 33651.3 lineto
27519.8 33426.3 lineto
27519.8 33145.1 lineto
27463.6 32920.1 lineto
27407.4 32807.7 lineto
27351.1 32751.4 lineto
27238.6 32695.2 lineto
27126.1 32695.2 lineto
27013.7 32751.4 lineto
26957.4 32807.7 lineto
26901.2 32920.1 lineto
26844.9 33145.1 lineto
26844.9 33426.3 lineto
26901.2 33651.3 lineto
26957.4 33763.8 lineto
27013.7 33820 lineto
27126.1 33876.3 lineto
stroke
newpath
28026 32807.7 moveto
28082.3 32751.4 lineto
28026 32695.2 lineto
27969.8 32751.4 lineto
28026 32807.7 lineto
28026 32695.2 lineto
stroke
newpath
29094.7 33482.6 moveto
29094.7 32695.2 lineto
stroke
newpath
28813.4 33932.5 moveto
28532.2 33088.9 lineto
29263.4 33088.9 lineto
stroke
newpath
29938.3 33876.3 moveto
30050.8 33876.3 lineto
30163.3 33820 lineto
30219.5 33763.8 lineto
30275.8 33651.3 lineto
30332 33426.3 lineto
30332 33145.1 lineto
30275.8 32920.1 lineto
30219.5 32807.7 lineto
30163.3 32751.4 lineto
30050.8 32695.2 lineto
29938.3 32695.2 lineto
29825.8 32751.4 lineto
29769.6 32807.7 lineto
29713.3 32920.1 lineto
29657.1 33145.1 lineto
29657.1 33426.3 lineto
29713.3 33651.3 lineto
29769.6 33763.8 lineto
29825.8 33820 lineto
29938.3 33876.3 lineto
stroke
newpath
30838.2 32695.2 moveto
30838.2 33482.6 lineto
stroke
newpath
30838.2 33370.1 moveto
30894.4 33426.3 lineto
31006.9 33482.6 lineto
31175.6 33482.6 lineto
31288.1 33426.3 lineto
31344.4 33313.8 lineto
31344.4 32695.2 lineto
stroke
newpath
31344.4 33313.8 moveto
31400.6 33426.3 lineto
31513.1 33482.6 lineto
31681.8 33482.6 lineto
31794.3 33426.3 lineto
31850.6 33313.8 lineto
31850.6 32695.2 lineto
stroke
newpath
32413 32695.2 moveto
32413 33482.6 lineto
stroke
newpath
32413 33370.1 moveto
32469.2 33426.3 lineto
32581.7 33482.6 lineto
32750.4 33482.6 lineto
32862.9 33426.3 lineto
32919.2 33313.8 lineto
32919.2 32695.2 lineto
stroke
newpath
32919.2 33313.8 moveto
32975.4 33426.3 lineto
33087.9 33482.6 lineto
33256.6 33482.6 lineto
33369.1 33426.3 lineto
33425.4 33313.8 lineto
33425.4 32695.2 lineto
stroke
newpath
35731.3 33932.5 moveto
34718.9 32414 lineto
stroke
newpath
37249.9 33876.3 moveto
37362.4 33876.3 lineto
37474.9 33820 lineto
37531.1 33763.8 lineto
37587.3 33651.3 lineto
37643.6 33426.3 lineto
37643.6 33145.1 lineto
37587.3 32920.1 lineto
37531.1 32807.7 lineto
37474.9 32751.4 lineto
37362.4 32695.2 lineto
37249.9 32695.2 lineto
37137.4 32751.4 lineto
37081.2 32807.7 lineto
37024.9 32920.1 lineto
36968.7 33145.1 lineto
36968.7 33426.3 lineto
37024.9 33651.3 lineto
37081.2 33763.8 lineto
37137.4 33820 lineto
37249.9 33876.3 lineto
stroke
newpath
38149.8 32807.7 moveto
38206 32751.4 lineto
38149.8 32695.2 lineto
38093.5 32751.4 lineto
38149.8 32807.7 lineto
38149.8 32695.2 lineto
stroke
newpath
38937.2 33876.3 moveto
39049.7 33876.3 lineto
39162.1 33820 lineto
39218.4 33763.8 lineto
39274.6 33651.3 lineto
39330.9 33426.3 lineto
39330.9 33145.1 lineto
39274.6 32920.1 lineto
39218.4 32807.7 lineto
39162.1 32751.4 lineto
39049.7 32695.2 lineto
38937.2 32695.2 lineto
38824.7 32751.4 lineto
38768.4 32807.7 lineto
38712.2 32920.1 lineto
38656 33145.1 lineto
38656 33426.3 lineto
38712.2 33651.3 lineto
38768.4 33763.8 lineto
38824.7 33820 lineto
38937.2 33876.3 lineto
stroke
newpath
40455.7 32695.2 moveto
39780.8 32695.2 lineto
stroke
newpath
40118.3 32695.2 moveto
40118.3 33876.3 lineto
40005.8 33707.5 lineto
39893.3 33595.1 lineto
39780.8 33538.8 lineto
stroke
newpath
41468.1 33876.3 moveto
41243.1 33876.3 lineto
41130.6 33820 lineto
41074.4 33763.8 lineto
40961.9 33595.1 lineto
40905.7 33370.1 lineto
40905.7 32920.1 lineto
40961.9 32807.7 lineto
41018.2 32751.4 lineto
41130.6 32695.2 lineto
41355.6 32695.2 lineto
41468.1 32751.4 lineto
41524.3 32807.7 lineto
41580.6 32920.1 lineto
41580.6 33201.4 lineto
41524.3 33313.8 lineto
41468.1 33370.1 lineto
41355.6 33426.3 lineto
41130.6 33426.3 lineto
41018.2 33370.1 lineto
40961.9 33313.8 lineto
40905.7 33201.4 lineto
stroke
newpath
42030.5 33876.3 moveto
42030.5 33651.3 lineto
stroke
newpath
42480.5 33876.3 moveto
42480.5 33651.3 lineto
stroke
newpath
44224 32245.2 moveto
44167.8 32301.5 lineto
44055.3 32470.2 lineto
43999 32582.7 lineto
43942.8 32751.4 lineto
43886.6 33032.6 lineto
43886.6 33257.6 lineto
43942.8 33538.8 lineto
43999 33707.5 lineto
44055.3 33820 lineto
44167.8 33988.8 lineto
44224 34045 lineto
stroke
newpath
44561.5 33876.3 moveto
45292.6 33876.3 lineto
44898.9 33426.3 lineto
45067.7 33426.3 lineto
45180.1 33370.1 lineto
45236.4 33313.8 lineto
45292.6 33201.4 lineto
45292.6 32920.1 lineto
45236.4 32807.7 lineto
45180.1 32751.4 lineto
45067.7 32695.2 lineto
44730.2 32695.2 lineto
44617.7 32751.4 lineto
44561.5 32807.7 lineto
stroke
newpath
46698.7 32695.2 moveto
46698.7 33876.3 lineto
stroke
newpath
47204.9 32695.2 moveto
47204.9 33313.8 lineto
47148.6 33426.3 lineto
47036.2 33482.6 lineto
46867.4 33482.6 lineto
46754.9 33426.3 lineto
46698.7 33370.1 lineto
stroke
newpath
47936 32695.2 moveto
47823.6 32751.4 lineto
47767.3 32807.7 lineto
47711.1 32920.1 lineto
47711.1 33257.6 lineto
47767.3 33370.1 lineto
47823.6 33426.3 lineto
47936 33482.6 lineto
48104.8 33482.6 lineto
48217.3 33426.3 lineto
48273.5 33370.1 lineto
48329.7 33257.6 lineto
48329.7 32920.1 lineto
48273.5 32807.7 lineto
48217.3 32751.4 lineto
48104.8 32695.2 lineto
47936 32695.2 lineto
stroke
newpath
49004.7 32695.2 moveto
48892.2 32751.4 lineto
48835.9 32863.9 lineto
48835.9 33876.3 lineto
stroke
newpath
49904.5 32751.4 moveto
49792.1 32695.2 lineto
49567.1 32695.2 lineto
49454.6 32751.4 lineto
49398.4 32863.9 lineto
49398.4 33313.8 lineto
49454.6 33426.3 lineto
49567.1 33482.6 lineto
49792.1 33482.6 lineto
49904.5 33426.3 lineto
49960.8 33313.8 lineto
49960.8 33201.4 lineto
49398.4 33088.9 lineto
stroke
newpath
50410.7 32751.4 moveto
50523.2 32695.2 lineto
50748.2 32695.2 lineto
50860.7 32751.4 lineto
50916.9 32863.9 lineto
50916.9 32920.1 lineto
50860.7 33032.6 lineto
50748.2 33088.9 lineto
50579.5 33088.9 lineto
50467 33145.1 lineto
50410.7 33257.6 lineto
50410.7 33313.8 lineto
50467 33426.3 lineto
50579.5 33482.6 lineto
50748.2 33482.6 lineto
50860.7 33426.3 lineto
stroke
newpath
51310.6 32245.2 moveto
51366.9 32301.5 lineto
51479.4 32470.2 lineto
51535.6 32582.7 lineto
51591.8 32751.4 lineto
51648.1 33032.6 lineto
51648.1 33257.6 lineto
51591.8 33538.8 lineto
51535.6 33707.5 lineto
51479.4 33820 lineto
51366.9 33988.8 lineto
51310.6 34045 lineto
stroke
25512.8 31670.4 260.698 cir0
0 0 0 setrgbcolor
0 0 0 setrgbcolor
newpath
27126.1 32317.2 moveto
27238.6 32317.2 lineto
27351.1 32261 lineto
27407.4 32204.7 lineto
27463.6 32092.2 lineto
27519.8 31867.3 lineto
27519.8 31586.1 lineto
27463.6 31361.1 lineto
27407.4 31248.6 lineto
27351.1 31192.4 lineto
27238.6 31136.1 lineto
27126.1 31136.1 lineto
27013.7 31192.4 lineto
26957.4 31248.6 lineto
26901.2 31361.1 lineto
26844.9 31586.1 lineto
26844.9 31867.3 lineto
26901.2 32092.2 lineto
26957.4 32204.7 lineto
27013.7 32261 lineto
27126.1 32317.2 lineto
stroke
newpath
28026 31248.6 moveto
28082.3 31192.4 lineto
28026 31136.1 lineto
27969.8 31192.4 lineto
28026 31248.6 lineto
28026 31136.1 lineto
stroke
newpath
28476 32317.2 moveto
29263.4 32317.2 lineto
28757.2 31136.1 lineto
stroke
newpath
29938.3 32317.2 moveto
30050.8 32317.2 lineto
30163.3 32261 lineto
30219.5 32204.7 lineto
30275.8 32092.2 lineto
30332 31867.3 lineto
30332 31586.1 lineto
30275.8 31361.1 lineto
30219.5 31248.6 lineto
30163.3 31192.4 lineto
30050.8 31136.1 lineto
29938.3 31136.1 lineto
29825.8 31192.4 lineto
29769.6 31248.6 lineto
29713.3 31361.1 lineto
29657.1 31586.1 lineto
29657.1 31867.3 lineto
29713.3 32092.2 lineto
29769.6 32204.7 lineto
29825.8 32261 lineto
29938.3 32317.2 lineto
stroke
newpath
30838.2 31136.1 moveto
30838.2 31923.5 lineto
stroke
newpath
30838.2 31811 moveto
30894.4 31867.3 lineto
31006.9 31923.5 lineto
31175.6 31923.5 lineto
31288.1 31867.3 lineto
31344.4 31754.8 lineto
31344.4 31136.1 lineto
stroke
newpath
31344.4 31754.8 moveto
31400.6 31867.3 lineto
31513.1 31923.5 lineto
31681.8 31923.5 lineto
31794.3 31867.3 lineto
31850.6 31754.8 lineto
31850.6 31136.1 lineto
stroke
newpath
32413 31136.1 moveto
32413 31923.5 lineto
stroke
newpath
32413 31811 moveto
32469.2 31867.3 lineto
32581.7 31923.5 lineto
32750.4 31923.5 lineto
32862.9 31867.3 lineto
32919.2 31754.8 lineto
32919.2 31136.1 lineto
stroke
newpath
32919.2 31754.8 moveto
32975.4 31867.3 lineto
33087.9 31923.5 lineto
33256.6 31923.5 lineto
33369.1 31867.3 lineto
33425.4 31754.8 lineto
33425.4 31136.1 lineto
stroke
newpath
35731.3 32373.5 moveto
34718.9 30854.9 lineto
stroke
newpath
37249.9 32317.2 moveto
37362.4 32317.2 lineto
37474.9 32261 lineto
37531.1 32204.7 lineto
37587.3 32092.2 lineto
37643.6 31867.3 lineto
37643.6 31586.1 lineto
37587.3 31361.1 lineto
37531.1 31248.6 lineto
37474.9 31192.4 lineto
37362.4 31136.1 lineto
37249.9 31136.1 lineto
37137.4 31192.4 lineto
37081.2 31248.6 lineto
37024.9 31361.1 lineto
36968.7 31586.1 lineto
36968.7 31867.3 lineto
37024.9 32092.2 lineto
37081.2 32204.7 lineto
37137.4 32261 lineto
37249.9 32317.2 lineto
stroke
newpath
38149.8 31248.6 moveto
38206 31192.4 lineto
38149.8 31136.1 lineto
38093.5 31192.4 lineto
38149.8 31248.6 lineto
38149.8 31136.1 lineto
stroke
newpath
38937.2 32317.2 moveto
39049.7 32317.2 lineto
39162.1 32261 lineto
39218.4 32204.7 lineto
39274.6 32092.2 lineto
39330.9 31867.3 lineto
39330.9 31586.1 lineto
39274.6 31361.1 lineto
39218.4 31248.6 lineto
39162.1 31192.4 lineto
39049.7 31136.1 lineto
38937.2 31136.1 lineto
38824.7 31192.4 lineto
38768.4 31248.6 lineto
38712.2 31361.1 lineto
38656 31586.1 lineto
38656 31867.3 lineto
38712.2 32092.2 lineto
38768.4 32204.7 lineto
38824.7 32261 lineto
38937.2 32317.2 lineto
stroke
newpath
39780.8 32204.7 moveto
39837.1 32261 lineto
39949.5 32317.2 lineto
40230.8 32317.2 lineto
40343.2 32261 lineto
40399.5 32204.7 lineto
40455.7 32092.2 lineto
40455.7 31979.8 lineto
40399.5 31811 lineto
39724.6 31136.1 lineto
40455.7 31136.1 lineto
stroke
newpath
41130.6 31811 moveto
41018.2 31867.3 lineto
40961.9 31923.5 lineto
40905.7 32036 lineto
40905.7 32092.2 lineto
40961.9 32204.7 lineto
41018.2 32261 lineto
41130.6 32317.2 lineto
41355.6 32317.2 lineto
41468.1 32261 lineto
41524.3 32204.7 lineto
41580.6 32092.2 lineto
41580.6 32036 lineto
41524.3 31923.5 lineto
41468.1 31867.3 lineto
41355.6 31811 lineto
41130.6 31811 lineto
41018.2 31754.8 lineto
40961.9 31698.5 lineto
40905.7 31586.1 lineto
40905.7 31361.1 lineto
40961.9 31248.6 lineto
41018.2 31192.4 lineto
41130.6 31136.1 lineto
41355.6 31136.1 lineto
41468.1 31192.4 lineto
41524.3 31248.6 lineto
41580.6 31361.1 lineto
41580.6 31586.1 lineto
41524.3 31698.5 lineto
41468.1 31754.8 lineto
41355.6 31811 lineto
stroke
newpath
42030.5 32317.2 moveto
42030.5 32092.2 lineto
stroke
newpath
42480.5 32317.2 moveto
42480.5 32092.2 lineto
stroke
newpath
44224 30686.2 moveto
44167.8 30742.4 lineto
44055.3 30911.1 lineto
43999 31023.6 lineto
43942.8 31192.4 lineto
43886.6 31473.6 lineto
43886.6 31698.5 lineto
43942.8 31979.8 lineto
43999 32148.5 lineto
44055.3 32261 lineto
44167.8 32429.7 lineto
44224 32485.9 lineto
stroke
newpath
44842.7 31811 moveto
44730.2 31867.3 lineto
44674 31923.5 lineto
44617.7 32036 lineto
44617.7 32092.2 lineto
44674 32204.7 lineto
44730.2 32261 lineto
44842.7 32317.2 lineto
45067.7 32317.2 lineto
45180.1 32261 lineto
45236.4 32204.7 lineto
45292.6 32092.2 lineto
45292.6 32036 lineto
45236.4 31923.5 lineto
45180.1 31867.3 lineto
45067.7 31811 lineto
44842.7 31811 lineto
44730.2 31754.8 lineto
44674 31698.5 lineto
44617.7 31586.1 lineto
44617.7 31361.1 lineto
44674 31248.6 lineto
44730.2 31192.4 lineto
44842.7 31136.1 lineto
45067.7 31136.1 lineto
45180.1 31192.4 lineto
45236.4 31248.6 lineto
45292.6 31361.1 lineto
45292.6 31586.1 lineto
45236.4 31698.5 lineto
45180.1 31754.8 lineto
45067.7 31811 lineto
stroke
newpath
46698.7 31136.1 moveto
46698.7 32317.2 lineto
stroke
newpath
47204.9 31136.1 moveto
47204.9 31754.8 lineto
47148.6 31867.3 lineto
47036.2 31923.5 lineto
46867.4 31923.5 lineto
46754.9 31867.3 lineto
46698.7 31811 lineto
stroke
newpath
47936 31136.1 moveto
47823.6 31192.4 lineto
47767.3 31248.6 lineto
47711.1 31361.1 lineto
47711.1 31698.5 lineto
47767.3 31811 lineto
47823.6 31867.3 lineto
47936 31923.5 lineto
48104.8 31923.5 lineto
48217.3 31867.3 lineto
48273.5 31811 lineto
48329.7 31698.5 lineto
48329.7 31361.1 lineto
48273.5 31248.6 lineto
48217.3 31192.4 lineto
48104.8 31136.1 lineto
47936 31136.1 lineto
stroke
newpath
49004.7 31136.1 moveto
48892.2 31192.4 lineto
48835.9 31304.8 lineto
48835.9 32317.2 lineto
stroke
newpath
49904.5 31192.4 moveto
49792.1 31136.1 lineto
49567.1 31136.1 lineto
49454.6 31192.4 lineto
49398.4 31304.8 lineto
49398.4 31754.8 lineto
49454.6 31867.3 lineto
49567.1 31923.5 lineto
49792.1 31923.5 lineto
49904.5 31867.3 lineto
49960.8 31754.8 lineto
49960.8 31642.3 lineto
49398.4 31529.8 lineto
stroke
newpath
50410.7 31192.4 moveto
50523.2 31136.1 lineto
50748.2 31136.1 lineto
50860.7 31192.4 lineto
50916.9 31304.8 lineto
50916.9 31361.1 lineto
50860.7 31473.6 lineto
50748.2 31529.8 lineto
50579.5 31529.8 lineto
50467 31586.1 lineto
50410.7 31698.5 lineto
50410.7 31754.8 lineto
50467 31867.3 lineto
50579.5 31923.5 lineto
50748.2 31923.5 lineto
50860.7 31867.3 lineto
stroke
newpath
51310.6 30686.2 moveto
51366.9 30742.4 lineto
51479.4 30911.1 lineto
51535.6 31023.6 lineto
51591.8 31192.4 lineto
51648.1 31473.6 lineto
51648.1 31698.5 lineto
51591.8 31979.8 lineto
51535.6 32148.5 lineto
51479.4 32261 lineto
51366.9 32429.7 lineto
51310.6 32485.9 lineto
stroke
newpath
25475.6 30409.3 moveto
25475.6 29813.4 lineto
stroke
newpath
25177.6 30111.4 moveto
25773.5 30111.4 lineto
stroke
0 0 0 setrgbcolor
0 0 0 setrgbcolor
newpath
27126.1 30758.2 moveto
27238.6 30758.2 lineto
27351.1 30701.9 lineto
27407.4 30645.7 lineto
27463.6 30533.2 lineto
27519.8 30308.2 lineto
27519.8 30027 lineto
27463.6 29802 lineto
27407.4 29689.5 lineto
27351.1 29633.3 lineto
27238.6 29577.1 lineto
27126.1 29577.1 lineto
27013.7 29633.3 lineto
26957.4 29689.5 lineto
26901.2 29802 lineto
26844.9 30027 lineto
26844.9 30308.2 lineto
26901.2 30533.2 lineto
26957.4 30645.7 lineto
27013.7 30701.9 lineto
27126.1 30758.2 lineto
stroke
newpath
28026 29689.5 moveto
28082.3 29633.3 lineto
28026 29577.1 lineto
27969.8 29633.3 lineto
28026 29689.5 lineto
28026 29577.1 lineto
stroke
newpath
28757.2 30252 moveto
28644.7 30308.2 lineto
28588.5 30364.5 lineto
28532.2 30476.9 lineto
28532.2 30533.2 lineto
28588.5 30645.7 lineto
28644.7 30701.9 lineto
28757.2 30758.2 lineto
28982.2 30758.2 lineto
29094.7 30701.9 lineto
29150.9 30645.7 lineto
29207.1 30533.2 lineto
29207.1 30476.9 lineto
29150.9 30364.5 lineto
29094.7 30308.2 lineto
28982.2 30252 lineto
28757.2 30252 lineto
28644.7 30195.7 lineto
28588.5 30139.5 lineto
28532.2 30027 lineto
28532.2 29802 lineto
28588.5 29689.5 lineto
28644.7 29633.3 lineto
28757.2 29577.1 lineto
28982.2 29577.1 lineto
29094.7 29633.3 lineto
29150.9 29689.5 lineto
29207.1 29802 lineto
29207.1 30027 lineto
29150.9 30139.5 lineto
29094.7 30195.7 lineto
28982.2 30252 lineto
stroke
newpath
29938.3 30758.2 moveto
30050.8 30758.2 lineto
30163.3 30701.9 lineto
30219.5 30645.7 lineto
30275.8 30533.2 lineto
30332 30308.2 lineto
30332 30027 lineto
30275.8 29802 lineto
30219.5 29689.5 lineto
30163.3 29633.3 lineto
30050.8 29577.1 lineto
29938.3 29577.1 lineto
29825.8 29633.3 lineto
29769.6 29689.5 lineto
29713.3 29802 lineto
29657.1 30027 lineto
29657.1 30308.2 lineto
29713.3 30533.2 lineto
29769.6 30645.7 lineto
29825.8 30701.9 lineto
29938.3 30758.2 lineto
stroke
newpath
30838.2 29577.1 moveto
30838.2 30364.5 lineto
stroke
newpath
30838.2 30252 moveto
30894.4 30308.2 lineto
31006.9 30364.5 lineto
31175.6 30364.5 lineto
31288.1 30308.2 lineto
31344.4 30195.7 lineto
31344.4 29577.1 lineto
stroke
newpath
31344.4 30195.7 moveto
31400.6 30308.2 lineto
31513.1 30364.5 lineto
31681.8 30364.5 lineto
31794.3 30308.2 lineto
31850.6 30195.7 lineto
31850.6 29577.1 lineto
stroke
newpath
32413 29577.1 moveto
32413 30364.5 lineto
stroke
newpath
32413 30252 moveto
32469.2 30308.2 lineto
32581.7 30364.5 lineto
32750.4 30364.5 lineto
32862.9 30308.2 lineto
32919.2 30195.7 lineto
32919.2 29577.1 lineto
stroke
newpath
32919.2 30195.7 moveto
32975.4 30308.2 lineto
33087.9 30364.5 lineto
33256.6 30364.5 lineto
33369.1 30308.2 lineto
33425.4 30195.7 lineto
33425.4 29577.1 lineto
stroke
newpath
35731.3 30814.4 moveto
34718.9 29295.8 lineto
stroke
newpath
37249.9 30758.2 moveto
37362.4 30758.2 lineto
37474.9 30701.9 lineto
37531.1 30645.7 lineto
37587.3 30533.2 lineto
37643.6 30308.2 lineto
37643.6 30027 lineto
37587.3 29802 lineto
37531.1 29689.5 lineto
37474.9 29633.3 lineto
37362.4 29577.1 lineto
37249.9 29577.1 lineto
37137.4 29633.3 lineto
37081.2 29689.5 lineto
37024.9 29802 lineto
36968.7 30027 lineto
36968.7 30308.2 lineto
37024.9 30533.2 lineto
37081.2 30645.7 lineto
37137.4 30701.9 lineto
37249.9 30758.2 lineto
stroke
newpath
38149.8 29689.5 moveto
38206 29633.3 lineto
38149.8 29577.1 lineto
38093.5 29633.3 lineto
38149.8 29689.5 lineto
38149.8 29577.1 lineto
stroke
newpath
38937.2 30758.2 moveto
39049.7 30758.2 lineto
39162.1 30701.9 lineto
39218.4 30645.7 lineto
39274.6 30533.2 lineto
39330.9 30308.2 lineto
39330.9 30027 lineto
39274.6 29802 lineto
39218.4 29689.5 lineto
39162.1 29633.3 lineto
39049.7 29577.1 lineto
38937.2 29577.1 lineto
38824.7 29633.3 lineto
38768.4 29689.5 lineto
38712.2 29802 lineto
38656 30027 lineto
38656 30308.2 lineto
38712.2 30533.2 lineto
38768.4 30645.7 lineto
38824.7 30701.9 lineto
38937.2 30758.2 lineto
stroke
newpath
39724.6 30758.2 moveto
40455.7 30758.2 lineto
40062 30308.2 lineto
40230.8 30308.2 lineto
40343.2 30252 lineto
40399.5 30195.7 lineto
40455.7 30083.2 lineto
40455.7 29802 lineto
40399.5 29689.5 lineto
40343.2 29633.3 lineto
40230.8 29577.1 lineto
39893.3 29577.1 lineto
39780.8 29633.3 lineto
39724.6 29689.5 lineto
stroke
newpath
41580.6 29577.1 moveto
40905.7 29577.1 lineto
stroke
newpath
41243.1 29577.1 moveto
41243.1 30758.2 lineto
41130.6 30589.4 lineto
41018.2 30476.9 lineto
40905.7 30420.7 lineto
stroke
newpath
42030.5 30758.2 moveto
42030.5 30533.2 lineto
stroke
newpath
42480.5 30758.2 moveto
42480.5 30533.2 lineto
stroke
newpath
44224 29127.1 moveto
44167.8 29183.4 lineto
44055.3 29352.1 lineto
43999 29464.6 lineto
43942.8 29633.3 lineto
43886.6 29914.5 lineto
43886.6 30139.5 lineto
43942.8 30420.7 lineto
43999 30589.4 lineto
44055.3 30701.9 lineto
44167.8 30870.7 lineto
44224 30926.9 lineto
stroke
newpath
45292.6 29577.1 moveto
44617.7 29577.1 lineto
stroke
newpath
44955.2 29577.1 moveto
44955.2 30758.2 lineto
44842.7 30589.4 lineto
44730.2 30476.9 lineto
44617.7 30420.7 lineto
stroke
newpath
46023.8 30758.2 moveto
46136.3 30758.2 lineto
46248.8 30701.9 lineto
46305 30645.7 lineto
46361.2 30533.2 lineto
46417.5 30308.2 lineto
46417.5 30027 lineto
46361.2 29802 lineto
46305 29689.5 lineto
46248.8 29633.3 lineto
46136.3 29577.1 lineto
46023.8 29577.1 lineto
45911.3 29633.3 lineto
45855.1 29689.5 lineto
45798.8 29802 lineto
45742.6 30027 lineto
45742.6 30308.2 lineto
45798.8 30533.2 lineto
45855.1 30645.7 lineto
45911.3 30701.9 lineto
46023.8 30758.2 lineto
stroke
newpath
47148.6 30758.2 moveto
47261.1 30758.2 lineto
47373.6 30701.9 lineto
47429.9 30645.7 lineto
47486.1 30533.2 lineto
47542.3 30308.2 lineto
47542.3 30027 lineto
47486.1 29802 lineto
47429.9 29689.5 lineto
47373.6 29633.3 lineto
47261.1 29577.1 lineto
47148.6 29577.1 lineto
47036.2 29633.3 lineto
46979.9 29689.5 lineto
46923.7 29802 lineto
46867.4 30027 lineto
46867.4 30308.2 lineto
46923.7 30533.2 lineto
46979.9 30645.7 lineto
47036.2 30701.9 lineto
47148.6 30758.2 lineto
stroke
newpath
48948.4 29577.1 moveto
48948.4 30758.2 lineto
stroke
newpath
49454.6 29577.1 moveto
49454.6 30195.7 lineto
49398.4 30308.2 lineto
49285.9 30364.5 lineto
49117.1 30364.5 lineto
49004.7 30308.2 lineto
48948.4 30252 lineto
stroke
newpath
50185.8 29577.1 moveto
50073.3 29633.3 lineto
50017 29689.5 lineto
49960.8 29802 lineto
49960.8 30139.5 lineto
50017 30252 lineto
50073.3 30308.2 lineto
50185.8 30364.5 lineto
50354.5 30364.5 lineto
50467 30308.2 lineto
50523.2 30252 lineto
50579.5 30139.5 lineto
50579.5 29802 lineto
50523.2 29689.5 lineto
50467 29633.3 lineto
50354.5 29577.1 lineto
50185.8 29577.1 lineto
stroke
newpath
51254.4 29577.1 moveto
51141.9 29633.3 lineto
51085.6 29745.8 lineto
51085.6 30758.2 lineto
stroke
newpath
52154.3 29633.3 moveto
52041.8 29577.1 lineto
51816.8 29577.1 lineto
51704.3 29633.3 lineto
51648.1 29745.8 lineto
51648.1 30195.7 lineto
51704.3 30308.2 lineto
51816.8 30364.5 lineto
52041.8 30364.5 lineto
52154.3 30308.2 lineto
52210.5 30195.7 lineto
52210.5 30083.2 lineto
51648.1 29970.8 lineto
stroke
newpath
52660.5 29633.3 moveto
52772.9 29577.1 lineto
52997.9 29577.1 lineto
53110.4 29633.3 lineto
53166.6 29745.8 lineto
53166.6 29802 lineto
53110.4 29914.5 lineto
52997.9 29970.8 lineto
52829.2 29970.8 lineto
52716.7 30027 lineto
52660.5 30139.5 lineto
52660.5 30195.7 lineto
52716.7 30308.2 lineto
52829.2 30364.5 lineto
52997.9 30364.5 lineto
53110.4 30308.2 lineto
stroke
newpath
53560.3 29127.1 moveto
53616.6 29183.4 lineto
53729.1 29352.1 lineto
53785.3 29464.6 lineto
53841.6 29633.3 lineto
53897.8 29914.5 lineto
53897.8 30139.5 lineto
53841.6 30420.7 lineto
53785.3 30589.4 lineto
53729.1 30701.9 lineto
53616.6 30870.7 lineto
53560.3 30926.9 lineto
stroke
newpath
25675.3 28315.3 moveto
25675.3 28789.3 lineto
25201.3 28789.3 lineto
25201.3 28315.3 lineto
25675.3 28315.3 lineto
poly0
0 0 0 setrgbcolor
0 0 0 setrgbcolor
newpath
27126.1 29199.1 moveto
27238.6 29199.1 lineto
27351.1 29142.9 lineto
27407.4 29086.6 lineto
27463.6 28974.1 lineto
27519.8 28749.2 lineto
27519.8 28468 lineto
27463.6 28243 lineto
27407.4 28130.5 lineto
27351.1 28074.3 lineto
27238.6 28018 lineto
27126.1 28018 lineto
27013.7 28074.3 lineto
26957.4 28130.5 lineto
26901.2 28243 lineto
26844.9 28468 lineto
26844.9 28749.2 lineto
26901.2 28974.1 lineto
26957.4 29086.6 lineto
27013.7 29142.9 lineto
27126.1 29199.1 lineto
stroke
newpath
28026 28130.5 moveto
28082.3 28074.3 lineto
28026 28018 lineto
27969.8 28074.3 lineto
28026 28130.5 lineto
28026 28018 lineto
stroke
newpath
28644.7 28018 moveto
28869.7 28018 lineto
28982.2 28074.3 lineto
29038.4 28130.5 lineto
29150.9 28299.2 lineto
29207.1 28524.2 lineto
29207.1 28974.1 lineto
29150.9 29086.6 lineto
29094.7 29142.9 lineto
28982.2 29199.1 lineto
28757.2 29199.1 lineto
28644.7 29142.9 lineto
28588.5 29086.6 lineto
28532.2 28974.1 lineto
28532.2 28692.9 lineto
28588.5 28580.4 lineto
28644.7 28524.2 lineto
28757.2 28468 lineto
28982.2 28468 lineto
29094.7 28524.2 lineto
29150.9 28580.4 lineto
29207.1 28692.9 lineto
stroke
newpath
29938.3 29199.1 moveto
30050.8 29199.1 lineto
30163.3 29142.9 lineto
30219.5 29086.6 lineto
30275.8 28974.1 lineto
30332 28749.2 lineto
30332 28468 lineto
30275.8 28243 lineto
30219.5 28130.5 lineto
30163.3 28074.3 lineto
30050.8 28018 lineto
29938.3 28018 lineto
29825.8 28074.3 lineto
29769.6 28130.5 lineto
29713.3 28243 lineto
29657.1 28468 lineto
29657.1 28749.2 lineto
29713.3 28974.1 lineto
29769.6 29086.6 lineto
29825.8 29142.9 lineto
29938.3 29199.1 lineto
stroke
newpath
30838.2 28018 moveto
30838.2 28805.4 lineto
stroke
newpath
30838.2 28692.9 moveto
30894.4 28749.2 lineto
31006.9 28805.4 lineto
31175.6 28805.4 lineto
31288.1 28749.2 lineto
31344.4 28636.7 lineto
31344.4 28018 lineto
stroke
newpath
31344.4 28636.7 moveto
31400.6 28749.2 lineto
31513.1 28805.4 lineto
31681.8 28805.4 lineto
31794.3 28749.2 lineto
31850.6 28636.7 lineto
31850.6 28018 lineto
stroke
newpath
32413 28018 moveto
32413 28805.4 lineto
stroke
newpath
32413 28692.9 moveto
32469.2 28749.2 lineto
32581.7 28805.4 lineto
32750.4 28805.4 lineto
32862.9 28749.2 lineto
32919.2 28636.7 lineto
32919.2 28018 lineto
stroke
newpath
32919.2 28636.7 moveto
32975.4 28749.2 lineto
33087.9 28805.4 lineto
33256.6 28805.4 lineto
33369.1 28749.2 lineto
33425.4 28636.7 lineto
33425.4 28018 lineto
stroke
newpath
35731.3 29255.4 moveto
34718.9 27736.8 lineto
stroke
newpath
37249.9 29199.1 moveto
37362.4 29199.1 lineto
37474.9 29142.9 lineto
37531.1 29086.6 lineto
37587.3 28974.1 lineto
37643.6 28749.2 lineto
37643.6 28468 lineto
37587.3 28243 lineto
37531.1 28130.5 lineto
37474.9 28074.3 lineto
37362.4 28018 lineto
37249.9 28018 lineto
37137.4 28074.3 lineto
37081.2 28130.5 lineto
37024.9 28243 lineto
36968.7 28468 lineto
36968.7 28749.2 lineto
37024.9 28974.1 lineto
37081.2 29086.6 lineto
37137.4 29142.9 lineto
37249.9 29199.1 lineto
stroke
newpath
38149.8 28130.5 moveto
38206 28074.3 lineto
38149.8 28018 lineto
38093.5 28074.3 lineto
38149.8 28130.5 lineto
38149.8 28018 lineto
stroke
newpath
38937.2 29199.1 moveto
39049.7 29199.1 lineto
39162.1 29142.9 lineto
39218.4 29086.6 lineto
39274.6 28974.1 lineto
39330.9 28749.2 lineto
39330.9 28468 lineto
39274.6 28243 lineto
39218.4 28130.5 lineto
39162.1 28074.3 lineto
39049.7 28018 lineto
38937.2 28018 lineto
38824.7 28074.3 lineto
38768.4 28130.5 lineto
38712.2 28243 lineto
38656 28468 lineto
38656 28749.2 lineto
38712.2 28974.1 lineto
38768.4 29086.6 lineto
38824.7 29142.9 lineto
38937.2 29199.1 lineto
stroke
newpath
39724.6 29199.1 moveto
40455.7 29199.1 lineto
40062 28749.2 lineto
40230.8 28749.2 lineto
40343.2 28692.9 lineto
40399.5 28636.7 lineto
40455.7 28524.2 lineto
40455.7 28243 lineto
40399.5 28130.5 lineto
40343.2 28074.3 lineto
40230.8 28018 lineto
39893.3 28018 lineto
39780.8 28074.3 lineto
39724.6 28130.5 lineto
stroke
newpath
41524.3 29199.1 moveto
40961.9 29199.1 lineto
40905.7 28636.7 lineto
40961.9 28692.9 lineto
41074.4 28749.2 lineto
41355.6 28749.2 lineto
41468.1 28692.9 lineto
41524.3 28636.7 lineto
41580.6 28524.2 lineto
41580.6 28243 lineto
41524.3 28130.5 lineto
41468.1 28074.3 lineto
41355.6 28018 lineto
41074.4 28018 lineto
40961.9 28074.3 lineto
40905.7 28130.5 lineto
stroke
newpath
42030.5 29199.1 moveto
42030.5 28974.1 lineto
stroke
newpath
42480.5 29199.1 moveto
42480.5 28974.1 lineto
stroke
newpath
44224 27568.1 moveto
44167.8 27624.3 lineto
44055.3 27793 lineto
43999 27905.5 lineto
43942.8 28074.3 lineto
43886.6 28355.5 lineto
43886.6 28580.4 lineto
43942.8 28861.7 lineto
43999 29030.4 lineto
44055.3 29142.9 lineto
44167.8 29311.6 lineto
44224 29367.8 lineto
stroke
newpath
44617.7 29086.6 moveto
44674 29142.9 lineto
44786.4 29199.1 lineto
45067.7 29199.1 lineto
45180.1 29142.9 lineto
45236.4 29086.6 lineto
45292.6 28974.1 lineto
45292.6 28861.7 lineto
45236.4 28692.9 lineto
44561.5 28018 lineto
45292.6 28018 lineto
stroke
newpath
46698.7 28018 moveto
46698.7 29199.1 lineto
stroke
newpath
47204.9 28018 moveto
47204.9 28636.7 lineto
47148.6 28749.2 lineto
47036.2 28805.4 lineto
46867.4 28805.4 lineto
46754.9 28749.2 lineto
46698.7 28692.9 lineto
stroke
newpath
47936 28018 moveto
47823.6 28074.3 lineto
47767.3 28130.5 lineto
47711.1 28243 lineto
47711.1 28580.4 lineto
47767.3 28692.9 lineto
47823.6 28749.2 lineto
47936 28805.4 lineto
48104.8 28805.4 lineto
48217.3 28749.2 lineto
48273.5 28692.9 lineto
48329.7 28580.4 lineto
48329.7 28243 lineto
48273.5 28130.5 lineto
48217.3 28074.3 lineto
48104.8 28018 lineto
47936 28018 lineto
stroke
newpath
49004.7 28018 moveto
48892.2 28074.3 lineto
48835.9 28186.7 lineto
48835.9 29199.1 lineto
stroke
newpath
49904.5 28074.3 moveto
49792.1 28018 lineto
49567.1 28018 lineto
49454.6 28074.3 lineto
49398.4 28186.7 lineto
49398.4 28636.7 lineto
49454.6 28749.2 lineto
49567.1 28805.4 lineto
49792.1 28805.4 lineto
49904.5 28749.2 lineto
49960.8 28636.7 lineto
49960.8 28524.2 lineto
49398.4 28411.7 lineto
stroke
newpath
50410.7 28074.3 moveto
50523.2 28018 lineto
50748.2 28018 lineto
50860.7 28074.3 lineto
50916.9 28186.7 lineto
50916.9 28243 lineto
50860.7 28355.5 lineto
50748.2 28411.7 lineto
50579.5 28411.7 lineto
50467 28468 lineto
50410.7 28580.4 lineto
50410.7 28636.7 lineto
50467 28749.2 lineto
50579.5 28805.4 lineto
50748.2 28805.4 lineto
50860.7 28749.2 lineto
stroke
newpath
51310.6 27568.1 moveto
51366.9 27624.3 lineto
51479.4 27793 lineto
51535.6 27905.5 lineto
51591.8 28074.3 lineto
51648.1 28355.5 lineto
51648.1 28580.4 lineto
51591.8 28861.7 lineto
51535.6 29030.4 lineto
51479.4 29142.9 lineto
51366.9 29311.6 lineto
51310.6 29367.8 lineto
stroke
newpath
25401.1 26620.8 moveto
25773.5 26993.3 lineto
25401.1 27365.7 lineto
25028.7 26993.3 lineto
25401.1 26620.8 lineto
poly0
0 0 0 setrgbcolor
0 0 0 setrgbcolor
newpath
27519.8 26459 moveto
26844.9 26459 lineto
stroke
newpath
27182.4 26459 moveto
27182.4 27640.1 lineto
27069.9 27471.3 lineto
26957.4 27358.8 lineto
26844.9 27302.6 lineto
stroke
newpath
28026 26571.4 moveto
28082.3 26515.2 lineto
28026 26459 lineto
27969.8 26515.2 lineto
28026 26571.4 lineto
28026 26459 lineto
stroke
newpath
28813.4 27640.1 moveto
28925.9 27640.1 lineto
29038.4 27583.8 lineto
29094.7 27527.6 lineto
29150.9 27415.1 lineto
29207.1 27190.1 lineto
29207.1 26908.9 lineto
29150.9 26683.9 lineto
29094.7 26571.4 lineto
29038.4 26515.2 lineto
28925.9 26459 lineto
28813.4 26459 lineto
28701 26515.2 lineto
28644.7 26571.4 lineto
28588.5 26683.9 lineto
28532.2 26908.9 lineto
28532.2 27190.1 lineto
28588.5 27415.1 lineto
28644.7 27527.6 lineto
28701 27583.8 lineto
28813.4 27640.1 lineto
stroke
newpath
29938.3 27640.1 moveto
30050.8 27640.1 lineto
30163.3 27583.8 lineto
30219.5 27527.6 lineto
30275.8 27415.1 lineto
30332 27190.1 lineto
30332 26908.9 lineto
30275.8 26683.9 lineto
30219.5 26571.4 lineto
30163.3 26515.2 lineto
30050.8 26459 lineto
29938.3 26459 lineto
29825.8 26515.2 lineto
29769.6 26571.4 lineto
29713.3 26683.9 lineto
29657.1 26908.9 lineto
29657.1 27190.1 lineto
29713.3 27415.1 lineto
29769.6 27527.6 lineto
29825.8 27583.8 lineto
29938.3 27640.1 lineto
stroke
newpath
30838.2 26459 moveto
30838.2 27246.4 lineto
stroke
newpath
30838.2 27133.9 moveto
30894.4 27190.1 lineto
31006.9 27246.4 lineto
31175.6 27246.4 lineto
31288.1 27190.1 lineto
31344.4 27077.6 lineto
31344.4 26459 lineto
stroke
newpath
31344.4 27077.6 moveto
31400.6 27190.1 lineto
31513.1 27246.4 lineto
31681.8 27246.4 lineto
31794.3 27190.1 lineto
31850.6 27077.6 lineto
31850.6 26459 lineto
stroke
newpath
32413 26459 moveto
32413 27246.4 lineto
stroke
newpath
32413 27133.9 moveto
32469.2 27190.1 lineto
32581.7 27246.4 lineto
32750.4 27246.4 lineto
32862.9 27190.1 lineto
32919.2 27077.6 lineto
32919.2 26459 lineto
stroke
newpath
32919.2 27077.6 moveto
32975.4 27190.1 lineto
33087.9 27246.4 lineto
33256.6 27246.4 lineto
33369.1 27190.1 lineto
33425.4 27077.6 lineto
33425.4 26459 lineto
stroke
newpath
35731.3 27696.3 moveto
34718.9 26177.7 lineto
stroke
newpath
37249.9 27640.1 moveto
37362.4 27640.1 lineto
37474.9 27583.8 lineto
37531.1 27527.6 lineto
37587.3 27415.1 lineto
37643.6 27190.1 lineto
37643.6 26908.9 lineto
37587.3 26683.9 lineto
37531.1 26571.4 lineto
37474.9 26515.2 lineto
37362.4 26459 lineto
37249.9 26459 lineto
37137.4 26515.2 lineto
37081.2 26571.4 lineto
37024.9 26683.9 lineto
36968.7 26908.9 lineto
36968.7 27190.1 lineto
37024.9 27415.1 lineto
37081.2 27527.6 lineto
37137.4 27583.8 lineto
37249.9 27640.1 lineto
stroke
newpath
38149.8 26571.4 moveto
38206 26515.2 lineto
38149.8 26459 lineto
38093.5 26515.2 lineto
38149.8 26571.4 lineto
38149.8 26459 lineto
stroke
newpath
38937.2 27640.1 moveto
39049.7 27640.1 lineto
39162.1 27583.8 lineto
39218.4 27527.6 lineto
39274.6 27415.1 lineto
39330.9 27190.1 lineto
39330.9 26908.9 lineto
39274.6 26683.9 lineto
39218.4 26571.4 lineto
39162.1 26515.2 lineto
39049.7 26459 lineto
38937.2 26459 lineto
38824.7 26515.2 lineto
38768.4 26571.4 lineto
38712.2 26683.9 lineto
38656 26908.9 lineto
38656 27190.1 lineto
38712.2 27415.1 lineto
38768.4 27527.6 lineto
38824.7 27583.8 lineto
38937.2 27640.1 lineto
stroke
newpath
39724.6 27640.1 moveto
40455.7 27640.1 lineto
40062 27190.1 lineto
40230.8 27190.1 lineto
40343.2 27133.9 lineto
40399.5 27077.6 lineto
40455.7 26965.1 lineto
40455.7 26683.9 lineto
40399.5 26571.4 lineto
40343.2 26515.2 lineto
40230.8 26459 lineto
39893.3 26459 lineto
39780.8 26515.2 lineto
39724.6 26571.4 lineto
stroke
newpath
41018.2 26459 moveto
41243.1 26459 lineto
41355.6 26515.2 lineto
41411.9 26571.4 lineto
41524.3 26740.2 lineto
41580.6 26965.1 lineto
41580.6 27415.1 lineto
41524.3 27527.6 lineto
41468.1 27583.8 lineto
41355.6 27640.1 lineto
41130.6 27640.1 lineto
41018.2 27583.8 lineto
40961.9 27527.6 lineto
40905.7 27415.1 lineto
40905.7 27133.9 lineto
40961.9 27021.4 lineto
41018.2 26965.1 lineto
41130.6 26908.9 lineto
41355.6 26908.9 lineto
41468.1 26965.1 lineto
41524.3 27021.4 lineto
41580.6 27133.9 lineto
stroke
newpath
42030.5 27640.1 moveto
42030.5 27415.1 lineto
stroke
newpath
42480.5 27640.1 moveto
42480.5 27415.1 lineto
stroke
newpath
44224 26009 moveto
44167.8 26065.3 lineto
44055.3 26234 lineto
43999 26346.5 lineto
43942.8 26515.2 lineto
43886.6 26796.4 lineto
43886.6 27021.4 lineto
43942.8 27302.6 lineto
43999 27471.3 lineto
44055.3 27583.8 lineto
44167.8 27752.5 lineto
44224 27808.8 lineto
stroke
newpath
44617.7 27527.6 moveto
44674 27583.8 lineto
44786.4 27640.1 lineto
45067.7 27640.1 lineto
45180.1 27583.8 lineto
45236.4 27527.6 lineto
45292.6 27415.1 lineto
45292.6 27302.6 lineto
45236.4 27133.9 lineto
44561.5 26459 lineto
45292.6 26459 lineto
stroke
newpath
45686.3 27640.1 moveto
46417.5 27640.1 lineto
46023.8 27190.1 lineto
46192.5 27190.1 lineto
46305 27133.9 lineto
46361.2 27077.6 lineto
46417.5 26965.1 lineto
46417.5 26683.9 lineto
46361.2 26571.4 lineto
46305 26515.2 lineto
46192.5 26459 lineto
45855.1 26459 lineto
45742.6 26515.2 lineto
45686.3 26571.4 lineto
stroke
newpath
47823.6 26459 moveto
47823.6 27640.1 lineto
stroke
newpath
48329.7 26459 moveto
48329.7 27077.6 lineto
48273.5 27190.1 lineto
48161 27246.4 lineto
47992.3 27246.4 lineto
47879.8 27190.1 lineto
47823.6 27133.9 lineto
stroke
newpath
49060.9 26459 moveto
48948.4 26515.2 lineto
48892.2 26571.4 lineto
48835.9 26683.9 lineto
48835.9 27021.4 lineto
48892.2 27133.9 lineto
48948.4 27190.1 lineto
49060.9 27246.4 lineto
49229.6 27246.4 lineto
49342.1 27190.1 lineto
49398.4 27133.9 lineto
49454.6 27021.4 lineto
49454.6 26683.9 lineto
49398.4 26571.4 lineto
49342.1 26515.2 lineto
49229.6 26459 lineto
49060.9 26459 lineto
stroke
newpath
50129.5 26459 moveto
50017 26515.2 lineto
49960.8 26627.7 lineto
49960.8 27640.1 lineto
stroke
newpath
51029.4 26515.2 moveto
50916.9 26459 lineto
50691.9 26459 lineto
50579.5 26515.2 lineto
50523.2 26627.7 lineto
50523.2 27077.6 lineto
50579.5 27190.1 lineto
50691.9 27246.4 lineto
50916.9 27246.4 lineto
51029.4 27190.1 lineto
51085.6 27077.6 lineto
51085.6 26965.1 lineto
50523.2 26852.7 lineto
stroke
newpath
51535.6 26515.2 moveto
51648.1 26459 lineto
51873.1 26459 lineto
51985.5 26515.2 lineto
52041.8 26627.7 lineto
52041.8 26683.9 lineto
51985.5 26796.4 lineto
51873.1 26852.7 lineto
51704.3 26852.7 lineto
51591.8 26908.9 lineto
51535.6 27021.4 lineto
51535.6 27077.6 lineto
51591.8 27190.1 lineto
51704.3 27246.4 lineto
51873.1 27246.4 lineto
51985.5 27190.1 lineto
stroke
newpath
52435.5 26009 moveto
52491.7 26065.3 lineto
52604.2 26234 lineto
52660.5 26346.5 lineto
52716.7 26515.2 lineto
52772.9 26796.4 lineto
52772.9 27021.4 lineto
52716.7 27302.6 lineto
52660.5 27471.3 lineto
52604.2 27583.8 lineto
52491.7 27752.5 lineto
52435.5 27808.8 lineto
stroke
newpath
25016.7 25812.6 moveto
25773.5 25055.8 lineto
stroke
newpath
25773.5 25812.6 moveto
25016.7 25055.8 lineto
stroke
25395.1 25434.2 378.384 cir0
0 0 0 setrgbcolor
0 0 0 setrgbcolor
newpath
27519.8 24899.9 moveto
26844.9 24899.9 lineto
stroke
newpath
27182.4 24899.9 moveto
27182.4 26081 lineto
27069.9 25912.3 lineto
26957.4 25799.8 lineto
26844.9 25743.5 lineto
stroke
newpath
28026 25012.4 moveto
28082.3 24956.1 lineto
28026 24899.9 lineto
27969.8 24956.1 lineto
28026 25012.4 lineto
28026 24899.9 lineto
stroke
newpath
28813.4 26081 moveto
28925.9 26081 lineto
29038.4 26024.8 lineto
29094.7 25968.5 lineto
29150.9 25856 lineto
29207.1 25631.1 lineto
29207.1 25349.8 lineto
29150.9 25124.9 lineto
29094.7 25012.4 lineto
29038.4 24956.1 lineto
28925.9 24899.9 lineto
28813.4 24899.9 lineto
28701 24956.1 lineto
28644.7 25012.4 lineto
28588.5 25124.9 lineto
28532.2 25349.8 lineto
28532.2 25631.1 lineto
28588.5 25856 lineto
28644.7 25968.5 lineto
28701 26024.8 lineto
28813.4 26081 lineto
stroke
newpath
29657.1 25968.5 moveto
29713.3 26024.8 lineto
29825.8 26081 lineto
30107 26081 lineto
30219.5 26024.8 lineto
30275.8 25968.5 lineto
30332 25856 lineto
30332 25743.5 lineto
30275.8 25574.8 lineto
29600.8 24899.9 lineto
30332 24899.9 lineto
stroke
newpath
30838.2 24899.9 moveto
30838.2 25687.3 lineto
stroke
newpath
30838.2 25574.8 moveto
30894.4 25631.1 lineto
31006.9 25687.3 lineto
31175.6 25687.3 lineto
31288.1 25631.1 lineto
31344.4 25518.6 lineto
31344.4 24899.9 lineto
stroke
newpath
31344.4 25518.6 moveto
31400.6 25631.1 lineto
31513.1 25687.3 lineto
31681.8 25687.3 lineto
31794.3 25631.1 lineto
31850.6 25518.6 lineto
31850.6 24899.9 lineto
stroke
newpath
32413 24899.9 moveto
32413 25687.3 lineto
stroke
newpath
32413 25574.8 moveto
32469.2 25631.1 lineto
32581.7 25687.3 lineto
32750.4 25687.3 lineto
32862.9 25631.1 lineto
32919.2 25518.6 lineto
32919.2 24899.9 lineto
stroke
newpath
32919.2 25518.6 moveto
32975.4 25631.1 lineto
33087.9 25687.3 lineto
33256.6 25687.3 lineto
33369.1 25631.1 lineto
33425.4 25518.6 lineto
33425.4 24899.9 lineto
stroke
newpath
35731.3 26137.2 moveto
34718.9 24618.7 lineto
stroke
newpath
37249.9 26081 moveto
37362.4 26081 lineto
37474.9 26024.8 lineto
37531.1 25968.5 lineto
37587.3 25856 lineto
37643.6 25631.1 lineto
37643.6 25349.8 lineto
37587.3 25124.9 lineto
37531.1 25012.4 lineto
37474.9 24956.1 lineto
37362.4 24899.9 lineto
37249.9 24899.9 lineto
37137.4 24956.1 lineto
37081.2 25012.4 lineto
37024.9 25124.9 lineto
36968.7 25349.8 lineto
36968.7 25631.1 lineto
37024.9 25856 lineto
37081.2 25968.5 lineto
37137.4 26024.8 lineto
37249.9 26081 lineto
stroke
newpath
38149.8 25012.4 moveto
38206 24956.1 lineto
38149.8 24899.9 lineto
38093.5 24956.1 lineto
38149.8 25012.4 lineto
38149.8 24899.9 lineto
stroke
newpath
38937.2 26081 moveto
39049.7 26081 lineto
39162.1 26024.8 lineto
39218.4 25968.5 lineto
39274.6 25856 lineto
39330.9 25631.1 lineto
39330.9 25349.8 lineto
39274.6 25124.9 lineto
39218.4 25012.4 lineto
39162.1 24956.1 lineto
39049.7 24899.9 lineto
38937.2 24899.9 lineto
38824.7 24956.1 lineto
38768.4 25012.4 lineto
38712.2 25124.9 lineto
38656 25349.8 lineto
38656 25631.1 lineto
38712.2 25856 lineto
38768.4 25968.5 lineto
38824.7 26024.8 lineto
38937.2 26081 lineto
stroke
newpath
40343.2 25687.3 moveto
40343.2 24899.9 lineto
stroke
newpath
40062 26137.2 moveto
39780.8 25293.6 lineto
40512 25293.6 lineto
stroke
newpath
41186.9 26081 moveto
41299.4 26081 lineto
41411.9 26024.8 lineto
41468.1 25968.5 lineto
41524.3 25856 lineto
41580.6 25631.1 lineto
41580.6 25349.8 lineto
41524.3 25124.9 lineto
41468.1 25012.4 lineto
41411.9 24956.1 lineto
41299.4 24899.9 lineto
41186.9 24899.9 lineto
41074.4 24956.1 lineto
41018.2 25012.4 lineto
40961.9 25124.9 lineto
40905.7 25349.8 lineto
40905.7 25631.1 lineto
40961.9 25856 lineto
41018.2 25968.5 lineto
41074.4 26024.8 lineto
41186.9 26081 lineto
stroke
newpath
42030.5 26081 moveto
42030.5 25856 lineto
stroke
newpath
42480.5 26081 moveto
42480.5 25856 lineto
stroke
newpath
44224 24450 moveto
44167.8 24506.2 lineto
44055.3 24674.9 lineto
43999 24787.4 lineto
43942.8 24956.1 lineto
43886.6 25237.4 lineto
43886.6 25462.3 lineto
43942.8 25743.5 lineto
43999 25912.3 lineto
44055.3 26024.8 lineto
44167.8 26193.5 lineto
44224 26249.7 lineto
stroke
newpath
45292.6 24899.9 moveto
44617.7 24899.9 lineto
stroke
newpath
44955.2 24899.9 moveto
44955.2 26081 lineto
44842.7 25912.3 lineto
44730.2 25799.8 lineto
44617.7 25743.5 lineto
stroke
newpath
46305 26081 moveto
46080 26081 lineto
45967.5 26024.8 lineto
45911.3 25968.5 lineto
45798.8 25799.8 lineto
45742.6 25574.8 lineto
45742.6 25124.9 lineto
45798.8 25012.4 lineto
45855.1 24956.1 lineto
45967.5 24899.9 lineto
46192.5 24899.9 lineto
46305 24956.1 lineto
46361.2 25012.4 lineto
46417.5 25124.9 lineto
46417.5 25406.1 lineto
46361.2 25518.6 lineto
46305 25574.8 lineto
46192.5 25631.1 lineto
45967.5 25631.1 lineto
45855.1 25574.8 lineto
45798.8 25518.6 lineto
45742.6 25406.1 lineto
stroke
newpath
47823.6 24899.9 moveto
47823.6 26081 lineto
stroke
newpath
48329.7 24899.9 moveto
48329.7 25518.6 lineto
48273.5 25631.1 lineto
48161 25687.3 lineto
47992.3 25687.3 lineto
47879.8 25631.1 lineto
47823.6 25574.8 lineto
stroke
newpath
49060.9 24899.9 moveto
48948.4 24956.1 lineto
48892.2 25012.4 lineto
48835.9 25124.9 lineto
48835.9 25462.3 lineto
48892.2 25574.8 lineto
48948.4 25631.1 lineto
49060.9 25687.3 lineto
49229.6 25687.3 lineto
49342.1 25631.1 lineto
49398.4 25574.8 lineto
49454.6 25462.3 lineto
49454.6 25124.9 lineto
49398.4 25012.4 lineto
49342.1 24956.1 lineto
49229.6 24899.9 lineto
49060.9 24899.9 lineto
stroke
newpath
50129.5 24899.9 moveto
50017 24956.1 lineto
49960.8 25068.6 lineto
49960.8 26081 lineto
stroke
newpath
51029.4 24956.1 moveto
50916.9 24899.9 lineto
50691.9 24899.9 lineto
50579.5 24956.1 lineto
50523.2 25068.6 lineto
50523.2 25518.6 lineto
50579.5 25631.1 lineto
50691.9 25687.3 lineto
50916.9 25687.3 lineto
51029.4 25631.1 lineto
51085.6 25518.6 lineto
51085.6 25406.1 lineto
50523.2 25293.6 lineto
stroke
newpath
51535.6 24956.1 moveto
51648.1 24899.9 lineto
51873.1 24899.9 lineto
51985.5 24956.1 lineto
52041.8 25068.6 lineto
52041.8 25124.9 lineto
51985.5 25237.4 lineto
51873.1 25293.6 lineto
51704.3 25293.6 lineto
51591.8 25349.8 lineto
51535.6 25462.3 lineto
51535.6 25518.6 lineto
51591.8 25631.1 lineto
51704.3 25687.3 lineto
51873.1 25687.3 lineto
51985.5 25631.1 lineto
stroke
newpath
52435.5 24450 moveto
52491.7 24506.2 lineto
52604.2 24674.9 lineto
52660.5 24787.4 lineto
52716.7 24956.1 lineto
52772.9 25237.4 lineto
52772.9 25462.3 lineto
52716.7 25743.5 lineto
52660.5 25912.3 lineto
52604.2 26024.8 lineto
52491.7 26193.5 lineto
52435.5 26249.7 lineto
stroke
newpath
24954.2 24284.8 moveto
25773.5 23465.5 lineto
stroke
newpath
25773.5 24284.8 moveto
24954.2 23465.5 lineto
stroke
newpath
25363.8 24284.8 moveto
25363.8 23465.5 lineto
stroke
newpath
24954.2 23875.1 moveto
25773.5 23875.1 lineto
stroke
0 0 0 setrgbcolor
0 0 0 setrgbcolor
newpath
27519.8 23340.8 moveto
26844.9 23340.8 lineto
stroke
newpath
27182.4 23340.8 moveto
27182.4 24521.9 lineto
27069.9 24353.2 lineto
26957.4 24240.7 lineto
26844.9 24184.5 lineto
stroke
newpath
28026 23453.3 moveto
28082.3 23397.1 lineto
28026 23340.8 lineto
27969.8 23397.1 lineto
28026 23453.3 lineto
28026 23340.8 lineto
stroke
newpath
29207.1 23340.8 moveto
28532.2 23340.8 lineto
stroke
newpath
28869.7 23340.8 moveto
28869.7 24521.9 lineto
28757.2 24353.2 lineto
28644.7 24240.7 lineto
28532.2 24184.5 lineto
stroke
newpath
29938.3 24521.9 moveto
30050.8 24521.9 lineto
30163.3 24465.7 lineto
30219.5 24409.5 lineto
30275.8 24297 lineto
30332 24072 lineto
30332 23790.8 lineto
30275.8 23565.8 lineto
30219.5 23453.3 lineto
30163.3 23397.1 lineto
30050.8 23340.8 lineto
29938.3 23340.8 lineto
29825.8 23397.1 lineto
29769.6 23453.3 lineto
29713.3 23565.8 lineto
29657.1 23790.8 lineto
29657.1 24072 lineto
29713.3 24297 lineto
29769.6 24409.5 lineto
29825.8 24465.7 lineto
29938.3 24521.9 lineto
stroke
newpath
30838.2 23340.8 moveto
30838.2 24128.2 lineto
stroke
newpath
30838.2 24015.8 moveto
30894.4 24072 lineto
31006.9 24128.2 lineto
31175.6 24128.2 lineto
31288.1 24072 lineto
31344.4 23959.5 lineto
31344.4 23340.8 lineto
stroke
newpath
31344.4 23959.5 moveto
31400.6 24072 lineto
31513.1 24128.2 lineto
31681.8 24128.2 lineto
31794.3 24072 lineto
31850.6 23959.5 lineto
31850.6 23340.8 lineto
stroke
newpath
32413 23340.8 moveto
32413 24128.2 lineto
stroke
newpath
32413 24015.8 moveto
32469.2 24072 lineto
32581.7 24128.2 lineto
32750.4 24128.2 lineto
32862.9 24072 lineto
32919.2 23959.5 lineto
32919.2 23340.8 lineto
stroke
newpath
32919.2 23959.5 moveto
32975.4 24072 lineto
33087.9 24128.2 lineto
33256.6 24128.2 lineto
33369.1 24072 lineto
33425.4 23959.5 lineto
33425.4 23340.8 lineto
stroke
newpath
35731.3 24578.2 moveto
34718.9 23059.6 lineto
stroke
newpath
37249.9 24521.9 moveto
37362.4 24521.9 lineto
37474.9 24465.7 lineto
37531.1 24409.5 lineto
37587.3 24297 lineto
37643.6 24072 lineto
37643.6 23790.8 lineto
37587.3 23565.8 lineto
37531.1 23453.3 lineto
37474.9 23397.1 lineto
37362.4 23340.8 lineto
37249.9 23340.8 lineto
37137.4 23397.1 lineto
37081.2 23453.3 lineto
37024.9 23565.8 lineto
36968.7 23790.8 lineto
36968.7 24072 lineto
37024.9 24297 lineto
37081.2 24409.5 lineto
37137.4 24465.7 lineto
37249.9 24521.9 lineto
stroke
newpath
38149.8 23453.3 moveto
38206 23397.1 lineto
38149.8 23340.8 lineto
38093.5 23397.1 lineto
38149.8 23453.3 lineto
38149.8 23340.8 lineto
stroke
newpath
38937.2 24521.9 moveto
39049.7 24521.9 lineto
39162.1 24465.7 lineto
39218.4 24409.5 lineto
39274.6 24297 lineto
39330.9 24072 lineto
39330.9 23790.8 lineto
39274.6 23565.8 lineto
39218.4 23453.3 lineto
39162.1 23397.1 lineto
39049.7 23340.8 lineto
38937.2 23340.8 lineto
38824.7 23397.1 lineto
38768.4 23453.3 lineto
38712.2 23565.8 lineto
38656 23790.8 lineto
38656 24072 lineto
38712.2 24297 lineto
38768.4 24409.5 lineto
38824.7 24465.7 lineto
38937.2 24521.9 lineto
stroke
newpath
40343.2 24128.2 moveto
40343.2 23340.8 lineto
stroke
newpath
40062 24578.2 moveto
39780.8 23734.5 lineto
40512 23734.5 lineto
stroke
newpath
40849.4 24521.9 moveto
41580.6 24521.9 lineto
41186.9 24072 lineto
41355.6 24072 lineto
41468.1 24015.8 lineto
41524.3 23959.5 lineto
41580.6 23847 lineto
41580.6 23565.8 lineto
41524.3 23453.3 lineto
41468.1 23397.1 lineto
41355.6 23340.8 lineto
41018.2 23340.8 lineto
40905.7 23397.1 lineto
40849.4 23453.3 lineto
stroke
newpath
42030.5 24521.9 moveto
42030.5 24297 lineto
stroke
newpath
42480.5 24521.9 moveto
42480.5 24297 lineto
stroke
newpath
44224 22890.9 moveto
44167.8 22947.1 lineto
44055.3 23115.9 lineto
43999 23228.4 lineto
43942.8 23397.1 lineto
43886.6 23678.3 lineto
43886.6 23903.3 lineto
43942.8 24184.5 lineto
43999 24353.2 lineto
44055.3 24465.7 lineto
44167.8 24634.4 lineto
44224 24690.7 lineto
stroke
newpath
45180.1 24521.9 moveto
44955.2 24521.9 lineto
44842.7 24465.7 lineto
44786.4 24409.5 lineto
44674 24240.7 lineto
44617.7 24015.8 lineto
44617.7 23565.8 lineto
44674 23453.3 lineto
44730.2 23397.1 lineto
44842.7 23340.8 lineto
45067.7 23340.8 lineto
45180.1 23397.1 lineto
45236.4 23453.3 lineto
45292.6 23565.8 lineto
45292.6 23847 lineto
45236.4 23959.5 lineto
45180.1 24015.8 lineto
45067.7 24072 lineto
44842.7 24072 lineto
44730.2 24015.8 lineto
44674 23959.5 lineto
44617.7 23847 lineto
stroke
newpath
46698.7 23340.8 moveto
46698.7 24521.9 lineto
stroke
newpath
47204.9 23340.8 moveto
47204.9 23959.5 lineto
47148.6 24072 lineto
47036.2 24128.2 lineto
46867.4 24128.2 lineto
46754.9 24072 lineto
46698.7 24015.8 lineto
stroke
newpath
47936 23340.8 moveto
47823.6 23397.1 lineto
47767.3 23453.3 lineto
47711.1 23565.8 lineto
47711.1 23903.3 lineto
47767.3 24015.8 lineto
47823.6 24072 lineto
47936 24128.2 lineto
48104.8 24128.2 lineto
48217.3 24072 lineto
48273.5 24015.8 lineto
48329.7 23903.3 lineto
48329.7 23565.8 lineto
48273.5 23453.3 lineto
48217.3 23397.1 lineto
48104.8 23340.8 lineto
47936 23340.8 lineto
stroke
newpath
49004.7 23340.8 moveto
48892.2 23397.1 lineto
48835.9 23509.6 lineto
48835.9 24521.9 lineto
stroke
newpath
49904.5 23397.1 moveto
49792.1 23340.8 lineto
49567.1 23340.8 lineto
49454.6 23397.1 lineto
49398.4 23509.6 lineto
49398.4 23959.5 lineto
49454.6 24072 lineto
49567.1 24128.2 lineto
49792.1 24128.2 lineto
49904.5 24072 lineto
49960.8 23959.5 lineto
49960.8 23847 lineto
49398.4 23734.5 lineto
stroke
newpath
50410.7 23397.1 moveto
50523.2 23340.8 lineto
50748.2 23340.8 lineto
50860.7 23397.1 lineto
50916.9 23509.6 lineto
50916.9 23565.8 lineto
50860.7 23678.3 lineto
50748.2 23734.5 lineto
50579.5 23734.5 lineto
50467 23790.8 lineto
50410.7 23903.3 lineto
50410.7 23959.5 lineto
50467 24072 lineto
50579.5 24128.2 lineto
50748.2 24128.2 lineto
50860.7 24072 lineto
stroke
newpath
51310.6 22890.9 moveto
51366.9 22947.1 lineto
51479.4 23115.9 lineto
51535.6 23228.4 lineto
51591.8 23397.1 lineto
51648.1 23678.3 lineto
51648.1 23903.3 lineto
51591.8 24184.5 lineto
51535.6 24353.2 lineto
51479.4 24465.7 lineto
51366.9 24634.4 lineto
51310.6 24690.7 lineto
stroke
newpath
24641.3 22882.2 moveto
25773.5 21750 lineto
stroke
newpath
25773.5 22882.2 moveto
24641.3 21750 lineto
stroke
newpath
25607.7 21915.8 moveto
25607.7 22716.4 lineto
24807.1 22716.4 lineto
24807.1 21915.8 lineto
25607.7 21915.8 lineto
poly0
0 0 0 setrgbcolor
0 0 0 setrgbcolor
newpath
27519.8 21781.8 moveto
26844.9 21781.8 lineto
stroke
newpath
27182.4 21781.8 moveto
27182.4 22962.9 lineto
27069.9 22794.2 lineto
26957.4 22681.7 lineto
26844.9 22625.4 lineto
stroke
newpath
28026 21894.3 moveto
28082.3 21838 lineto
28026 21781.8 lineto
27969.8 21838 lineto
28026 21894.3 lineto
28026 21781.8 lineto
stroke
newpath
29150.9 22962.9 moveto
28588.5 22962.9 lineto
28532.2 22400.5 lineto
28588.5 22456.7 lineto
28701 22512.9 lineto
28982.2 22512.9 lineto
29094.7 22456.7 lineto
29150.9 22400.5 lineto
29207.1 22288 lineto
29207.1 22006.8 lineto
29150.9 21894.3 lineto
29094.7 21838 lineto
28982.2 21781.8 lineto
28701 21781.8 lineto
28588.5 21838 lineto
28532.2 21894.3 lineto
stroke
newpath
29657.1 22850.4 moveto
29713.3 22906.6 lineto
29825.8 22962.9 lineto
30107 22962.9 lineto
30219.5 22906.6 lineto
30275.8 22850.4 lineto
30332 22737.9 lineto
30332 22625.4 lineto
30275.8 22456.7 lineto
29600.8 21781.8 lineto
30332 21781.8 lineto
stroke
newpath
30838.2 21781.8 moveto
30838.2 22569.2 lineto
stroke
newpath
30838.2 22456.7 moveto
30894.4 22512.9 lineto
31006.9 22569.2 lineto
31175.6 22569.2 lineto
31288.1 22512.9 lineto
31344.4 22400.5 lineto
31344.4 21781.8 lineto
stroke
newpath
31344.4 22400.5 moveto
31400.6 22512.9 lineto
31513.1 22569.2 lineto
31681.8 22569.2 lineto
31794.3 22512.9 lineto
31850.6 22400.5 lineto
31850.6 21781.8 lineto
stroke
newpath
32413 21781.8 moveto
32413 22569.2 lineto
stroke
newpath
32413 22456.7 moveto
32469.2 22512.9 lineto
32581.7 22569.2 lineto
32750.4 22569.2 lineto
32862.9 22512.9 lineto
32919.2 22400.5 lineto
32919.2 21781.8 lineto
stroke
newpath
32919.2 22400.5 moveto
32975.4 22512.9 lineto
33087.9 22569.2 lineto
33256.6 22569.2 lineto
33369.1 22512.9 lineto
33425.4 22400.5 lineto
33425.4 21781.8 lineto
stroke
newpath
35731.3 23019.1 moveto
34718.9 21500.6 lineto
stroke
newpath
37249.9 22962.9 moveto
37362.4 22962.9 lineto
37474.9 22906.6 lineto
37531.1 22850.4 lineto
37587.3 22737.9 lineto
37643.6 22512.9 lineto
37643.6 22231.7 lineto
37587.3 22006.8 lineto
37531.1 21894.3 lineto
37474.9 21838 lineto
37362.4 21781.8 lineto
37249.9 21781.8 lineto
37137.4 21838 lineto
37081.2 21894.3 lineto
37024.9 22006.8 lineto
36968.7 22231.7 lineto
36968.7 22512.9 lineto
37024.9 22737.9 lineto
37081.2 22850.4 lineto
37137.4 22906.6 lineto
37249.9 22962.9 lineto
stroke
newpath
38149.8 21894.3 moveto
38206 21838 lineto
38149.8 21781.8 lineto
38093.5 21838 lineto
38149.8 21894.3 lineto
38149.8 21781.8 lineto
stroke
newpath
38937.2 22962.9 moveto
39049.7 22962.9 lineto
39162.1 22906.6 lineto
39218.4 22850.4 lineto
39274.6 22737.9 lineto
39330.9 22512.9 lineto
39330.9 22231.7 lineto
39274.6 22006.8 lineto
39218.4 21894.3 lineto
39162.1 21838 lineto
39049.7 21781.8 lineto
38937.2 21781.8 lineto
38824.7 21838 lineto
38768.4 21894.3 lineto
38712.2 22006.8 lineto
38656 22231.7 lineto
38656 22512.9 lineto
38712.2 22737.9 lineto
38768.4 22850.4 lineto
38824.7 22906.6 lineto
38937.2 22962.9 lineto
stroke
newpath
40343.2 22962.9 moveto
40118.3 22962.9 lineto
40005.8 22906.6 lineto
39949.5 22850.4 lineto
39837.1 22681.7 lineto
39780.8 22456.7 lineto
39780.8 22006.8 lineto
39837.1 21894.3 lineto
39893.3 21838 lineto
40005.8 21781.8 lineto
40230.8 21781.8 lineto
40343.2 21838 lineto
40399.5 21894.3 lineto
40455.7 22006.8 lineto
40455.7 22288 lineto
40399.5 22400.5 lineto
40343.2 22456.7 lineto
40230.8 22512.9 lineto
40005.8 22512.9 lineto
39893.3 22456.7 lineto
39837.1 22400.5 lineto
39780.8 22288 lineto
stroke
newpath
41186.9 22962.9 moveto
41299.4 22962.9 lineto
41411.9 22906.6 lineto
41468.1 22850.4 lineto
41524.3 22737.9 lineto
41580.6 22512.9 lineto
41580.6 22231.7 lineto
41524.3 22006.8 lineto
41468.1 21894.3 lineto
41411.9 21838 lineto
41299.4 21781.8 lineto
41186.9 21781.8 lineto
41074.4 21838 lineto
41018.2 21894.3 lineto
40961.9 22006.8 lineto
40905.7 22231.7 lineto
40905.7 22512.9 lineto
40961.9 22737.9 lineto
41018.2 22850.4 lineto
41074.4 22906.6 lineto
41186.9 22962.9 lineto
stroke
newpath
42030.5 22962.9 moveto
42030.5 22737.9 lineto
stroke
newpath
42480.5 22962.9 moveto
42480.5 22737.9 lineto
stroke
newpath
44224 21331.8 moveto
44167.8 21388.1 lineto
44055.3 21556.8 lineto
43999 21669.3 lineto
43942.8 21838 lineto
43886.6 22119.2 lineto
43886.6 22344.2 lineto
43942.8 22625.4 lineto
43999 22794.2 lineto
44055.3 22906.6 lineto
44167.8 23075.4 lineto
44224 23131.6 lineto
stroke
newpath
45292.6 21781.8 moveto
44617.7 21781.8 lineto
stroke
newpath
44955.2 21781.8 moveto
44955.2 22962.9 lineto
44842.7 22794.2 lineto
44730.2 22681.7 lineto
44617.7 22625.4 lineto
stroke
newpath
45742.6 22850.4 moveto
45798.8 22906.6 lineto
45911.3 22962.9 lineto
46192.5 22962.9 lineto
46305 22906.6 lineto
46361.2 22850.4 lineto
46417.5 22737.9 lineto
46417.5 22625.4 lineto
46361.2 22456.7 lineto
45686.3 21781.8 lineto
46417.5 21781.8 lineto
stroke
newpath
47823.6 21781.8 moveto
47823.6 22962.9 lineto
stroke
newpath
48329.7 21781.8 moveto
48329.7 22400.5 lineto
48273.5 22512.9 lineto
48161 22569.2 lineto
47992.3 22569.2 lineto
47879.8 22512.9 lineto
47823.6 22456.7 lineto
stroke
newpath
49060.9 21781.8 moveto
48948.4 21838 lineto
48892.2 21894.3 lineto
48835.9 22006.8 lineto
48835.9 22344.2 lineto
48892.2 22456.7 lineto
48948.4 22512.9 lineto
49060.9 22569.2 lineto
49229.6 22569.2 lineto
49342.1 22512.9 lineto
49398.4 22456.7 lineto
49454.6 22344.2 lineto
49454.6 22006.8 lineto
49398.4 21894.3 lineto
49342.1 21838 lineto
49229.6 21781.8 lineto
49060.9 21781.8 lineto
stroke
newpath
50129.5 21781.8 moveto
50017 21838 lineto
49960.8 21950.5 lineto
49960.8 22962.9 lineto
stroke
newpath
51029.4 21838 moveto
50916.9 21781.8 lineto
50691.9 21781.8 lineto
50579.5 21838 lineto
50523.2 21950.5 lineto
50523.2 22400.5 lineto
50579.5 22512.9 lineto
50691.9 22569.2 lineto
50916.9 22569.2 lineto
51029.4 22512.9 lineto
51085.6 22400.5 lineto
51085.6 22288 lineto
50523.2 22175.5 lineto
stroke
newpath
51535.6 21838 moveto
51648.1 21781.8 lineto
51873.1 21781.8 lineto
51985.5 21838 lineto
52041.8 21950.5 lineto
52041.8 22006.8 lineto
51985.5 22119.2 lineto
51873.1 22175.5 lineto
51704.3 22175.5 lineto
51591.8 22231.7 lineto
51535.6 22344.2 lineto
51535.6 22400.5 lineto
51591.8 22512.9 lineto
51704.3 22569.2 lineto
51873.1 22569.2 lineto
51985.5 22512.9 lineto
stroke
newpath
52435.5 21331.8 moveto
52491.7 21388.1 lineto
52604.2 21556.8 lineto
52660.5 21669.3 lineto
52716.7 21838 lineto
52772.9 22119.2 lineto
52772.9 22344.2 lineto
52716.7 22625.4 lineto
52660.5 22794.2 lineto
52604.2 22906.6 lineto
52491.7 23075.4 lineto
52435.5 23131.6 lineto
stroke
showpage
grestore
%%EOF
