%!PS-Adobe-3.0
%%Creator: PCBNEW
%%CreationDate: Wed Jul 22 09:56:17 2020
%%Title: C:\Proyectos\test\l293d\l293d\gerber\l293d-NPTH-drl_map.ps
%%Pages: 1
%%PageOrder: Ascend
%%BoundingBox: 0 0 596 842
%%DocumentMedia: A4 595 842 0 () ()
%%Orientation: Landscape
%%EndComments
%%BeginProlog
/line { newpath moveto lineto stroke } bind def
/cir0 { newpath 0 360 arc stroke } bind def
/cir1 { newpath 0 360 arc gsave fill grestore stroke } bind def
/cir2 { newpath 0 360 arc gsave fill grestore stroke } bind def
/arc0 { newpath arc stroke } bind def
/arc1 { newpath 4 index 4 index moveto arc closepath gsave fill
    grestore stroke } bind def
/arc2 { newpath 4 index 4 index moveto arc closepath gsave fill
    grestore stroke } bind def
/poly0 { stroke } bind def
/poly1 { closepath gsave fill grestore stroke } bind def
/poly2 { closepath gsave fill grestore stroke } bind def
/rect0 { rectstroke } bind def
/rect1 { rectfill } bind def
/rect2 { rectfill } bind def
/linemode0 { 0 setlinecap 0 setlinejoin 0 setlinewidth } bind def
/linemode1 { 1 setlinecap 1 setlinejoin } bind def
/dashedline { [200] 100 setdash } bind def
/solidline { [] 0 setdash } bind def
/phantomshow { moveto
    /KicadFont findfont 0.000001 scalefont setfont
    show } bind def
/textshow { gsave
    findfont exch scalefont setfont concat 1 scale 0 0 moveto show
    } bind def
/reencodefont {
  findfont dup length dict begin
  { 1 index /FID ne
    { def }
    { pop pop } ifelse
  } forall
  /Encoding ISOLatin1Encoding def
  currentdict
  end } bind def
/KicadFont /Helvetica reencodefont definefont pop
/KicadFont-Bold /Helvetica-Bold reencodefont definefont pop
/KicadFont-Oblique /Helvetica-Oblique reencodefont definefont pop
/KicadFont-BoldOblique /Helvetica-BoldOblique reencodefont definefont pop
%%EndProlog
%%Page: 1 1
%%BeginPageSetup
gsave
0.0072 0.0072 scale
linemode1
82680 0 translate 90 rotate
94.596 setlinewidth
%%EndPageSetup
0 0 0 setrgbcolor
111.728 setlinewidth
27248.3 77741.2 668.895 cir0
0 0 0 setrgbcolor
89681.7 77268.2 668.895 cir0
0 0 0 setrgbcolor
27248.3 38483.8 945.96 cir0
0 0 0 setrgbcolor
89681.7 38483.8 668.895 cir0
0 0 0 setrgbcolor
newpath
25829.4 78687.1 moveto
91100.6 78687.1 lineto
stroke
0 0 0 setrgbcolor
newpath
25829.4 37064.9 moveto
25829.4 78687.1 lineto
stroke
0 0 0 setrgbcolor
newpath
91100.6 37064.9 moveto
25829.4 37064.9 lineto
stroke
0 0 0 setrgbcolor
newpath
91100.6 78687.1 moveto
91100.6 37064.9 lineto
stroke
78.7397 setlinewidth
118.11 setlinewidth
0 0 0 setrgbcolor
0 0 0 setrgbcolor
newpath
26901.2 35175.5 moveto
26901.2 36356.6 lineto
27182.4 36356.6 lineto
27351.1 36300.3 lineto
27463.6 36187.9 lineto
27519.8 36075.4 lineto
27576.1 35850.4 lineto
27576.1 35681.7 lineto
27519.8 35456.7 lineto
27463.6 35344.2 lineto
27351.1 35231.7 lineto
27182.4 35175.5 lineto
26901.2 35175.5 lineto
stroke
newpath
28082.3 35175.5 moveto
28082.3 35962.9 lineto
stroke
newpath
28082.3 35737.9 moveto
28138.5 35850.4 lineto
28194.8 35906.6 lineto
28307.2 35962.9 lineto
28419.7 35962.9 lineto
stroke
newpath
28813.4 35175.5 moveto
28813.4 35962.9 lineto
stroke
newpath
28813.4 36356.6 moveto
28757.2 36300.3 lineto
28813.4 36244.1 lineto
28869.7 36300.3 lineto
28813.4 36356.6 lineto
28813.4 36244.1 lineto
stroke
newpath
29544.6 35175.5 moveto
29432.1 35231.7 lineto
29375.9 35344.2 lineto
29375.9 36356.6 lineto
stroke
newpath
30163.3 35175.5 moveto
30050.8 35231.7 lineto
29994.5 35344.2 lineto
29994.5 36356.6 lineto
stroke
newpath
31513.1 35175.5 moveto
31513.1 36356.6 lineto
31906.8 35512.9 lineto
32300.5 36356.6 lineto
32300.5 35175.5 lineto
stroke
newpath
33369.1 35175.5 moveto
33369.1 35794.2 lineto
33312.9 35906.6 lineto
33200.4 35962.9 lineto
32975.4 35962.9 lineto
32862.9 35906.6 lineto
stroke
newpath
33369.1 35231.7 moveto
33256.6 35175.5 lineto
32975.4 35175.5 lineto
32862.9 35231.7 lineto
32806.7 35344.2 lineto
32806.7 35456.7 lineto
32862.9 35569.2 lineto
32975.4 35625.4 lineto
33256.6 35625.4 lineto
33369.1 35681.7 lineto
stroke
newpath
33931.5 35962.9 moveto
33931.5 34781.8 lineto
stroke
newpath
33931.5 35906.6 moveto
34044 35962.9 lineto
34269 35962.9 lineto
34381.5 35906.6 lineto
34437.7 35850.4 lineto
34494 35737.9 lineto
34494 35400.5 lineto
34437.7 35288 lineto
34381.5 35231.7 lineto
34269 35175.5 lineto
34044 35175.5 lineto
33931.5 35231.7 lineto
stroke
newpath
35000.2 35288 moveto
35056.4 35231.7 lineto
35000.2 35175.5 lineto
34943.9 35231.7 lineto
35000.2 35288 lineto
35000.2 35175.5 lineto
stroke
newpath
35000.2 35906.6 moveto
35056.4 35850.4 lineto
35000.2 35794.2 lineto
34943.9 35850.4 lineto
35000.2 35906.6 lineto
35000.2 35794.2 lineto
stroke
showpage
grestore
%%EOF
